1.2227,286,8.0095,8.1779,3.6493,286,6.1854,5.9381,2.9604,338,9.031,6.419,3.212,290,6.9144,8.409,-1.5755,430,13.504,5.7678,1.5121,282,7.4949,8.295,4.9941,286,4.8632,4.3081,4.7516,430,7.4568,5.9718
7.2121,442,5.7031,6.439,2.0725,318,14.164,6.4447,2.9133,302,9.8722,5.7835,7.7596,322,8.9595,5.1481,6.9453,314,6.0791,7.234,9.7461,266,4.8124,2.3446,1.3437,302,8.7278,3.7591,7.9695,422,6.0082,8.6035
-11.581,450,7.5339,6.0638,0.7164,442,6.5237,4.1774,14.806,434,9.3262,5.2752,-16.668,358,6.6488,6.2691,-30.496,358,3.8573,5.6233,-24.71,358,4.6482,5.9514,-16.528,358,16.468,12.132,-32.417,398,17.402,15.748
9.7871,326,7.4481,6.2379,-1.4073,462,5.4993,1.3803,1.6804,262,2.7664,0.715,-0.9962,258,0.50691,0.0104,8.4126,282,5.2034,2.585,9.9566,482,4.781,4.2936,3.6883,370,5.51,5.828,13.91,482,6.205,6.4269
1.7738,314,15.181,5.8452,4.4965,338,17.218,6.0148,4.7096,490,2.0378,0.5775,4.1121,294,6.2621,7.3613,9.9498,462,6.3918,8.1087,4.1403,302,6.6078,9.2061,14.77,466,9.611,5.5058,14.255,446,10.329,10.643
0.6927,310,13.216,2.136,3.7203,266,4.3962,1.6953,-1.7344,330,4.5734,3.3099,5.1894,270,4.9483,2.6373,9.3652,406,21.796,11.711,4.708,266,3.9774,2.6763,-1.858,394,10.153,7.1606,2.1102,350,16.482,12.477
4.2919,258,0.71082,0.1111,0.7745,446,21.253,7.1264,1.6079,314,6.1602,6.0048,-4.506,334,5.4531,2.7342,-1.8329,294,3.7113,3.0838,-0.2792,298,3.6747,2.4634,-0.6065,410,15.065,5.4693,-4.1963,302,5.6368,5.0081
0.8753,298,7.932,2.5686,5.6047,470,6.2843,3.4014,3.6053,262,3.3401,0.9681,6.4106,466,5.5528,4.1629,-1.7184,466,5.4115,3.1348,3.1688,294,3.4789,1.3176,7.0153,462,6.8128,3.4327,11.128,446,4.6664,1.6682
10.555,326,17.38,9.3627,5.8579,302,16.096,9.7477,0.1235,346,8.0735,5.513,5.4072,346,16.803,10.492,9.2474,346,14.973,7.4338,9.4563,338,20.184,8.6401,7.6471,346,11.1,9.5879,9.2932,346,19.359,9.7742
3.3388,482,5.0325,2.237,13.302,346,6.8105,5.862,5.2133,354,8.6075,5.6001,10.569,446,7.1701,5.5154,5.8656,342,8.4161,8.4122,8.567,494,0.71712,0.1433,5.295,350,5.3102,3.5883,-3.6998,318,18.275,8.2775
5.4224,342,9.103,7.0256,5.5098,350,14.868,7.3418,1.9868,302,7.9485,4.7285,2.6005,342,12.447,7.0985,7.3457,458,9.9911,2.7985,6.3968,458,4.5682,2.8077,3.2682,450,6.7565,2.5255,2.791,494,1.1105,0.2475
4.0201,370,7.5642,8.7758,2.5498,402,19.427,12.465,10.486,402,19.483,6.9706,3.1851,442,7.7882,6.0072,1.2588,494,1.8821,0.2027,0.2293,374,9.15,7.8513,8.4934,354,15.695,6.812,14.091,462,5.4581,4.3541
3.1959,350,6.5475,4.8369,7.7192,302,4.4326,0.8021,6.7424,334,11.994,5.0349,5.5903,266,1.4964,0.5775,3.8763,350,5.2298,5.4975,5.6993,354,7.5639,6.3674,-4.1728,274,4.732,2.8445,-2.4749,362,8.7764,11.439
7.1342,330,11.295,4.0497,7.2883,282,6.3814,4.7907,4.5165,274,6.7807,7.1662,5.2044,350,24.775,7.0626,6.0341,326,7.7488,9.7719,4.7944,338,15.207,8.0767,3.1063,274,3.9696,1.7244,4.2806,442,5.529,5.9575
-6.3774,298,6.4842,3.3238,-4.4411,294,6.5449,2.5591,5.499,310,4.9551,4.5099,-10.539,438,7.3875,5.0068,-4.6582,334,10.865,7.8939,-6.6467,398,21.2,6.6575,-4.0591,426,9.8408,6.5354,1.897,430,12.734,13.319
1.0928,430,6.1379,4.7142,4.6707,374,10.05,4.0178,6.3718,386,16.721,7.4601,8.2897,354,10.717,3.5396,15.169,278,6.2748,8.0118,5.1706,282,5.9533,3.0049,16.394,362,9.545,7.6438,21.41,278,6.8186,13.859
-0.2104,470,5.7607,2.6355,3.0763,474,10.024,3.2173,2.8704,442,6.8089,5.4808,10.279,438,16.459,5.0389,8.3407,370,20.973,9.9353,7.6714,462,24.269,5.3066,-0.4576,318,5.7075,2.2676,4.1086,294,6.5599,7.1859
1.0152,362,6.2439,4.9217,1.9019,354,7.1708,6.5251,2.7819,354,6.5186,6.0041,0.6552,354,6.8707,7.0661,-1.7472,342,6.1134,6.4385,-7.652,390,6.4233,4.3169,-3.8523,470,5.9641,1.9094,-3.6429,378,6.3732,5.5749
6.5035,494,1.1048,0.0802,11.179,474,9.7166,5.3919,2.7017,310,6.749,6.4495,-1.2451,414,10.28,5.46,11.434,382,22.011,9.6722,-0.8185,422,18.835,6.5815,1.2493,402,19.817,7.8777,5.3429,398,30.233,10.577
3.8526,430,6.9172,4.3308,13.171,278,6.8155,3.4427,7.9751,278,6.1989,4.7098,11.786,278,13.973,4.8061,11.564,382,5.889,9.2224,8.5798,382,7.9729,8.3983,13.455,294,8.6357,6.5207,11.919,294,6.4125,8.1246
4.3198,262,2.3401,0.289,2.5301,266,4.0831,2.1652,4.2272,310,6.2419,7.9788,2.516,282,4.9435,2.9196,0.4535,454,5.1582,7.9709,2.6932,282,6.1446,6.4999,1.69,470,9.2934,4.2551,4.6334,282,5.3673,8.6832
6.563,410,11.733,5.8672,1.6754,366,20.684,6.4929,3.3744,322,6.4998,7.0027,5.2979,354,12.627,2.6875,7.1362,450,8.2494,2.5496,9.1853,286,7.144,3.0058,6.7142,274,2.9235,1.7391,10.214,278,5.2537,5.4098
-1.8954,278,4.8137,3.4382,3.9926,318,8.2057,3.4011,4.2292,282,6.3205,4.2511,4.6444,482,4.8812,2.2281,7.8284,466,11.726,8.5088,10.299,402,20.804,4.4549,7.913,394,10.425,6.3934,5.3789,258,0.53139,0.0502
7.2514,306,5.3271,7.1655,8.1833,314,8.9663,9.5077,3.5595,410,12.83,7.8771,4.6137,314,12.763,4.2719,12.961,286,4.7961,2.7232,11.388,290,9.5464,3.7367,6.1175,474,0.53472,0.0566,12.519,454,6.979,3.1249
32.61,410,16.491,12.964,7.8035,298,4.268,2.9103,-12.083,286,9.938,3.8978,7.0648,394,6.4851,5.252,17.769,394,3.9394,7.2751,11.291,390,6.943,8.8381,10.068,450,5.0641,6.3853,8.9782,486,3.6562,2.8203
7.8034,446,13.401,8.146,-0.6758,478,6.6872,3.844,2.1676,322,14.956,3.4483,3.0788,446,6.5026,5.5632,10.287,438,11.312,2.5551,5.1112,450,6.4803,4.0239,-4.3275,294,5.9852,4.5774,0.1046,282,4.5894,3.3571
2.6005,478,5.33,1.255,0.8355,378,6.4736,3.7636,3.4864,406,15.659,6.4849,6.1136,258,1.525,0.1594,10.008,278,4.0672,1.127,9.9788,262,2.3065,1.1764,13.26,342,16.967,7.7248,11.042,334,19.055,8.1186
4.92,278,4.4422,4.514,10.387,482,2.7549,0.4998,7.6179,310,14.846,8.0709,7.7736,486,3.1108,1.5861,-2.8666,370,10.074,5.558,-1.4255,482,3.5032,1.9106,9.3502,486,3.3824,2.8438,11.03,482,4.1358,4.7718
-1.5467,266,4.0114,2.7571,5.3144,270,6.6013,3.7242,6.5615,394,5.2991,6.0994,-0.8687,266,6.1598,4.6645,1.0032,490,2.6501,1.4647,2.4226,494,0.63417,0.1368,-9.5776,494,0.63952,0.4126,6.4718,494,0.53261,0.0744
0.1581,494,0.80663,0.235,-0.455,442,7.5239,3.3277,0.0809,442,15.564,7.3819,-1.9497,358,17.896,5.3024,0.7994,306,10.259,7.6914,2.0752,382,15.015,10.99,18.548,370,9.0154,11.982,19.052,306,8.8923,17.521
4.9926,274,6.6943,5.2801,-1.1758,342,10.047,5.0288,-0.5784,382,19.154,4.3438,0.5419,358,29.712,5.7866,11.774,358,16.149,4.3265,0.3798,370,21.504,5.8965,5.5064,374,14.378,7.1283,1.1036,342,8.3542,7.0444
6.3243,350,8.5165,4.7943,9.7891,282,4.3031,4.5136,8.5134,298,8.3773,7.0561,3.3989,282,4.1752,4.9567,1.5718,470,6.0578,7.4973,-2.4909,282,4.2536,2.8758,-5.2935,294,9.6494,10.56,-12.383,478,5.2895,7.4721
4.5723,350,7.6256,7.1096,5.6062,390,28.684,10.096,5.9487,318,8.8697,6.3943,6.1262,346,8.1577,6.3408,7.6246,454,6.3104,3.2655,3.3513,338,9.3551,5.2199,6.8141,346,11.683,9.0478,4.1061,442,12.395,10.192
6.132,342,13.638,6.9387,10.97,342,11.844,11.195,7.4595,362,10.555,5.6931,5.4327,342,12.743,9.7493,4.1637,450,8.1284,12.511,10.172,430,10.193,10.963,5.5094,446,12.884,8.3243,9.9744,450,11.268,14.465
-2.5335,374,12.324,5.5892,-1.4061,366,14.533,5.7632,6.4077,270,3.4415,1.5307,0.9083,474,9.0077,2.7087,-4.4158,334,15.112,8.3877,-2.2304,482,5.1134,2.5766,-1.8933,482,3.6257,0.881,-2.4459,458,3.3568,3.2118
2.187,302,5.1997,7.4401,5.0118,266,4.7017,1.6318,5.3161,434,16.258,10.285,0.3846,342,15.007,6.554,6.1197,406,8.3826,13.131,1.7825,402,6.1761,10.845,4.043,326,13.526,9.6094,0.7151,326,12.641,7.7553
4.2238,334,17.783,14.003,0.8947,430,19.052,7.4662,0.2201,442,31.718,12.169,4.2685,402,15.351,7.8779,3.2192,282,3.0909,0.9716,3.5962,398,9.7975,7.3852,0.2635,434,17.092,6.9545,2.3047,286,3.9234,2.6039
3.2765,430,8.6329,6.5028,7.1028,434,18.139,6.0466,6.1597,270,4.6389,4.6003,6.5985,426,24.302,5.7457,2.2092,430,7.6427,6.902,10.641,338,7.3399,3.0954,0.8786,330,5.9315,3.9967,-11.563,290,2.1395,0.63
7.1674,278,11.676,2.6026,8.9601,474,9.5707,5.4949,5.7916,474,7.78,3.3386,4.0346,290,5.486,1.9401,2.5342,374,16.86,6.1737,8.2474,302,6.8484,7.2446,5.7999,434,5.5228,4.6933,7.0957,290,6.1904,5.3186
12.536,302,6.7979,7.1452,10.954,326,18.436,10.903,5.6947,314,16.002,7.2656,4.9194,330,9.6447,6.4206,5.545,262,4.0606,1.6874,5.9381,286,4.6352,1.0321,6.4465,286,13.41,4.0762,1.1062,326,14.763,4.4239
5.0846,266,2.7551,0.1952,5.465,462,4.7483,3.2323,3.9841,318,10.601,2.0194,7.234,422,7.0389,3.6285,8.1701,426,9.0978,6.4608,3.6668,418,11.189,4.8972,11.716,410,7.1648,5.1462,4.5729,346,4.087,3.7431
3.6384,430,9.1369,7.2525,1.6516,270,4.6221,1.3711,1.7741,490,2.5038,1.1138,-3.7294,266,5.9278,1.9307,0.0316,298,4.5315,4.1392,-0.377,266,4.9758,3.8768,2.872,266,3.4589,1.9271,0.5973,266,3.392,2.5578
4.4698,334,16.649,9.4525,3.6879,462,2.7212,0.7567,4.4097,482,4.4013,2.5175,5.7627,462,3.1367,0.388,6.3232,366,13.966,4.0508,-0.5625,362,11.235,5.6036,2.5026,494,2.792,0.527,5.5816,278,7.344,2.941
14.143,486,2.5187,0.7803,4.3071,462,3.0985,0.3941,5.5492,346,7.2421,5.9175,5.0628,358,12.513,6.9301,7.2788,358,14.311,7.4342,5.1119,458,4.1549,2.251,7.6626,362,15.774,7.8949,-0.008,342,17.422,5.6556
-2.4276,470,7.0774,2.8732,5.2581,450,9.9663,8.229,6.0032,330,7.827,4.67,2.3865,342,11.12,12.235,-8.6234,466,7.7873,8.0802,-2.1579,458,5.7219,6.7104,-6.5424,466,4.4413,7.37,-13.57,350,12.886,12.576
19.008,482,4.2805,1.2066,6.2,278,7.0259,6.5895,-1.0869,350,18.256,7.9717,2.6368,398,10.012,6.2311,15.364,370,8.9813,8.8638,9.5965,466,5.9839,5.728,10.264,370,9.7854,11.406,19.723,302,7.7778,12.131
2.5033,322,10.292,10.563,7.6833,486,0.92575,0.3251,5.0244,406,5.7791,6.295,5.5628,494,0.52016,0.0701,1.4664,314,14.127,11.226,1.1485,346,4.9957,7.4585,3.9866,430,5.6875,8.6267,-3.7585,346,4.7944,10.235
7.1093,442,6.4381,6.2317,6.2372,434,9.8656,3.1095,2.8595,334,33.023,6.6669,2.7947,422,10.558,1.5244,8.4226,270,5.2864,5.4397,1.5417,262,3.6125,2.8307,0.257,370,8.3767,6.1792,4.0557,314,7.3615,7.5818
6.6942,450,3.2864,0.9442,4.4235,422,9.5477,6.7523,3.3376,322,7.7616,7.9262,4.2635,326,9.1087,3.5588,4.2085,302,5.4045,9.2246,6.4337,310,6.1956,6.5764,5.803,322,9.4254,7.7187,6.9613,494,1.4367,0.743
4.8497,410,11.978,7.3681,2.6247,394,11.062,9.9562,4.2425,486,4.3783,1.8819,1.4739,386,14.977,7.5599,6.697,418,7.184,11.167,-0.381,366,12.699,7.6127,4.6794,466,5.5889,5.506,1.828,430,14.316,11.074
9.2927,482,7.9208,3.1178,9.3936,490,2.9324,0.9117,8.8726,354,7.1791,5.9481,3.6433,446,8.8114,4.319,1.18,286,4.5764,4.4877,6.6037,494,0.6101,0.099,3.7121,350,9.3265,3.2592,5.7133,278,7.5699,5.5058
3.7555,302,7.0243,2.3128,4.3307,486,2.9777,0.8511,4.1691,486,4.1689,1.484,12.043,394,8.4519,7.4929,13.784,350,13.407,14.23,10.655,342,13.903,8.2651,12.457,342,14.821,10.293,7.3989,314,11.969,10.561
2.9246,494,0.7043,0.1976,6.2667,462,4.8104,3.5108,8.4359,458,7.6433,5.7086,7.7175,386,16.656,4.9204,8.8916,366,11.997,4.8908,9.5057,466,4.1363,3.2024,9.4002,458,5.9103,5.661,10.795,378,11.604,9.4452
2.7198,274,5.3363,4.7828,6.4235,286,6.1511,4.4327,6.0354,306,12.236,8.5844,7.7495,390,9.0406,10.816,7.961,438,14.643,8.4649,3.4,398,14.141,7.6766,9.9075,390,7.8899,12.523,11.062,406,19.294,12.37
2.1645,326,5.0123,4.7485,1.0379,478,10.767,8.6428,3.2827,482,14.74,8.1097,-6.0343,262,1.554,0.5697,0.4294,414,10.565,5.975,-2.7786,438,31.932,7.2861,-3.9766,390,33.243,5.919,-4.7879,274,5.5439,1.737
-9.9687,414,5.7163,5.7871,10.182,486,2.5366,1.0229,18.959,378,12.191,8.2395,-6.8307,438,6.2599,3.8565,-7.6904,422,12.401,9.144,-15.683,438,5.4219,7.3305,-12.861,438,5.2177,6.9465,-14.398,430,7.3104,12.355
-3.2951,274,2.7955,0.4142,1.5131,270,3.9246,0.9457,3.4532,442,9.3629,6.6965,0.3704,310,5.1235,2.9215,4.1695,470,6.0543,5.451,2.6352,470,6.1484,5.6804,8.5106,458,5.6787,2.7505,7.3376,282,3.3665,2.6709
4.3791,366,7.8364,4.9256,7.0119,374,15.223,5.5335,6.2703,370,7.567,6.0244,5.778,342,26.362,8.2534,5.9402,486,3.5344,4.2533,5.1046,342,20.315,8.7009,2.8309,330,22.224,7.9297,6.9594,342,15.543,8.5508
8.7272,262,2.7757,1.0868,1.9775,274,6.3944,1.1286,3.479,282,11.533,5.0686,0.1872,342,12.893,4.3499,11.534,326,8.0753,9.4167,11.6,374,8.3228,11.82,5.7639,414,5.726,9.4982,13.321,370,8.4631,18.427
6.3223,322,9.4458,4.3772,1.4061,402,13.887,7.582,1.561,414,11.386,7.3015,1.2666,402,13.371,8.5161,5.5073,494,1.7485,0.7469,1.3464,490,2.7989,0.901,4.2401,478,3.1879,1.3744,0.4329,482,3.453,2.3585
2.9641,382,7.5766,3.6155,4.3175,386,16.029,6.8592,2.3759,378,13.366,6.3425,1.6061,358,14.582,5.388,2.0911,426,6.2995,8.3385,3.0515,430,15.438,7.644,1.9467,350,12.463,7.2483,1.8105,330,11.594,6.8646
7.4494,382,7.9031,6.1677,9.9149,398,25.704,6.2373,7.6152,442,5.8983,4.299,7.3729,402,12.058,6.8287,8.9814,374,8.6529,11.945,10.131,370,5.6752,8.3006,8.3748,410,7.701,6.856,7.2695,362,7.3319,12.061
-1.845,290,10.535,4.6607,8.5845,282,13.445,7.3739,2.2759,302,9.7238,4.282,8.2696,390,13.547,7.1482,4.2418,338,22.507,7.2098,12.622,378,11.35,9.3264,7.4872,382,12.947,6.8818,14.086,390,9.3195,13.655
12.271,470,4.6516,3.9767,11.363,478,4.191,1.5513,10.024,346,19.16,5.195,10.14,482,2.4019,0.5748,3.8534,438,8.7673,3.605,7.2178,258,0.60022,0.2251,5.2632,362,6.0777,4.3443,1.0639,494,0.60856,0.2398
4.1318,446,15.918,4.425,5.3884,314,15.287,5.4837,0.3396,330,8.8927,8.0766,3.5242,322,17.812,7.7422,8.2249,390,11.646,6.1972,-2.5306,326,12.832,7.4307,-4.4869,326,17.293,8.1444,3.1674,450,12.367,3.3439
12.116,466,4.6413,1.6308,4.4191,438,11.067,4.6806,1.9981,270,4.3481,3.1413,0.1054,278,6.4263,3.8977,4.9567,350,8.5211,5.7131,2.1142,290,8.3518,3.2669,0.0871,494,1.5365,0.2072,2.6215,342,28.172,6.3484
9.6934,494,0.56445,0.0995,7.5187,482,4.3061,2.7854,12.003,318,15.68,11.232,6.3073,438,4.9997,2.7113,0.231,390,5.3031,6.5238,0.4536,390,14.41,3.5698,3.2885,314,7.0811,6.8576,3.2717,302,8.6206,5.9806
7.1968,342,14.193,7.746,10.471,354,13.756,13.122,7.106,358,6.687,8.9346,10.589,362,12.13,16.236,-0.2757,390,10.898,6.3598,8.3366,366,7.7945,11.969,15.161,478,8.8453,9.4863,15.518,478,8.1805,13.948
6.3237,478,3.9639,1.3009,0.505,358,11.587,10.135,3.9399,446,10.29,10.509,3.7152,354,11.786,7.239,0.5918,270,4.8956,4.3179,5.0485,350,15.071,8.2411,9.2025,282,7.0813,3.6715,7.9035,378,8.5485,5.9576
6.4255,466,7.9132,4.7677,2.4639,266,3.0653,1.608,6.5397,442,12.829,11.368,0.701,262,1.1439,0.3275,1.9417,446,19.36,3.8114,2.6782,342,5.6279,4.8151,3.9287,342,11.545,6.6103,2.2638,334,7.9605,10.137
-1.4709,270,8.1838,4.2136,5.3648,462,22.811,8.9637,18.247,410,15.808,15.675,8.9136,406,19.712,5.8317,2.2421,490,1.7744,0.8854,4.7127,266,1.1381,0.4598,17.721,398,7.5493,8.9057,8.9506,394,5.8857,9.4096
23.792,458,5.2166,5.8835,5.6839,430,14.949,6.7983,-2.0298,258,0.50291,0.002,7.2768,478,1.9908,0.602,16.275,326,7.9095,7.7894,12.617,494,0.56834,0.0901,9.7315,478,3.7385,1.1347,15.213,478,4.9115,3.7041
-9.3368,474,6.9842,5.8317,-3.2888,478,4.6003,5.8734,10.032,446,6.7565,6.3619,-0.4447,482,3.5739,3.5076,-8.1263,302,4.0793,4.0388,0.2555,474,5.8446,5.7016,2.5167,482,2.6034,3.7537,-0.6542,482,2.3822,3.9103
2.662,474,4.2673,4.2829,6.1639,366,16.161,10.856,7.7415,358,12.384,7.457,6.9827,454,6.8104,3.2026,9.0481,270,5.1227,6.8528,5.2545,274,6.8821,9.2322,7.0991,454,6.2342,3.6459,-3.437,274,7.5509,7.6379
10.888,434,8.4873,11.484,-0.317,298,10.851,5.6119,4.174,306,6.0328,6.4049,0.2614,294,9.8386,3.5431,4.8581,262,1.7276,0.1802,3.0339,258,0.70734,0.1215,-1.5995,330,14.546,7.1111,-0.5492,334,21.106,7.7894
1.7453,390,9.4053,8.211,-1.2428,270,4.8203,4.7396,4.6158,370,14.706,5.6297,2.8381,390,8.0237,8.233,4.0687,318,15.634,6.6873,4.3504,394,8.1246,10.203,-2.0111,390,10.185,8.8022,7.5812,310,5.4347,6.6335
18.076,318,5.2938,3.879,3.8447,398,6.2155,5.9282,2.8966,430,5.2877,5.6536,10.309,402,6.7729,5.3298,-2.1124,310,4.9052,5.6373,10.606,310,16.965,8.4942,16.572,474,6.0719,5.4037,9.7415,306,19.528,9.919
10.933,306,8.8794,11.542,7.0502,410,10.882,11.606,17.309,366,10.423,12.533,5.0039,418,5.4348,2.8672,6.7959,322,14.034,17.767,4.5225,314,10.27,9.7638,10.903,478,9.2031,4.9625,9.7599,478,6.5838,8.3843
0.7097,310,4.5764,4.0407,5.1387,346,16.257,6.1224,8.6542,382,11.571,11.243,5.5664,278,6.4088,2.8835,7.4564,406,9.922,8.5744,5.4164,334,6.9539,4.2745,7.3972,266,3.1334,1.1753,2.5423,310,9.2701,4.8994
0.7499,494,0.67981,0.0561,3.6346,386,7.6909,5.6354,5.984,446,6.7926,4.7363,-0.755,390,5.8312,4.1441,4.4851,422,20.608,12.869,1.548,406,30.222,8.5191,1.6145,334,10.803,6.4161,7.6132,414,18.361,10.597
2.8156,470,6.2126,2.5249,0.1063,482,5.5096,0.9008,1.0055,258,0.65698,0.2296,-3.3646,258,1.5757,0.3393,7.5623,382,7.3367,13.017,-6.6181,266,3.5794,2.9056,-0.5817,258,0.8419,0.0359,-4.9677,262,1.8286,0.8689
7.7014,450,5.9581,9.0281,4.9291,302,6.2017,5.8131,6.3131,426,7.5866,3.6745,-4.6572,258,0.7035,0.4083,-20.916,266,1.0648,1.0358,-18.469,470,6.5894,6.3452,-12.746,258,0.55018,0.1189,-20.669,258,0.50549,0.0182
11.578,458,1.8246,0.9383,11.87,438,12.702,7.9835,7.406,438,29.372,10.548,10.079,438,12.08,7.1382,15.777,458,0.97455,1.2084,3.3431,422,8.6135,5.2323,1.8393,410,15.229,5.6897,0.5149,350,6.1462,5.3355
7.2561,434,9.7662,3.9228,1.9005,390,13.573,2.9631,2.5505,358,5.5545,3.0702,-3.8444,298,8.8743,3.6997,2.7271,294,4.1994,2.8273,-0.2207,298,5.9104,2.3829,-1.8814,298,12.058,6.5289,-7.6582,298,6.9371,5.7448
24.46,362,8.8401,12.633,7.6079,482,5.6321,3.6256,-11.343,318,10.843,5.4085,12.97,482,3.14,1.3259,24.685,474,12.263,9.7653,24.036,482,4.6829,4.977,19.475,482,0.98714,0.606,18.898,482,1.3626,1.3712
2.1452,462,10.584,4.4339,6.3072,458,12.174,7.1852,3.305,458,7.2375,5.5783,-1.5304,466,3.0784,0.8787,2.2452,382,8.3506,15.129,7.9729,382,6.9487,14.131,7.9212,382,12.033,10.472,15.401,378,7.0015,17.621
5.2938,474,5.4959,6.0742,5.7151,474,6.3403,6.1281,2.2904,434,9.4059,7.2163,21.203,474,9.7753,5.2404,32.074,474,4.516,3.9634,28.13,474,8.5666,5.8562,28.22,374,10.948,10.052,32.141,370,7.5015,8.8437
8.8722,294,16.383,5.9139,8.9304,294,6.7849,3.1816,6.829,366,9.0654,6.0623,-1.2855,406,4.4688,4.2649,2.5782,262,1.7586,0.5415,-1.2648,258,0.70077,0.156,-2.5786,410,6.5411,5.178,-1.4534,478,8.4517,7.7055
-0.3904,366,5.9224,5.627,8.5862,266,4.3953,2.3067,4.6564,494,0.52594,0.0266,3.1479,266,3.9974,1.6871,-3.8445,362,6.8582,6.9289,0.0673,266,1.5585,0.7733,0.7514,282,2.8902,0.9419,-0.4458,466,5.6611,3.6222
5.5174,294,10.719,8.4386,10.294,278,8.3694,8.412,5.4668,266,3.5802,1.9729,8.7045,294,9.6075,9.7108,7.0634,302,26.91,15.824,8.9368,298,16.382,13.052,7.7207,298,7.8521,5.0226,8.4522,298,6.5946,7.3118
18.011,270,2.9692,1.1545,8.6651,494,1.6883,0.2163,6.752,494,0.73616,0.1007,13.329,430,5.7669,6.3042,17.343,426,7.044,9.8427,24.48,270,3.7129,4.5709,27.471,430,6.6227,9.7938,32.648,430,6.928,16.462
4.8347,262,1.7635,0.4849,4.9823,262,1.9379,0.6728,0.808,478,5.6259,3.6147,8.146,354,7.0772,7.9177,11.892,362,22.304,10.107,12.302,354,14.024,8.6721,10.088,314,5.6228,6.8082,7.0342,394,16.025,7.4976
-1.8115,262,0.96425,0.9941,5.3501,258,0.55315,0.0321,14.715,334,14.923,6.0605,-5.8646,290,3.5169,5.1194,-16.822,362,10.797,9.6671,-14.17,282,4.1138,6.1644,-5.6972,290,3.4503,8.0408,-21.493,390,5.7388,9.1451
3.0044,278,3.9746,1.9768,-1.2112,330,10.434,3.9016,6.2928,434,10.274,5.6007,1.9117,314,6.2814,2.2048,7.1598,286,13.287,6.9462,4.3147,286,12.222,2.9389,8.0034,422,13.596,6.0123,14.507,390,8.5892,12.142
2.9566,318,7.9664,5.2041,5.4846,486,4.0945,1.6147,4.1104,270,4.6963,2.0694,14.05,478,4.3653,2.6447,5.9134,406,31.855,8.5288,14.771,478,4.4598,4.7822,7.9801,478,3.7677,4.2385,10.078,478,3.415,3.4539
9.6921,402,7.4189,7.3344,15.266,398,17.173,7.5602,4.4559,358,10.079,4.8663,13.122,454,6.0238,4.6803,8.3024,334,7.0763,7.2195,7.27,334,10.534,6.7019,0.7783,462,7.2999,3.949,-1.7512,334,6.2971,6.8088
3.7948,466,3.3136,0.9495,10.63,298,6.4202,7.186,9.9454,398,7.4663,7.917,3.6291,294,6.1712,3.6648,-3.5249,294,6.857,6.535,1.6779,282,6.4807,3.997,1.375,258,3.103,0.8552,-3.5791,286,7.511,2.6855
3.1802,290,15.984,7.14,1.1868,310,12.326,7.8287,0.8033,330,11.305,7.6894,0.0272,306,11.037,5.6374,2.5685,274,10.827,6.1688,6.2583,310,14.573,5.2907,3.3347,454,5.9791,5.7469,10.05,454,8.129,8.7708
9.7752,466,7.1084,5.6616,19.45,478,6.4292,5.6894,11.634,482,3.9864,1.9417,17.985,482,5.2055,2.3876,7.8296,462,3.9542,4.4187,18.164,494,0.95221,0.6264,25.029,490,3.3521,2.45,16.947,494,0.55428,0.2593
9.7064,298,2.8931,0.776,14.084,290,7.0282,4.722,4.7358,286,6.0519,3.521,8.7716,294,9.5653,3.1089,9.5174,374,12.897,9.4494,10.777,394,10.813,6.2578,1.6919,430,5.8095,5.1097,-6.6059,394,5.9673,5.0491
5.675,490,3.254,0.8444,8.4117,486,4.7128,2.8869,9.3707,450,5.1426,5.394,7.2168,446,5.6863,5.0225,9.8132,482,3.9807,5.2725,3.8441,478,16.977,6.2036,10.108,446,8.8925,9.1271,12.027,302,7.9427,9.4983
-2.4907,410,11.921,8.6738,-6.2403,358,5.9895,3.6087,3.9233,310,17.607,7.2347,-3.2154,474,5.7648,3.6093,0.3463,370,13.339,6.9994,-4.1701,350,12.974,4.3425,5.0562,346,11.49,2.2183,10.531,350,6.3299,7.0739
5.8703,418,14.506,7.8468,11.022,410,13.566,9.6517,0.8412,410,29.24,10.412,6.7872,446,6.4657,5.4196,10.246,306,11.727,7.2472,4.7841,310,5.8132,7.1187,5.2141,450,6.2681,3.6092,5.235,310,11.034,6.7197
12.276,490,1.8678,0.5127,2.4629,398,6.5822,3.8034,1.8679,278,0.75844,0.0291,0.9038,398,17.094,5.8714,6.6981,418,13.144,5.6318,-2.314,410,20.024,8.9569,2.2855,386,27.371,6.5844,1.5864,470,19.113,7.0256
19.758,486,3.0287,1.0948,22.322,486,3.7335,2.3307,14.697,422,9.2096,17.956,15.319,414,6.6388,7.5122,16.088,446,14.785,4.2447,18.061,478,3.8077,1.7795,9.6153,418,7.0446,7.8098,13.859,466,4.3895,2.6979
1.2983,258,0.52074,0.0513,4.5111,262,2.9764,1.6501,9.7191,330,18.914,10.744,14.506,390,13.295,6.7621,20.066,470,5.2029,5.5506,15.827,398,12.624,6.7775,28.386,414,15.881,7.6634,30.611,414,17.173,9.892
3.4991,322,7.2202,5.4616,2.6946,262,3.4485,1.1921,4.5512,338,8.7991,5.9419,8.7962,370,6.7223,6.1688,4.1069,262,2.6983,1.7288,12.078,374,7.72,7.9986,5.9969,366,6.6028,4.2141,3.3652,374,6.9599,7.6771
1.6651,310,6.67,2.7729,4.8841,478,13.925,5.5397,3.3662,314,14.376,3.8497,-1.8802,482,5.9277,4.636,-5.132,438,5.5984,7.6528,-8.1753,278,5.6035,4.1928,-4.2114,482,6.6958,4.867,-9.766,394,5.804,6.559
-2.8985,402,8.4177,4.8334,4.3409,270,5.7444,3.4511,3.3134,274,18.099,7.8206,2.6649,262,2.778,0.7564,6.7266,374,6.5629,6.5614,0.6117,374,8.8489,6.7576,10.147,458,10.177,6.4619,21.98,458,6.9316,10.088
6.9649,450,14.38,3.1312,10.529,458,16.882,4.3363,14.526,278,7.1721,12.144,10.898,274,5.3316,3.2427,8.7505,486,3.2386,2.7857,9.536,258,1.1909,0.1875,17.033,278,5.8744,8.8408,16.588,274,5.4801,4.9849
2.9545,490,2.2197,0.9764,3.4668,398,8.7824,7.7045,5.0626,470,5.2286,4.2846,7.7186,398,5.9914,3.9771,5.7214,486,2.4759,0.7079,12.15,278,8.005,4.4003,11.693,294,6.0227,1.443,11.161,294,6.5651,2.3914
6.142,350,8.5262,8.1448,11.19,462,9.6204,5.636,9.6111,314,6.1712,3.0727,13.18,458,4.1005,1.2923,-2.3148,358,10.805,10.039,9.6404,454,6.147,6.4892,4.5484,446,4.2334,1.411,3.4903,454,5.5687,1.725
6.4843,494,0.51571,0.0326,4.6822,342,9.8637,3.5413,3.4157,302,12.055,4.935,1.2103,458,5.8081,4.7747,9.8798,494,0.81087,0.2482,2.6171,458,5.9886,5.1322,7.1129,318,10.702,5.8523,4.9135,322,12.641,4.3383
0.9483,318,6.6383,4.8311,3.4915,282,6.7389,5.4813,6.3818,370,6.4209,11.512,4.3261,410,10.248,12.409,8.9756,294,11.43,12.583,4.1519,294,11.622,5.5369,11.382,406,16.118,13.442,4.5746,302,8.088,8.2161
11.274,434,7.2908,8.3834,4.1086,402,26.319,13.377,-0.0231,458,2.5017,0.1046,22.881,406,29.34,15.742,28.896,350,22.491,13.706,32.084,406,34.15,16.834,40.774,394,14.474,14.727,34.581,446,33.349,16.461
7.7366,470,5.46,3.064,1.6401,286,7.5629,5.5863,0.063,338,5.9926,6.0107,4.4487,394,12.789,5.8388,10.194,466,5.4047,3.2866,7.2472,274,5.1282,4.3706,3.2089,318,9.9254,6.5804,6.3515,426,6.5335,10.667
11.953,362,23.818,6.6032,13.747,394,19.869,8.8519,6.9971,394,8.81,6.6586,5.8091,374,18.769,4.035,8.0056,362,18.794,12.16,5.3689,366,14.621,6.876,-0.6622,458,7.0711,6.223,5.3078,454,6.0827,6.5576
7.1945,466,8.0044,7.0724,8.2385,334,14.281,4.2067,8.7505,346,13.44,7.724,8.6807,478,5.5291,3.2856,1.3738,302,6.5478,8.547,2.3492,466,4.6098,0.884,7.385,478,2.4629,0.5002,5.5746,326,15.749,8.7213
0.6252,426,8.2804,8.9129,8.5947,422,15.267,9.3789,7.0589,418,6.5797,9.6866,3.5874,446,15.607,10.074,-2.1977,446,7.256,7.4007,7.8408,446,19.106,8.3389,3.6751,410,6.9943,5.7298,7.4159,314,6.609,8.8658
7.1395,402,11.29,5.3758,8.4515,474,4.6979,4.4101,6.2778,478,4.6035,2.0865,10.136,474,4.803,4.2616,3.963,442,15.015,5.651,7.3654,430,6.3121,7.4469,22.709,438,5.2981,4.2894,6.2207,450,15.606,8.1135
10.116,354,6.8388,8.9378,6.583,430,8.8134,5.4938,6.3546,330,19.823,6.8298,6.743,382,23.03,6.2218,16.354,414,16.384,13.648,4.9155,414,10.427,6.01,16.844,370,21.434,7.9387,0.0987,414,9.2546,5.8564
4.9989,326,13.606,8.3024,3.7401,326,22.053,8.0898,4.0306,282,14.16,5.3747,12.065,362,24.782,8.8911,17.629,390,13.569,7.8745,25.429,334,22.7,10.356,19.505,294,7.2979,8.4854,27.186,386,11.16,6.4343
2.5855,318,7.9465,7.8472,4.9662,474,5.8896,2.174,7.8223,450,6.9189,4.4666,6.92,474,1.4968,0.1896,9.0109,370,14.051,11.466,4.4877,370,9.4298,9.6182,11.297,454,5.2658,3.0647,19.888,386,10.993,11.394
14.933,294,4.9933,4.2723,-0.6193,290,17.027,5.6286,2.2118,322,6.7178,4.9414,4.6567,322,5.6799,5.2113,6.0208,426,6.5948,7.0412,6.267,322,4.784,3.8954,2.712,370,8.1454,7.6092,10.358,270,2.0856,0.4421
5.2196,458,7.9426,8.3987,3.0438,386,7.2383,3.9026,3.8722,378,5.1173,2.0071,2.4839,398,7.0814,5.2628,-5.9108,402,6.5345,10.764,4.6984,398,5.8769,6.789,3.7446,394,8.4179,7.068,9.1792,266,3.0858,1.5034
2.0777,270,5.0942,1.3652,10.707,370,11.237,7.6989,8.1662,354,7.2879,8.1894,3.8058,382,9.2591,4.6826,7.4921,318,7.2563,6.112,2.9248,494,0.74259,0.2915,4.015,314,6.6724,5.8998,-5.4814,318,6.7892,14.237
7.9535,282,5.9452,3.6174,1.4656,266,3.3326,1.0618,5.6691,302,5.2058,4.1357,4.2973,390,14.686,6.2956,8.4615,418,16.097,11.846,2.6998,278,5.6478,5.4728,3.87,278,4.7563,3.311,-3.7341,462,13.318,8.0255
2.683,358,14.689,6.9985,8.3131,366,17.352,7.727,4.1001,378,7.5173,9.0088,7.072,358,15.879,9.5666,3.1503,262,3.0019,3.2537,10.642,262,2.5024,1.2956,7.1957,454,7.3277,7.3374,9.3892,262,1.5013,0.7767
2.9729,494,1.7247,0.8675,5.3227,494,0.67338,0.2418,4.5488,278,12.594,7.3394,4.0413,482,6.1031,0.5176,3.3311,470,4.3444,1.5318,0.6062,474,6.6433,4.4852,-1.8758,274,3.2344,1.3515,26.49,426,9.4321,9.0595
5.8971,434,7.4627,4.1195,-1.097,478,4.6523,2.1195,4.5781,286,5.6623,8.6947,5.2528,478,5.2827,5.9497,10.987,482,4.2436,4.6911,7.0652,482,3.3394,2.0933,9.9487,490,1.5265,0.2364,7.423,274,5.842,6.2867
6.1617,358,17.151,11.285,9.2379,370,27.013,12.705,6.2209,298,5.4969,6.0263,8.5014,454,5.6933,5.4408,10.858,378,11.466,7.9168,13.88,454,8.9282,9.7222,12.659,454,5.7239,7.4151,15.211,454,6.8848,7.9181
6.6763,370,9.5093,4.939,2.5201,434,19.442,8.5319,1.6688,418,8.391,5.5317,-0.3351,446,18.742,5.999,9.2269,290,30.116,6.8712,5.9928,378,6.5616,9.2553,3.7699,290,6.7166,4.7734,9.0565,278,5.4678,3.5909
-3.0206,362,6.1768,6.295,-0.0198,358,14.012,6.5092,4.9725,486,4.3235,1.5635,0.4177,354,9.6352,7.1308,0.9361,350,5.3348,4.2009,3.2684,358,12.259,7.35,10.191,470,6.1222,4.3239,5.8919,386,6.6517,9.2483
5.1217,362,5.5098,9.7234,3.1834,470,5.9921,4.4716,5.0863,458,5.9978,2.8107,1.1424,302,7.8639,4.2842,0.6077,434,6.4511,7.8477,1.4429,318,10.392,7.3999,8.2848,302,6.9966,7.235,4.6375,402,12.808,8.6776
7.1187,282,8.3541,6.7901,1.7439,458,9.8596,3.4836,-0.1246,490,1.2603,0.4337,3.1138,490,2.1301,2.2741,11.681,490,1.8351,2.4918,6.823,490,1.7806,2.0865,9.8296,486,2.0951,3.4615,10.769,486,2.6651,4.065
6.6266,402,19.991,9.779,7.2723,394,12.219,8.7224,-2.0209,394,7.7568,4.5163,9.3875,410,11.235,8.6401,10.756,366,7.2515,9.9711,18.13,410,25.252,10.767,8.5556,490,0.53471,0.1107,18.897,326,14.94,10.702
6.6078,418,16.737,8.1899,3.9152,402,13.208,7.8162,4.7056,258,0.64579,0.26,7.1406,410,33.639,9.1097,13.966,418,15.254,9.4732,1.8855,434,13.647,9.0911,4.0706,294,7.7955,6.4555,6.3756,450,12.086,11.23
5.7456,258,0.93154,0.5875,5.8342,418,27.845,6.0696,4.2436,338,15.764,7.1023,5.9387,366,5.4651,5.4994,9.4331,278,2.6849,0.8254,7.0126,410,15.722,9.6686,6.773,294,6.2115,5.4277,12.208,282,5.6636,7.6559
11.711,426,15.616,8.1562,8.1573,282,5.6384,3.1619,2.1483,282,13.647,4.1853,2.7045,282,5.7864,3.518,0.4142,270,5.4878,3.3052,3.2476,450,8.8194,5.9169,-0.1002,282,4.6415,1.7661,-5.0459,370,11.877,9.7274
7.8922,494,0.68112,0.2635,4.1649,494,1.6445,0.3758,7.8438,386,9.7964,5.2331,3.1878,494,1.001,0.2469,-1.8548,386,12.819,6.6171,1.8603,438,4.1016,1.9464,11.986,386,7.6617,7.0614,12.039,434,8.9325,5.6593
-2.0296,270,5.7341,3.664,0.8879,274,5.6215,5.1316,2.642,406,5.3234,5.7686,5.4195,270,4.2438,3.6604,7.5817,258,1.4114,0.4318,2.6655,266,3.4662,1.5944,0.8619,270,3.947,2.6125,7.1859,266,3.1687,2.5897
3.6418,458,4.3976,3.1076,8.0517,430,15.872,7.4715,8.2355,430,7.542,6.2088,0.2333,406,10.559,2.9532,-0.3863,478,7.181,7.6624,-2.1211,362,12.148,5.2361,0.8403,394,14.539,7.3944,2.848,354,11.777,9.9879
-0.981,450,5.9881,7.0115,3.1645,406,19.259,9.4131,2.6065,314,5.2695,6.2342,4.046,430,10.766,8.8357,4.8995,278,5.6707,2.401,-4.2263,290,10.38,4.6195,4.9607,302,8.7019,6.3005,1.7411,302,9.7074,5.6496
5.1708,370,7.8611,9.5967,2.1553,398,5.7482,4.7256,6.2408,262,2.173,0.6814,2.6183,302,4.7498,2.0629,11.664,410,6.3103,10.46,12.239,398,12.541,10.056,6.2389,262,2.4472,1.0623,7.8287,398,15.2,11.486
4.6585,390,10.095,9.8333,0.6728,390,13.239,9.758,5.0687,314,19.677,7.9656,-1.8966,398,16.597,7.6336,5.9897,350,8.4511,9.9585,7.7676,342,18.672,7.7928,5.5109,406,9.578,9.2787,6.4071,422,14.4,12.201
10.179,266,1.6072,0.8543,15.585,418,9.165,9.3599,6.352,422,7.065,6.6434,9.2286,274,1.1514,0.8408,18.704,278,4.0994,1.5002,15.615,278,4.3042,2.4617,12.366,358,5.5826,6.6163,17.581,258,0.51845,0.0558
21.181,374,20.616,12.638,12.077,394,14.741,11.716,-3.5682,474,3.9006,1.9381,17.623,394,12.908,5.2903,26.201,494,0.72589,0.3476,20.701,358,15.279,8.1951,22.943,462,4.7796,2.6361,20.565,458,4.2214,1.8548
1.1661,270,7.3495,2.674,2.7678,286,7.1027,4.5287,6.0902,338,8.7116,5.7629,2.6584,290,4.7845,5.0198,3.5537,402,8.9359,9.9397,0.2659,298,4.8416,6.8675,0.2444,366,11.749,10.384,6.6822,458,13.992,7.5892
2.2161,398,18.021,9.2903,-2.6354,394,16.714,5.2082,1.932,314,16.697,7.0492,0.5426,354,6.8384,6.0692,-0.0297,362,6.9761,6.6974,6.1855,362,8.8436,5.5038,3.4339,362,10.621,8.0284,11.501,350,6.4867,8.559
6.8138,454,7.4359,0.8768,16.762,442,12.188,10.553,9.1779,410,20.702,5.494,13.203,438,11.768,4.1448,3.5169,258,1.5335,0.5128,1.4323,462,7.4843,2.2822,11.14,454,5.1399,3.6547,10.509,362,11.997,11.102
10.4,466,8.9293,7.4881,0.0803,414,19.031,6.2682,-1.3329,310,11.235,3.7923,-0.0132,266,1.7774,0.2753,6.7859,470,17.625,8.334,4.6157,430,5.981,6.5385,1.3565,274,5.5582,3.6564,8.4433,462,13.06,10.862
1.5352,474,4.0485,1.6881,-1.3023,342,10.028,5.9523,1.4645,346,6.2681,5.7193,-1.5962,394,7.0428,4.8803,5.1236,370,6.7614,7.3173,1.5711,318,5.6224,5.1964,3.058,494,0.60406,0.0569,8.3283,386,10.134,14.881
3.6256,494,0.55312,0.0706,7.7762,462,3.5922,1.8691,5.4584,358,7.3111,5.5701,3.0899,462,3.5481,1.3588,1.2889,318,8.9736,6.5234,5.4766,462,3.7628,2.3999,8.2248,474,3.3567,0.7774,9.2923,314,5.5198,6.3635
11.975,446,8.8443,2.7068,3.4131,378,7.567,5.303,5.757,370,26.206,5.6348,6.684,258,0.68083,0.1409,7.3426,258,0.62705,0.0931,13.507,262,3.5189,2.0999,15.817,262,2.7596,1.9661,10.078,262,2.1111,1.3604
3.6664,314,13.149,7.3015,9.8271,262,2.873,0.6371,2.0994,290,2.843,0.8692,7.8384,390,16.914,6.132,4.8736,406,8.2379,6.6294,0.769,358,11.99,7.3407,0.5873,458,5.747,2.7688,3.8177,378,16.987,8.3699
6.457,314,10.331,6.2467,1.5686,294,11.281,1.7279,5.4882,486,6.7927,1.9581,4.5273,262,2.9706,1.2596,6.0786,294,9.684,9.2163,8.6009,286,3.4248,1.6998,6.6153,266,4.1784,1.8096,7.6209,394,17.132,14.558
8.7275,486,5.1739,1.4005,9.0386,278,10.098,5.4102,7.8533,290,15.332,12.265,13.235,266,3.089,0.982,14.971,386,6.7592,9.3392,10.346,266,1.4293,0.5425,11.323,258,1.7482,1.4116,12.391,402,7.7525,13.722
-1.5902,290,10.501,4.473,3.3246,458,11.729,9.4745,7.4211,346,13.886,8.684,3.9377,458,12.077,9.2933,-2.9528,482,5.1464,3.3966,1.3717,370,11.475,9.4762,13.632,370,13.197,11.083,15.704,362,11.879,12.485
0.869,442,5.2055,3.9727,5.7412,310,13.595,5.8954,5.4119,386,6.1225,10.177,4.6064,294,6.3986,5.5756,10.871,426,6.8537,9.6654,6.0341,426,7.3852,7.9057,3.272,414,6.0925,7.3564,17.667,426,7.9363,11.726
6.1233,278,4.294,2.0357,4.605,494,0.7324,0.3645,2.6891,418,11.712,6.0863,-3.5116,302,6.7061,5.4877,11.874,338,11.71,15.839,3.3278,334,10.111,9.6402,0.7278,302,7.5378,6.0982,3.4685,338,15.09,13.353
-6.3665,278,2.5407,2.1325,8.3794,286,7.1336,8.5129,14.767,294,11.25,9.7055,7.9046,294,10.181,6.4835,9.5495,486,2.5852,1.4434,10.596,486,3.5484,2.2914,10.938,390,6.8087,8.0846,12.503,486,3.4134,2.2497
23.856,466,5.0163,2.2519,5.3648,366,14.476,7.6391,3.6531,318,13.811,6.1524,3.4978,478,1.728,1.394,7.5721,422,7.0191,5.7716,7.7935,486,4.3092,2.4631,5.2453,478,3.0245,1.7967,6.3811,442,5.8481,6.607
-0.9471,314,7.0172,4.2922,0.0525,306,12.34,7.002,11.474,470,6.0902,6.3449,5.6588,314,16.49,5.3176,10.748,350,14.568,11.489,12.972,354,14.124,9.0107,10.874,350,8.1907,7.2104,14.276,330,11.814,8.6663
1.7638,422,4.9885,3.4698,-1.6526,438,4.1529,1.7077,2.2989,390,21.821,7.1584,1.7201,438,6.6946,4.9072,2.7749,430,9.0542,4.614,6.1812,434,7.8243,6.3364,7.1427,426,10.819,7.729,-1.5819,438,14.468,11.45
7.751,446,13.753,6.1878,6.0007,410,18.441,3.8025,6.8057,378,9.2922,9.2874,3.5324,462,3.0079,1.7649,10.265,490,2.5474,1.0482,7.1096,462,3.1301,1.3052,-3.4738,294,9.3304,7.1663,1.8626,338,15.132,10.26
5.174,458,10.326,7.0846,-3.1596,462,11.494,6.7875,2.5824,318,6.2948,4.949,2.7432,478,9.7081,4.4817,9.0324,394,8.8827,7.6598,5.2797,394,11.587,12.79,1.6611,398,7.8086,8.822,17.807,398,8.2218,13.21
11.036,490,4.1734,0.5774,8.8602,482,6.1613,1.8459,4.0039,374,7.6701,6.8691,13.394,466,3.7161,2.1342,-4.9182,470,1.3555,0.1876,8.8419,462,4.6101,4.6468,13.46,470,5.5104,5.2393,6.6299,418,12.526,6.4999
3.1962,266,2.4892,0.6873,7.839,266,3.5649,2.8571,6.2597,294,17.425,11.319,4.4635,262,3.2951,1.6612,-5.4019,262,1.7701,0.4549,5.4778,258,1.4993,0.6026,2.5093,270,7.7644,4.2658,7.0677,294,3.425,1.9148
9.474,322,7.3339,5.954,1.6146,462,0.98788,0.1566,6.7008,374,6.8875,6.6641,4.3515,322,6.1962,2.4312,8.2104,286,12.74,3.0949,10.866,322,5.8904,6.0318,10.089,322,22.064,7.3485,14.892,318,7.0919,10.465
6.9113,426,13.599,7.9833,4.4971,434,12.782,7.8129,2.0481,398,5.5501,6.7486,0.7177,266,3.0923,0.4928,8.3588,326,7.5914,8.9935,3.2298,330,8.0865,4.5686,-1.5727,282,7.0878,2.2872,3.1387,374,6.5924,4.9849
-3.2287,318,6.0681,2.4628,5.8968,402,13.989,7.2126,11.048,398,18.185,11.016,10.875,394,13.236,9.2132,6.5792,390,7.0606,11.329,8.8731,390,9.3121,9.5498,13.918,394,10.143,11.455,14.347,406,7.9758,5.4711
9.0396,434,4.2132,3.9539,9.7256,386,17.823,11.334,5.4276,426,8.4846,7.5583,10.416,386,22.494,9.1648,9.5421,358,13.375,11.183,9.4357,386,20.605,11.46,9.1535,394,13.523,9.3052,10.849,394,13.577,8.5431
11.596,442,14.068,10.502,3.2714,434,14.209,9.5001,3.3117,322,31.879,8.9813,4.0992,438,14.123,6.9634,5.7885,418,4.2874,3.0181,5.9465,430,14.265,6.8539,1.7745,458,5.0922,3.1681,2.5766,414,5.2873,5.4923
9.444,494,0.58224,0.0639,8.5122,430,6.1116,6.1606,9.7311,330,8.7101,9.2373,4.6807,326,11.806,5.2589,2.1705,346,6.1754,6.7221,-0.7249,278,3.9572,1.8424,-0.019,478,6.7468,6.3216,3.658,310,5.6877,4.7452
16.622,330,15.436,8.5383,0.6241,342,9.2497,4.2808,-8.0502,278,4.5586,3.2786,5.6375,358,19.655,3.3581,15.229,294,4.1325,4.4198,15.236,346,6.8276,6.4358,15.693,370,8.5826,7.4401,12.784,298,4.0688,4.8053
-2.4597,326,12.727,7.5956,3.2973,450,11.339,4.4609,4.241,342,5.2642,7.703,2.2447,422,12.308,5.0395,-1.6823,314,9.8998,3.0871,8.944,302,7.4767,5.1678,8.7879,382,14.964,12.293,18.029,298,10.354,23.654
8.7085,450,7.0088,12.941,9.7557,454,11.701,9.2357,3.2786,370,6.6905,6.3752,19.017,490,4.2992,2.1909,37.642,490,2.9126,3.1747,32.249,490,2.3275,3.2762,36.753,490,4.6626,5.0129,46.361,490,1.9648,3.4092
26.059,490,3.2973,2.2232,26.537,430,7.4247,6.5362,18.918,258,1.0718,0.9955,13.858,430,17.081,6.2136,15.057,326,8.9408,6.4449,12.718,318,7.6978,7.6674,16.207,454,4.6028,8.6421,8.503,454,6.0328,9.7489
2.9672,274,22.842,5.7302,-1.2148,318,10.045,4.1659,2.5952,426,20.024,8.0938,2.4998,438,12.952,7.452,9.8344,470,7.2212,12.745,8.3465,290,7.4845,11.546,0.7407,322,48.244,11.036,0.212,438,12.918,8.2557
16.142,326,5.7158,9.92,8.4022,326,4.812,4.7201,1.0081,298,5.9894,3.2636,3.9764,466,2.2864,2.9085,-7.0622,262,2.5531,2.548,4.2156,466,4.9584,7.445,-4.0208,466,2.0771,2.9013,-2.1089,474,5.4161,3.9226
-25.641,378,10.032,5.2151,0.4833,414,19.012,6.6978,19.822,438,8.9107,7.3474,3.7385,414,9.0475,4.8412,-0.0267,314,38.517,8.0831,3.9023,402,8.5645,6.3603,16.67,414,6.5461,6.0006,14.131,362,19.504,6.8324
5.653,314,5.3336,2.1079,17.924,294,5.3802,3.176,6.6516,322,6.8551,5.5122,13.222,410,7.5982,4.5868,10.736,418,7.9356,6.8915,9.5632,418,6.215,6.1563,8.4269,418,18.156,8.6708,3.7358,466,6.865,9.6263
21.342,378,8.2728,8.6468,9.3189,322,19.975,8.7909,-0.6517,266,1.5976,0.9054,7.5976,338,12.294,7.7044,16.847,374,13.5,12.584,13.297,338,9.6813,13.602,8.6157,434,8.7342,11.479,11.424,338,8.9007,9.859
11.377,342,6.6259,5.5078,7.9643,298,6.3003,5.514,4.3993,326,15.267,5.9621,8.1031,290,10.856,6.5495,14.214,302,7.0489,11.556,10.497,366,14.318,8.3797,6.8104,334,13.619,5.2234,5.0027,366,14.995,7.0165
0.6866,278,1.5284,0.1572,1.8759,470,5.0458,3.0619,6.58,322,7.2436,6.0235,6.0798,430,5.8231,5.5134,5.9134,342,6.3634,8.1202,3.8131,426,6.0286,6.5364,4.1837,426,6.1945,7.6119,4.0606,378,6.9591,6.2885
12.057,410,4.6288,3.9893,12.556,490,0.6042,0.1686,3.1127,422,9.2964,4.2046,6.7436,262,2.4668,1.3815,-12.938,486,1.6028,0.428,-13.002,314,0.78639,0.5352,-2.0247,262,0.5513,0.091,-4.9957,258,0.61088,0.0646
10.091,418,19.787,9.0902,7.5351,422,5.1356,5.2641,3.8596,322,14.11,6.2331,3.0368,418,16.632,9.146,4.7936,454,6.9538,10.306,4.3395,382,16.781,8.0988,4.7807,494,0.81708,0.4065,0.9617,406,12.471,10.915
0.0076,266,2.2397,0.3855,1.2502,382,9.6089,9.8844,-0.5457,306,5.3076,5.2266,-3.7157,458,7.7866,7.5633,-7.3425,458,6.2378,3.8746,-4.3183,462,7.4163,7.3395,-2.3002,450,9.7955,5.7417,-4.8769,458,5.2425,4.8302
10.156,298,12.382,8.6469,8.9358,342,6.2243,5.7412,10.355,490,3.1776,0.8949,9.116,350,13.14,6.6714,12.969,382,19.83,12.202,11.829,378,10.036,8.7078,18.075,354,13.102,11.468,8.9173,494,0.68138,0.2182
11.335,458,4.8004,2.7155,5.7013,430,5.9694,3.671,3.4768,470,3.8769,1.1496,7.9251,306,13.012,6.8836,14.817,350,15.603,9.2747,10.107,482,4.8184,2.1305,4.3218,314,13.172,5.0216,6.8352,326,19.629,9.7096
7.3113,278,6.1799,2.335,8.5196,290,6.6223,6.0081,6.005,370,5.555,6.1987,7.8496,290,9.1306,5.8814,12.769,318,25.673,10.7,6.151,306,9.2475,9.2216,9.6648,306,21.661,9.5095,7.5296,394,15.526,10.679
8.6435,418,6.3818,4.1403,-11.602,290,5.2528,3.0491,6.3098,478,4.9274,4.4572,1.3537,294,3.3308,0.5695,-2.6352,454,5.4375,1.3118,2.521,262,0.52728,0.0152,9.2025,306,6.5515,6.6508,14.892,294,4.5982,3.2804
9.6104,474,5.7267,1.6081,11.257,278,6.2859,5.4164,-2.2504,274,6.8955,3.5258,13.061,450,11.785,5.5169,9.9977,462,4.2649,1.9577,14.772,430,7.1539,5.7483,6.6142,442,13.133,7.6543,8.8231,370,9.7304,9.4543
4.3691,494,0.61243,0.1174,9.0663,494,0.94099,0.3221,2.7477,482,5.775,3.3863,3.6974,494,1.5869,0.8574,11.888,406,9.546,7.5844,-0.0951,258,0.57378,0.0484,-2.2098,494,0.97764,0.4785,-9.2726,262,1.7485,0.5579
14.518,338,11.374,5.3624,21.82,258,0.54354,0.0615,4.1476,386,14.912,18.962,16.978,258,0.99724,0.4676,17.332,350,13.178,15.505,19.07,270,0.72881,0.6877,8.4876,270,3.5035,4.4328,17.189,346,7.5833,8.6822
3.6119,302,6.9484,9.3892,7.2043,302,7.5933,6.5091,1.2969,314,5.6217,2.9029,6.2184,306,5.0659,2.7036,0.0347,386,10.783,7.0355,9.6923,378,13.532,7.6546,7.5517,314,6.7871,2.7545,16.815,398,6.1558,7.5824
0.6688,318,5.379,3.2671,0.6869,354,14.639,5.4585,1.8771,434,6.1195,4.7209,2.9213,362,6.12,5.7737,1.4569,358,8.8344,6.8679,5.642,362,11.966,8.39,0.9181,362,12.043,10.244,0.537,258,1.6307,0.246
5.6373,286,9.4283,5.4746,4.2995,290,3.1061,0.9421,5.2515,474,6.3645,3.7158,15.727,290,9.6744,3.3743,11.33,274,11.588,5.6134,19.347,310,14.16,5.4123,9.8571,306,8.0063,6.6309,15.579,302,9.9251,6.2621
13.369,438,8.6002,5.9963,7.5048,330,4.7805,1.0103,3.5968,386,7.3888,7.9263,-0.4273,330,5.2939,3.7112,11.039,334,12.272,12.366,4.0382,330,11.717,6.9496,-0.2961,370,13.14,7.6072,2.9213,394,17.523,13.922
6.0533,490,1.4145,0.2434,0.2396,266,2.048,0.1888,1.3147,282,5.4134,3.0999,-1.5225,274,3.9638,2.05,8.897,430,12.57,6.6384,-0.0396,326,5.8856,3.9783,2.1148,270,4.1805,2.2515,0.6298,426,12.635,7.0187
10.741,286,33.564,9.4936,2.0334,318,5.9046,3.5479,4.6278,314,5.3278,3.9534,6.8919,318,5.1605,5.5498,5.4654,462,7.7081,6.1201,10.71,326,7.6544,9.9372,-2.2942,362,6.3951,4.3703,5.8492,442,11.898,8.491
5.4664,410,18.513,6.4502,0.715,490,2.3764,0.645,3.1433,490,2.2214,1.0323,1.3665,298,4.6297,3.2619,4.8095,434,7.9119,7.5006,5.8031,330,6.8828,4.7583,0.3115,298,4.6601,3.0912,1.5268,386,12.903,3.5361
7.6272,330,5.2335,4.6579,8.3057,294,5.9087,2.6624,5.602,298,9.9289,6.4922,3.9838,302,5.1133,3.0444,4.2102,490,2.1538,1.0578,5.2319,306,8.7992,4.1462,3.6468,438,8.5349,5.4256,4.0041,306,6.8001,7.3047
-0.3636,274,7.8712,2.2538,4.6561,358,9.0119,4.3892,6.5083,494,1.3735,0.8118,3.3565,278,6.4452,5.3024,9.5885,358,13.789,10.648,6.3815,278,4.1418,3.6818,9.4057,270,4.4161,3.1773,7.3771,438,13.41,9.2585
-7.2086,270,4.3829,2.7447,1.7388,262,0.73753,0.0695,22.816,486,3.5188,2.516,1.9904,470,8.1637,8.781,0.7799,466,5.7814,11.655,-4.5488,470,5.8108,9.9184,-3.3197,470,7.6005,9.305,-8.583,466,7.3169,13.258
8.8139,430,6.7099,9.6592,3.3453,374,6.1689,5.7417,2.8964,382,7.3506,8.3196,7.7569,450,7.3251,6.1718,13.576,446,5.3191,3.5008,6.9095,490,2.6369,0.8445,5.7892,382,14.826,7.9377,8.9164,494,1.7134,0.5548
4.1647,310,7.9181,7.2087,4.1914,326,8.9119,4.9136,0.5504,322,9.9355,4.0156,5.0042,442,9.505,2.2229,13.278,430,12.117,4.706,8.2196,462,6.9631,5.7764,10.569,450,1.7028,0.6536,3.7448,450,9.0327,4.6414
3.3232,494,0.56134,0.0703,8.7963,446,8.9385,3.8764,2.1316,478,5.2577,6.0539,0.4406,402,16.994,5.1893,-2.6384,398,9.3538,5.7627,0.9497,302,12.913,6.2306,-5.6917,414,14.836,4.862,0.2047,394,17.903,10.834
2.2997,330,15.975,5.8537,8.6049,378,13.359,2.3755,8.198,354,6.202,5.7389,4.6043,398,10.915,5.3783,5.5352,406,8.1795,16.924,10.989,342,6.5561,7.0674,5.5469,338,15.481,8.188,7.4619,394,10.159,8.5603
21.459,318,22.124,8.6422,15.085,274,7.46,3.1042,7.517,274,3.4262,1.2807,13.104,466,8.3342,2.3086,8.4737,330,16.262,11.319,4.4863,310,14.914,9.6405,7.4298,286,9.4552,4.5225,0.6536,326,20.463,10.282
-2.5925,394,6.9811,7.4554,2.9504,294,3.6579,1.1095,2.822,278,2.2314,0.305,3.3549,286,10.161,6.4493,6.6596,434,14.381,5.9786,5.3426,450,9.1456,9.0713,4.4633,278,7.2379,2.8303,2.8286,294,11.8,9.5747
6.0986,490,3.1831,1.5653,7.1228,278,12.765,4.2455,5.1154,326,8.2578,2.9573,9.1508,382,17.155,8.0732,13.071,478,6.4315,2.8866,15.307,478,6.4091,2.3387,12.12,382,9.4947,10.21,7.2401,474,5.1825,6.3497
8.2188,402,12.152,6.022,8.9028,258,0.51668,0.0232,3.4197,486,5.8096,3.1607,10.965,438,4.936,3.1502,10.725,342,13.391,5.4003,11.278,294,6.3855,6.1208,12.968,326,6.6706,4.5805,16.142,286,4.8373,3.518
16.635,482,5.0207,3.0817,-1.9415,354,12.13,3.8485,-2.0465,350,11.35,4.2198,2.2033,354,12.087,4.5927,10.39,390,13.9,7.8633,9.7623,462,5.4901,4.6115,5.3949,374,14.776,9.8007,10.812,370,8.5622,11.734
7.3547,294,6.1262,7.5586,10.458,258,0.5997,0.027,4.1302,434,5.2787,3.9734,5.2837,286,4.9133,1.9765,0.8951,394,9.1075,5.4512,6.5534,406,5.8777,5.2823,4.2889,402,6.4114,6.3634,5.8379,486,2.8711,1.3478
8.5588,306,6.6211,8.799,8.6048,430,13.061,2.8672,2.6267,286,5.5692,7.0493,5.8821,302,13.865,7.1381,10.551,350,21.145,10.251,0.4724,306,20.459,4.6152,-0.7818,398,9.6803,4.6565,3.034,306,5.7128,8.7791
12.782,282,5.5497,4.245,7.0329,370,15.185,7.1361,8.2117,370,6.0206,7.0039,5.162,426,11.628,4.7756,6.5082,430,10.014,7.7745,8.6139,298,6.0492,5.4569,9.6634,418,9.7341,7.3913,-5.2179,418,11.213,9.4418
4.0092,450,6.5997,3.5775,3.9349,378,13.301,5.3564,4.1093,362,21.53,5.5154,2.8287,386,24.393,6.2416,4.0163,302,12.709,6.3441,5.428,322,18.531,7.0816,-4.7124,302,36.998,7.7545,-4.2271,434,7.7232,10.863
-1.232,298,13.463,6.1272,-0.8275,298,9.0933,7.4948,1.0791,318,12.129,2.8102,3.5416,306,7.4539,5.46,6.5827,494,0.99447,0.3664,5.0976,306,6.2027,6.6109,-1.1756,310,7.7135,7.2769,20.333,494,0.85723,0.2317
7.7121,418,19.6,9.6582,2.7258,306,10.639,5.2009,-1.979,302,11.202,3.6993,2.5885,398,7.5998,5.2636,3.9978,390,16.205,8.5974,2.6817,446,5.2998,6.156,4.3794,398,6.9064,6.6375,5.6874,398,10.444,8.7762
10.141,314,7.4601,9.0139,6.4332,318,5.622,3.2271,-0.4261,354,7.2271,4.1578,-2.1693,402,18.229,4.621,9.8135,378,10.993,11.9,-2.3136,434,12.248,8.4012,1.2777,370,7.5392,6.1977,2.0546,446,7.4665,7.6293
15.217,282,8.5717,6.2995,10.372,446,13.175,3.912,5.8953,446,17.898,9.8741,6.1564,474,5.5018,2.876,6.3639,494,0.57591,0.0397,4.0763,494,2.7866,0.6235,-4.2978,434,22.544,4.4169,4.8305,466,6.3238,3.6301
7.2368,346,12.413,3.2168,8.8704,334,10.751,4.2147,8.7179,362,8.0651,6.8175,9.4422,386,13.021,7.3436,9.2719,262,0.50052,0.0009,7.4521,394,11.146,9.4464,2.4186,394,12.514,7.7419,-2.4456,474,3.4389,2.2386
11.373,366,8.3629,4.2343,3.2323,366,13.404,4.2067,2.6679,274,5.1151,1.8093,7.6121,382,12.757,6.3999,9.0308,470,12.117,5.046,7.5068,478,6.1257,7.8824,7.7666,382,13.166,13.178,5.4304,482,6.2188,7.0024
-1.2577,306,6.6254,3.8491,-0.11,302,6.2956,5.4911,0.888,462,4.7288,0.8028,-12.252,302,8.0455,4.5987,-16.367,310,12.373,9.3804,-14.963,310,5.9599,8.7608,-13.278,310,8.4561,9.1271,-22.392,310,5.5769,8.4638
14.177,430,9.5882,6.7935,3.6876,294,11.233,7.3073,-1.7618,482,6.0243,3.3844,-0.1573,294,10.198,4.4494,18.387,426,8.6361,8.7635,3.6644,406,15.892,5.8574,7.8514,490,3.9118,2.1794,14.037,390,10.351,6.3959
4.369,318,14.799,6.6825,5.8334,382,13.065,4.5503,7.2424,458,4.3068,5.7088,10.284,334,14.983,8.2896,5.3524,482,4.0494,4.424,5.8919,418,10.829,6.7959,10.017,434,13.594,10.982,9.7097,430,8.4515,16.414
10.848,438,5.427,6.9539,8.4626,270,5.0627,5.4179,2.8728,330,6.1498,2.859,5.5666,274,5.7443,7.4098,3.5205,318,13.515,6.9724,1.3123,310,5.8127,3.5316,-1.3541,274,5.5612,4.7003,-1.2152,318,5.1073,7.1383
10.666,374,13.261,8.7333,8.503,366,8.4919,5.5013,7.1752,454,7.3769,4.4822,6.9349,398,13.978,5.6355,9.6927,310,9.6302,8.2959,9.0289,310,10.693,6.6324,14.556,398,7.3027,9.8021,11.368,314,7.7941,4.867
5.3719,258,0.82405,0.2781,4.9275,310,14.166,4.286,12.03,314,14.247,16.3,6.1773,258,0.89356,0.1919,5.2646,358,6.2123,9.9716,2.6914,358,10.403,7.9903,11.687,378,8.7211,6.5688,14.068,354,10.247,12.73
11.003,302,18.182,8.0949,6.6519,302,6.0624,2.862,5.8191,406,7.3033,5.7275,6.5639,466,7.2198,3.118,8.6592,466,6.6284,10.252,7.5654,466,8.5052,2.8153,6.613,454,10.213,3.9759,5.4717,478,6.6347,5.9126
7.7507,406,18.115,9.7474,6.275,258,0.62377,0.078,5.1313,482,5.1527,3.7093,7.1479,386,9.2963,7.0149,11.946,306,20.417,10.272,11.321,402,11.47,8.1716,4.2064,354,19.453,5.1898,10.151,298,14.326,9.6923
8.9046,314,7.2972,7.5465,12.252,282,12.915,4.6216,8.9957,270,6.9552,2.3909,10.321,278,7.0301,5.0817,6.4605,354,9.9345,7.9555,10.744,282,6.0173,5.9621,12.084,278,5.4376,6.8109,5.9871,286,6.5953,3.7453
14.178,294,7.1682,3.5217,12.726,278,5.2338,1.3689,6.3215,358,8.7995,5.7212,6.1073,274,4.5851,3.4351,12.279,446,10.982,11.699,4.1555,370,15.022,7.7602,3.0428,270,4.2048,2.9078,5.8355,446,8.0165,8.0312
4.5403,478,5.9952,4.4728,8.9833,322,7.0461,6.1909,5.0886,326,13.352,7.6115,14.55,322,6.3117,7.1723,13.892,266,5.844,2.6117,12.934,278,6.6574,5.0219,9.2523,314,12.751,7.1659,10.965,286,7.2953,5.9903
7.4542,330,5.4983,7.1221,11.745,486,5.2631,1.6553,8.5909,462,5.7523,3.6479,1.4117,486,3.0975,0.7225,7.808,430,8.2915,9.299,5.4417,430,5.6887,11.556,5.44,430,4.9854,8.3636,9.3997,430,9.4274,16.863
3.1722,282,5.125,4.3065,7.6168,462,3.8407,2.1174,8.4386,330,6.2927,8.2213,21.248,482,3.539,0.4959,30.53,354,6.1716,10.568,16.052,350,5.4054,7.8971,37.475,490,1.5899,0.3657,42.555,406,8.4061,9.0097
10.027,322,6.2775,5.0957,4.5884,482,3.046,0.8311,4.1982,438,4.8607,3.4528,5.1882,438,5.4566,7.0864,0.3379,374,33.36,7.0419,3.6677,306,11.529,5.2311,0.8397,290,7.8113,5.1036,0.8587,350,8.7547,6.8374
12.606,266,3.2981,2.2982,7.0052,270,4.6834,4.4784,0.7244,270,6.2019,4.3116,-2.2665,270,10.611,5.1502,1.3171,458,6.4286,3.1976,7.0658,282,6.3698,7.476,-2.2159,410,18.955,6.3457,-1.0776,394,12.751,14.109
6.0176,394,9.3367,7.0067,12.666,310,8.7304,6.7896,10.649,314,5.2763,5.351,8.2975,278,3.0025,0.8909,8.3895,282,6.2923,6.0639,3.6937,262,3.0578,1.4316,17.017,262,1.62,0.6238,7.8675,274,4.643,1.3918
11.987,298,8.086,8.4395,8.7153,298,9.5506,7.8356,6.7851,266,3.2975,1.121,9.7087,306,11.037,7.3242,9.431,330,12.382,10.415,6.2441,486,3.9367,1.8778,8.3886,374,22.496,6.2896,5.1361,370,11.877,7.6596
9.5006,266,3.9658,2.2365,3.3423,326,9.8964,3.3137,3.374,386,6.6896,7.9413,2.0968,322,5.0795,4.8974,15.556,322,5.1292,9.5554,8.9816,278,5.3987,6.8901,4.0551,282,4.9921,4.7301,1.9777,278,6.3866,6.8624
-2.6906,394,22.043,7.4678,0.5335,470,12.038,4.9961,2.2721,458,4.5354,1.6365,-2.7015,338,10.179,4.2458,1.405,478,5.1079,5.8347,6.2285,478,6.4291,6.1895,2.505,330,10.854,8.6061,10.97,338,8.5765,12.878
8.5838,294,6.2367,5.7024,7.0503,450,12.966,6.4401,3.0546,346,7.2989,6.9076,8.2007,478,5.2975,5.3237,10.883,486,2.942,0.9528,-0.3833,326,10.054,4.9156,-0.6948,478,3.7392,2.9434,1.2479,314,10.649,9.5068
2.7867,314,15.745,4.2489,7.9666,490,3.1934,2.0097,8.4917,278,8.6822,8.6275,5.014,318,6.3531,4.4129,10.155,462,5.3854,1.2921,-1.5207,362,9.4459,9.3454,-0.5436,274,4.4534,2.2377,1.0291,278,4.389,4.6861
8.0695,294,3.9243,0.5063,4.5475,318,8.5189,3.876,5.4877,318,11.665,7.7835,2.4775,326,9.2415,6.4228,-1.2391,466,5.8629,5.5208,4.1655,466,11.952,3.318,10.973,318,7.3548,9.6304,6.2337,438,11.191,6.7999
-0.3403,290,1.4962,0.4509,6.0878,378,29.952,6.6576,7.4671,446,5.5981,6.3378,11.073,414,14.944,7.3283,9.9792,410,9.6272,12.787,15.65,406,9.8029,9.3047,16.865,482,4.0534,2.5418,18.416,494,0.6612,0.5728
5.3869,258,1.6943,0.7337,1.4416,322,9.7383,4.258,2.0232,482,4.139,1.9371,5.8777,302,11.221,5.4171,6.9928,314,8.8237,5.4488,2.7697,438,8.3883,4.195,8.5602,434,9.4525,6.8163,14.412,446,9.5606,8.2758
3.8893,306,10.137,2.675,7.2952,466,12.139,6.1397,8.0548,362,8.1851,4.4536,4.6538,342,19.421,5.1678,4.1292,342,18.983,8.5291,4.4576,342,14.989,6.9487,3.1846,342,18.741,10.237,-2.9804,454,4.5336,5.6209
13.084,442,9.4885,7.9859,13.57,450,14.188,13.663,4.2491,282,7.9847,8.4934,-5.5995,478,13.018,8.7527,-9.0508,258,0.66988,0.3382,-8.3535,262,1.7534,1.5652,-11.084,362,8.992,9.4357,-13.153,258,0.54907,0.0821
-1.3456,278,9.199,7.487,4.7879,278,8.3756,8.0004,10.114,374,12.422,13.996,7.8841,270,5.0785,3.6045,15.397,258,1.3271,0.7902,11.641,306,11.015,6.5178,12.705,398,27.827,11.412,11.63,326,15.242,19.095
13.825,330,9.0543,11.365,5.7465,334,10.342,9.6751,-3.4106,370,6.7405,4.1763,9.8918,334,11.306,7.3128,16.535,334,11.16,8.204,15.552,378,5.5284,4.7339,12.568,430,13.157,6.5506,15.8,418,12.114,7.2934
8.5423,354,9.8154,7.7264,14.362,358,18.953,12.751,10.005,402,18.895,14.957,25.059,358,18.521,12.747,33.153,402,3.7065,6.17,37.135,358,19.929,10.203,35.351,382,14.312,12.544,45.503,478,5.1318,7.7258
12.841,442,9.8773,6.0084,5.7764,430,7.0273,5.0692,-0.415,418,12.229,6.6716,-2.1888,454,4.8172,0.7622,0.3128,446,7.004,7.6358,-2.5759,450,8.82,6.424,-3.2827,278,0.52348,0.0174,-11.05,454,5.8345,8.5655
0.3062,426,6.4366,6.8318,9.2486,262,2.3505,0.6199,6.7596,370,10.493,8.2152,11.86,258,1.7041,1.0364,15.106,306,8.6826,9.528,12.233,314,15.797,9.8137,11.052,322,7.6113,4.6866,16.435,398,7.7306,11.557
13.301,406,7.5178,7.0097,12.849,314,16.419,7.5858,7.4079,326,6.8457,6.4107,7.68,314,7.3453,5.8932,2.2502,406,9.324,6.9334,4.1473,370,8.0777,8.2135,4.7102,314,5.0585,5.0794,7.1397,438,8.6652,3.0327
7.2562,426,4.9222,3.1716,3.3205,422,6.3136,5.8682,3.218,330,5.1004,3.8349,8.0904,422,14.685,9.925,5.9269,410,32.414,10.085,6.4867,426,16.649,7.4137,12.789,394,16.694,10.691,10.741,374,10.486,8.2345
6.2584,462,4.0782,2.4876,1.2634,274,4.3062,1.5149,-6.0562,346,4.5317,1.241,-3.5678,286,8.1056,5.9838,9.6402,418,6.2312,7.6544,0.1966,414,7.6869,4.7294,-0.7213,290,6.8473,10.436,5.047,290,5.7182,12.82
0.3868,490,3.7653,0.8637,4.5013,458,12.772,3.1648,7.0526,334,5.8896,6.8809,1.9543,322,13.157,5.1706,7.6385,494,0.9829,0.4235,7.955,358,5.5906,5.1217,4.3199,482,2.6535,0.1854,13.573,454,5.76,8.9836
2.499,274,4.8516,2.7058,7.63,442,7.5511,5.3205,9.6768,450,5.8937,5.0644,11.85,446,9.6476,9.3392,8.3919,458,8.5386,13.926,9.4154,458,11.251,7.9938,12.875,458,11.485,4.4779,20.741,462,12.19,7.7453
4.4449,266,4.8334,2.2035,6.0271,274,5.8795,0.9337,7.0048,314,8.8592,7.7503,5.0905,262,2.3674,0.5858,13.908,374,13.519,13.104,5.6501,374,9.5678,6.4001,5.4,290,3.2265,0.7951,4.3075,354,17.023,9.2997
2.6409,314,11.429,7.1716,3.3896,302,5.171,4.4252,7.9627,298,10.63,5.0768,7.8664,302,5.5816,4.0227,9.3073,406,10.637,11.106,9.3982,262,0.70009,0.5232,7.4652,262,1.0393,0.9985,12.355,354,5.6171,11.236
16.336,334,11.448,7.5204,16.58,362,15.684,10.53,8.4314,378,8.2518,5.1891,11.907,362,13.828,6.6234,21.889,334,11.664,10.528,8.8232,346,13.839,10.887,6.2716,378,17.741,6.993,-0.6639,326,18.79,7.7356
9.3007,298,5.4528,2.3887,5.4552,278,0.67974,0.1114,3.7225,314,4.3743,4.218,-0.5395,306,4.4782,1.3576,5.0523,478,5.9336,3.8701,2.2956,294,5.9337,2.9666,-3.4393,262,2.9047,1.3662,-8.4412,262,0.52233,0.0646
2.0209,278,6.3633,6.9855,1.5792,270,13.41,4.8827,4.5258,310,6.2995,7.6973,-3.0549,258,2.8865,0.694,1.5521,486,4.531,5.2697,3.6102,334,7.6879,12.356,0.8508,258,1.028,0.542,4.2693,494,1.3599,0.6203
2.4029,490,2.7365,2.4039,10.417,306,7.0552,9.7778,2.8556,302,6.4162,6.5403,10.973,310,5.9862,8.5488,0.4866,342,10.745,9.5624,4.7089,314,5.7608,4.9836,11.602,310,6.4524,9.1756,9.7362,422,18.855,11.888
-0.8152,334,27.71,10.276,7.3541,402,19.889,10.677,10.477,474,8.8103,5.6913,15.527,482,5.619,2.8845,14.181,446,4.3642,2.3441,12.13,494,1.5102,0.4569,20.415,482,3.7656,1.193,18.443,442,5.168,3.5046
6.9208,370,9.7783,5.1877,7.3947,494,0.84314,0.3452,1.2121,494,0.96354,0.2657,5.8762,266,2.1559,1.5595,9.5787,382,11.978,8.6457,9.4175,266,2.1816,1.6661,10.459,494,0.65002,0.244,5.431,382,16.491,5.0305
1.0721,334,14.302,9.254,1.4459,470,5.3146,2.6804,0.7965,266,3.864,0.5583,1.3161,266,1.5017,0.0336,1.6001,398,12.458,8.2271,2.1101,390,6.1305,8.6687,-1.5635,370,15.365,9.5228,0.4768,282,2.965,1.3613
8.9625,330,6.2026,7.3012,5.5293,494,0.73116,0.2883,4.7258,306,5.9566,9.6393,-4.5704,282,1.43,1.3718,-4.9246,366,8.3435,13.755,-6.7995,362,5.3477,6.6142,-7.355,358,7.728,11.85,-14.171,362,11.675,15.813
-3.2237,318,7.7297,6.0849,-0.5917,270,4.1407,1.5433,1.7053,286,5.3385,2.4156,-1.9448,350,14.547,4.676,8.821,374,11.711,9.2332,0.1011,354,22.486,9.9396,7.4999,350,17.438,5.4793,9.4149,354,11.334,7.0998
2.6076,494,1.242,0.1585,9.406,434,6.8815,2.4817,0.8357,390,14.838,3.6196,11.093,434,8.2406,4.9846,4.4932,486,3.2936,2.7545,2.7045,294,11.967,4.447,8.997,266,5.0279,3.6277,0.0615,298,4.4464,1.7722
9.9978,302,8.0176,7.1903,8.0476,338,14.839,5.4758,4.1399,354,11.297,5.0974,4.5573,350,10.552,7.8437,2.2234,274,7.2906,7.1725,-1.8652,274,4.2258,5.2219,3.8013,358,9.2637,7.3756,-2.6275,350,11.275,9.7403
6.1024,490,2.2202,0.9034,1.2524,342,11.729,2.5385,5.4436,382,12.989,4.7374,-1.8971,286,4.7931,2.589,-1.9059,486,5.8102,4.2163,4.8879,286,3.5347,2.7783,2.5338,470,12.345,5.5615,-1.9192,358,5.3694,5.8153
-0.4271,446,5.9222,5.2049,4.0775,438,4.3993,2.7495,7.2971,302,16.855,4.1899,4.2974,470,3.7754,1.7048,5.5442,378,7.8363,12.282,1.8048,382,6.5248,5.7078,11.742,386,6.2294,7.3335,18.562,386,14.911,17.126
11.007,294,4.9409,4.6827,11.696,286,4.0411,2.22,4.3746,362,6.2364,4.1468,6.7974,406,24.607,11.81,-1.6133,438,7.559,9.8358,-1.5331,438,17.915,8.1552,-0.5829,414,30.53,9.4335,4.0215,390,7.888,11.663
6.5464,266,3.8564,3.2436,5.9846,338,6.186,6.2823,2.8289,438,14.641,5.5462,1.3719,342,5.5151,4.7516,7.1503,302,11.951,11.789,3.3854,266,4.8298,4.1992,4.0215,306,6.6114,4.8058,3.3645,458,6.9653,9.8029
5.0834,366,21.933,8.532,2.4158,390,21.69,5.4358,1.0614,302,3.6398,0.6318,2.3435,406,22.338,4.692,8.6218,346,10.575,8.0997,8.2412,486,2.4666,0.3664,11.513,482,3.0075,1.0608,20.832,478,5.6465,1.9738
4.7463,278,9.372,2.0471,5.8417,358,9.5495,6.5449,3.8251,270,6.3428,5.5733,3.1089,366,11.192,7.5127,10.021,438,35.614,14.775,6.3192,350,11.917,10.595,1.3425,366,17.231,10.143,5.2117,362,13.862,9.8497
1.9528,334,13.46,5.1813,4.0922,282,4.5752,1.3754,4.4503,318,13.212,8.8992,5.0508,318,8.9337,4.5928,2.6315,326,5.4403,6.1038,5.2478,318,7.9255,5.1495,1.2333,318,5.6497,4.781,3.8048,322,7.3823,9.1148
4.2569,442,13.919,8.5329,2.0874,474,8.1414,3.8907,8.9969,454,6.2773,3.1665,3.9105,462,5.2624,1.2354,10.357,330,7.6608,9.6261,1.776,454,4.2881,1.642,9.373,402,5.5257,4.6023,5.3173,422,9.2646,6.4981
0.811,266,5.7827,1.2543,-5.9404,266,3.9479,0.4166,0.0797,318,7.3944,4.2303,-6.739,330,6.9053,3.259,-1.151,358,7.1163,6.483,-0.638,330,16.425,6.8357,3.8524,466,3.3239,1.5321,8.9638,382,5.5684,5.8021
11.294,454,5.8983,4.3178,11.225,450,6.3121,3.6899,-0.433,442,10.96,5.4914,10.784,410,19.435,6.8673,11.985,298,12.219,4.4385,9.7859,410,19.821,7.5479,2.4092,366,11.274,6.2325,6.2852,362,9.3344,14.299
10.658,378,13.347,10.718,1.6061,378,8.0966,4.5568,8.1426,314,16.074,9.2666,7.3553,494,0.82212,0.2097,3.8225,298,5.8441,2.7865,4.0823,282,6.9579,2.3899,10.01,314,8.5314,4.6518,6.5894,258,0.99687,0.3178
3.5627,306,7.379,10.804,-1.5571,262,2.7032,0.9354,3.1383,354,10.731,11.506,-3.6959,262,2.4475,0.9335,2.6294,298,4.9087,6.6489,-5.1051,294,3.7611,3.2531,-9.9701,354,7.7249,5.3991,-0.9615,266,4.5819,1.9805
2.1885,458,34.323,10.092,0.3781,438,11.17,9.5281,-2.7199,302,9.9653,4.824,-6.5464,438,10.013,8.4908,-0.6462,458,5.5217,5.2493,-3.3171,454,8.4403,4.7459,-4.9501,470,4.1225,1.2959,1.8714,462,4.5322,2.5294
-1.2107,418,28.736,8.6915,1.2527,470,32.6,6.1448,4.6608,338,7.2946,6.5594,10.319,358,13.92,7.2647,5.3852,270,4.9188,3.5481,11.651,270,5.6619,4.351,11.507,314,27.767,9.6916,7.8238,270,13.421,5.9268
4.2382,426,8.2302,3.9733,0.5041,430,6.4614,4.9525,10.197,306,7.747,4.709,5.1397,350,12.113,6.2947,-0.668,330,12.021,7.4289,6.2885,342,10.096,6.8217,6.7929,350,8.9027,11.229,1.4967,354,8.533,6.612
10.996,286,5.1983,4.0506,4.3038,310,4.8641,6.2997,3.4276,306,5.3087,10.618,-9.4396,258,1.0126,1.2171,-13.774,434,5.7063,4.8488,-12.572,258,1.0283,1.0452,-16.042,446,9.8321,4.9676,-11.67,478,1.5459,0.5491
6.3832,374,5.8557,5.8109,5.9091,374,16.246,9.711,1.0583,402,8.7058,6.4748,-0.0237,410,21.251,7.4336,12,274,5.4553,4.7354,0.5181,382,16.409,8.5853,5.0756,414,7.2917,7.788,-0.2676,402,18.231,4.8228
-1.1258,350,23.276,4.5644,0.2144,342,13.391,7.3269,3.1732,258,0.57625,0.0481,3.3401,438,23.025,8.757,4.8395,430,4.9496,9.8252,9.4078,434,13.899,7.9289,13.736,446,11.719,5.9873,14.12,358,12.812,11.676
4.0139,258,0.84242,0.0754,9.4184,422,8.43,7.081,5.5851,326,12.254,6.0928,9.2259,426,11.929,6.284,1.048,378,6.2948,10.071,2.3383,382,6.5982,4.3721,2.6186,430,16.393,7.8751,2.963,382,6.6417,8.6497
11.387,454,5.8501,4.6633,9.9558,458,9.9954,4.3227,4.7526,346,5.1131,4.0332,5.5943,354,5.8749,5.7877,5.9931,402,26.038,6.7395,9.3051,362,9.9883,6.396,1.2478,314,4.8733,2.7014,3.0538,374,7.0463,9.2211
2.2295,430,6.8936,7.4692,11.846,438,8.5477,11.295,3.0569,482,2.628,0.5008,8.3237,446,17.548,10.998,9.5005,414,7.4795,5.5468,10.497,454,10.222,5.8736,9.5006,454,10.405,3.0582,11.97,454,7.5589,2.0714
-20.261,438,6.698,3.405,-1.1659,422,9.0449,4.9274,22.038,394,8.3837,3.269,9.136,478,5.2276,2.563,1.9348,470,6.043,5.964,8.3609,442,6.9846,5.3935,21.654,358,11.138,9.3128,9.6703,342,14.972,8.8419
4.7889,330,10.901,6.1477,7.2531,358,7.847,5.6904,6.8837,298,5.7308,3.1117,6.392,338,11.728,6.8081,19.761,338,10.995,14.963,1.5791,342,11.666,8.0448,0.0004,338,11.082,5.8918,0.5257,490,2.0665,1.5006
3.7022,294,3.7734,2.0074,4.8873,458,6.0196,5.778,5.3897,286,9.1618,6.3697,1.9467,470,6.7877,4.5368,2.7105,378,17.211,6.4988,-3.1855,374,6.0963,4.4653,4.3892,494,0.84005,0.3931,-1.5555,382,7.749,7.5926
1.8079,486,3.3578,1.3898,-0.4393,298,11.546,4.297,6.0468,394,8.386,3.7507,6.3202,334,15.184,5.576,-2.4391,278,5.0737,2.7245,8.11,342,15.694,6.2935,5.0992,298,7.2627,4.7465,0.7125,350,7.2154,5.5539
2.3222,322,12.522,11.484,9.7734,406,18.106,10.558,6.4519,454,8.929,4.4928,3.475,418,8.719,6.3938,1.5939,362,17.045,7.9798,9.6693,418,7.5028,7.7442,-7.1094,418,10.426,10.694,10.728,306,6.8342,7.195
15.34,414,6.0934,5.4342,12.617,406,4.9773,4.331,3.3646,406,13.194,5.2921,15.811,442,6.7482,8.5746,6.0343,362,7.274,10.332,7.7043,358,6.6839,10.145,17.282,478,5.4898,5.3342,9.2878,438,14.36,14.7
5.5188,486,4.746,1.8039,7.6332,350,27.033,5.391,8.8748,346,7.2069,10.515,6.1508,370,22.447,5.7135,9.138,362,5.394,7.9622,8.6311,426,14.287,7.8076,10.718,266,2.8813,0.761,4.7123,290,6.7914,6.954
5.626,354,8.9239,7.3232,7.3851,302,13.353,5.8517,7.6561,478,5.7411,2.7567,7.5138,298,8.7788,6.6143,14.627,302,7.65,12.016,13.503,302,10.935,6.5138,-3.0361,286,5.7242,6.2038,13.255,402,17.739,12.274
11.016,302,11.179,7.0059,4.5451,314,7.575,5.7241,2.9693,342,6.4318,6.5302,9.0723,314,12.988,7.4949,13.694,386,11.495,10.801,9.9461,386,16.959,7.5509,10.42,386,16.309,9.0524,-4.606,374,12.408,6.0367
-0.1268,458,0.57885,0.0299,9.7841,330,6.815,2.0863,3.1197,334,7.2996,6.2804,5.0155,310,21.136,5.0287,3.8218,486,1.3364,0.4973,4.3749,494,0.62609,0.1388,2.2782,482,4.5135,4.9133,11.808,486,3.2014,2.9219
2.723,318,3.5993,0.9713,5.8189,286,4.1578,2.8846,3.6385,458,4.9963,2.0466,8.8932,286,6.3406,6.5112,6.054,330,6.416,7.6323,3.0414,414,15.354,2.4864,8.39,446,13.411,5.4337,7.3742,446,11.293,7.0132
5.9592,346,13.036,12.957,2.4769,322,7.7183,10.846,8.9717,406,12.752,21.48,-2.0713,354,13.02,4.715,6.7202,358,10.032,15.659,-2.3057,350,9.0337,11.581,-1.9662,354,9.8092,5.748,6.6641,358,12.209,14.296
6.4977,446,6.7212,2.5767,9.479,422,6.8765,6.6233,9.4258,422,12.73,7.0045,5.7114,414,11.663,6.8977,1.8194,286,5.2071,7.5078,6.9519,406,9.4742,9.3264,6.9267,402,11.093,9.1472,-5.4065,402,6.8684,13.377
2.3558,418,9.9912,7.6204,2.0892,418,7.8667,6.7106,2.4016,338,4.6521,3.8766,3.6767,270,2.2631,0.2046,8.8941,262,2.3866,0.6929,2.8316,278,12.706,4.9058,1.1696,270,4.5629,3.019,6.2727,458,4.2435,3.9686
3.4149,482,3.8052,1.8859,8.722,282,7.1504,6.6425,7.4347,270,7.0045,2.4816,6.0288,282,6.5818,3.4292,2.6255,442,8.2624,8.6782,2.1462,350,11.156,6.7723,-3.2658,338,4.9606,1.7095,15.901,426,13.496,10.062
10.43,462,4.9262,4.7494,7.8813,398,12.815,9.2337,4.0435,326,39.144,7.7501,6.0275,434,17.412,9.4107,13.646,262,2.0012,1.0691,7.0553,438,12.923,10.51,15.531,442,7.8535,12.006,7.1983,442,7.1295,12.345
1.2772,350,7.4437,8.7179,5.7801,458,5.1208,3.2539,-3.4216,410,6.2394,5.4075,-1.2586,458,4.1846,1.4437,-0.454,486,4.2488,2.2816,-0.1237,270,2.7458,2.3244,1.2177,270,1.5636,0.7028,-4.8275,446,6.697,7.6466
12.045,262,2.7079,0.9846,3.5152,302,4.7988,2.6494,4.2206,314,8.0702,7.4517,10.437,290,7.0689,4.7588,14.101,282,5.6504,3.9427,13.004,294,8.4735,7.0074,5.9164,302,8.8501,6.6802,17.417,294,10.621,12.94
2.5828,450,14.684,5.7813,4.3694,318,36.459,10.902,6.846,354,28.409,11.472,5.3893,322,21.587,9.3116,4.985,434,6.1478,8.5283,9.3598,490,1.8119,0.6122,5.9364,354,6.6298,4.2761,3.1549,490,2.5396,2.1253
11.77,326,21.413,8.5866,2.5871,474,5.3284,5.4367,1.7177,474,6.7945,3.5723,1.2521,446,3.9544,2.4917,10.746,442,6.9727,9.7772,0.1905,350,17.069,6.1796,4.1619,398,7.7437,8.6525,2.5998,398,16.505,6.018
8.1801,430,6.2632,10.234,5.9421,390,6.0212,8.2154,9.1691,286,4.1039,4.2682,10.112,402,10.805,12.181,11.297,426,11.505,11.383,14.06,306,9.7535,8.5776,9.6362,406,8.4667,16.73,11.939,414,8.8183,17.526
9.4228,310,11.566,6.8478,7.9981,322,13.28,7.9072,1.1215,306,10.863,4.5138,5.9023,354,4.4213,3.091,10.232,346,9.1377,7.6143,13.373,270,5.233,5.4166,9.9952,354,5.4766,7.1662,17.542,458,13.373,10.392
2.2393,418,7.3196,8.5449,5.3032,422,6.653,8.7324,1.997,262,3.2506,1.2873,-1.6414,426,5.7708,6.9629,-10.917,282,5.9152,5.4412,-1.1532,322,15.425,11.397,-5.4432,322,14.223,7.508,-2.8847,326,13.287,11.642
3.389,274,5.1513,3.8185,5.586,370,9.9972,10.353,1.6087,478,8.1899,2.1185,2.4964,450,7.3469,5.2625,3.3657,438,7.6314,5.9536,1.3558,442,6.5985,8.9882,5.4287,442,6.7131,7.1598,4.118,414,14.686,6.0208
5.6936,402,15.674,7.5186,2.3879,442,12.308,11.102,6.3124,342,5.559,7.1287,4.1308,438,10.173,9.0333,13.878,326,13.972,9.0127,13.775,326,12.739,9.0486,14.302,434,6.9214,9.1436,15.99,354,12.605,8.0385
5.1597,402,5.5219,9.6298,0.9443,474,8.7123,7.3978,1.2604,454,11.132,6.5027,0.7019,438,5.9225,9.0973,-5.7642,402,5.1915,9.4817,1.4369,434,6.5023,12.887,1.926,438,7.7943,12.504,-0.7112,438,7.3279,8.2762
1.5503,434,5.0759,4.372,6.216,294,11.109,7.1873,4.7621,346,6.5783,9.9545,0.7109,290,10.21,4.171,4.6336,470,5.3737,3.4991,0.1655,266,5.2243,1.613,-1.8424,474,5.5362,2.4409,3.5797,478,5.3889,6.1393
2.0404,478,4.9424,3.7536,4.7496,434,8.8587,6.5852,5.7026,270,4.5175,2.808,5.847,434,15.269,4.607,-0.4351,466,7.7359,6.3822,-0.8062,318,4.5095,2.2762,3.5381,450,12.129,9.3293,0.0534,362,13.694,10.399
5.0008,350,15.707,10.876,0.6527,434,21.659,7.5565,2.8271,478,4.7484,3.7467,2.0343,454,6.8125,3.9413,2.4518,490,2.4727,0.4271,-3.7758,486,4.6203,2.4475,2.3219,370,5.5153,4.9402,1.9894,486,2.8865,1.4049
9.4569,410,14.72,7.3116,4.8597,422,6.4019,3.4794,2.2181,358,14.387,8.0374,2.9211,330,8.0566,6.8635,2.372,410,13.635,7.2718,7.8219,258,0.54511,0.0338,2.731,342,10.255,6.723,6.5046,454,4.3874,4.0424
-4.1697,446,3.7672,1.1815,3.7235,446,5.686,4.4318,8.3361,394,6.1136,7.4092,12.166,446,5.9871,2.4432,15.048,454,10.615,6.349,18.076,446,9.6135,5.0278,12.562,262,2.4742,1.653,20.345,282,7.679,4.6181
-29.13,274,1.5142,0.3904,8.7156,310,15.038,7.9713,26.992,430,7.2934,8.2166,-0.2715,322,7.2302,5.9431,-25.691,406,5.7326,8.5917,-13.45,258,1.1858,1.055,-3.3223,362,9.608,9.1741,-13.385,370,6.5195,11.758
-7.6377,422,8.8664,7.5536,3.4142,338,9.0251,8.2454,5.1631,318,19.408,4.0354,10.854,258,1.1926,0.5315,17.484,262,2.8062,0.9595,9.1636,258,1.0839,0.5373,25.816,474,3.2004,2.9914,31.767,258,0.9255,0.7282
3.927,466,7.7895,4.471,3.2429,322,12.299,4.931,4.8904,426,9.5733,4.2589,-1.4396,306,6.4651,3.1846,-1.5433,358,16.567,6.8673,-1.2089,306,6.227,4.8886,-3.1752,334,5.1078,4.4997,-0.8149,474,4.9897,3.9976
3.448,470,2.6246,1.0101,9.1372,482,5.0057,4.0218,3.4013,478,14.72,5.7949,12.176,478,6.5852,6.6477,4.588,462,7.2523,4.3756,9.4548,478,7.2295,5.2266,13.064,478,7.85,5.4268,8.5364,490,1.2137,0.4084
8.2313,314,8.841,4.4282,6.25,462,6.8058,3.5952,1.0424,386,6.4041,4.971,4.0881,462,5.6976,1.5718,2.1148,470,6.6105,3.5702,-5.2179,470,13.912,2.6505,-4.7306,378,6.647,3.1912,-0.0997,370,7.3883,5.1857
9.5406,486,3.7363,1.3919,2.5686,338,21.681,4.6365,2.9995,326,5.6987,2.9348,5.7703,370,7.0512,4.5414,4.6499,290,4.0932,3.4045,-0.6959,366,8.9905,4.9053,4.2445,406,25.497,7.1778,-0.036,494,0.62304,0.0613
2.952,326,17.622,11.072,5.6287,402,9.3709,7.3817,7.6092,450,4.9076,1.9738,2.9043,390,8.2079,5.5041,-2.3824,378,19.957,9.5054,3.2678,398,8.3686,7.101,3.4034,486,4.1459,3.8261,2.5094,478,6.9395,5.3912
-0.1168,458,4.3323,3.2587,3.2067,462,4.9959,2.201,4.1783,486,4.6745,4.5394,-1.4246,414,10.586,6.1472,6.5815,402,9.0529,14.121,6.9224,406,13.509,11.519,0.5208,414,12.309,10.626,4.4063,406,11.76,12.093
5.2909,466,5.9513,9.767,9.2285,466,4.2016,3.5173,5.1055,482,5.2728,5.64,19.027,458,4.7754,5.6029,15.408,458,5.7752,4.3184,9.94,454,6.0321,7.6969,15.709,494,0.94584,0.5779,12.291,494,1.8344,1.3722
10.399,478,5.5886,3.7763,5.1092,486,4.5769,2.6757,11.722,298,8.141,7.9901,6.0838,486,3.5477,0.9894,7.0885,350,7.4097,9.3907,2.7584,354,15.312,10.861,2.8906,258,1.5536,0.5036,4.5824,358,12.968,13.511
7.7482,434,10.371,7.9023,2.8889,282,7.4088,4.6564,-0.7886,322,17.826,5.5214,-4.6088,434,23.315,6.3999,3.637,446,24.829,6.3376,2.5678,434,9.3715,6.0843,-9.4206,394,9.2354,5.1997,4.6725,474,5.9578,7.8695
11.72,314,6.6079,10.154,1.8221,302,7.0362,4.3787,6.3025,366,7.7327,10.166,0.6568,398,5.6886,3.2893,9.5712,494,0.52608,0.0252,4.874,494,1.5536,0.1917,2.465,462,6.111,1.8216,3.0957,410,6.6789,6.0143
7.9805,386,9.884,8.2999,4.9538,386,13.361,10.691,1.5826,314,6.3088,4.2449,-1.612,290,9.5809,8.6024,-10.919,446,6.0931,6.1101,-6.2124,294,5.5229,3.4993,-0.6341,290,5.4591,3.5118,-0.632,258,0.57068,0.0443
8.8277,414,13.073,4.883,12.395,438,14.217,6.5563,7.9567,434,7.5137,4.1144,10.355,422,7.525,4.2848,3.8388,318,4.447,3.8639,8.0791,402,8.8078,2.5439,7.1207,314,6.8509,7.2656,-0.9341,414,10.232,6.2697
18.733,386,8.5945,9.64,17.56,422,15.174,12.997,5.2769,426,9.1881,8.2522,3.7389,298,10.585,10.152,-1.0261,474,11.079,6.9233,-3.1814,306,7.6354,10.529,-6.7951,298,8.3263,9.2152,-15.168,458,7.934,9.8509
19.768,410,6.0342,4.7923,5.4478,462,13.455,6.6479,-8.1497,286,3.2625,1.8524,5.3069,298,7.507,4.5924,8.2943,386,15.787,5.7905,5.142,378,8.3352,8.5453,4.3963,386,6.9514,6.163,4.8609,386,8.6006,14.978
11.727,438,7.687,4.408,5.4378,422,10.258,7.2848,0.7368,426,4.977,5.479,-0.2281,430,12.663,6.7765,6.9181,266,0.60626,0.2547,3.7079,266,0.66128,0.3516,3.4554,394,5.7422,6.2334,1.6249,334,5.4802,4.5719
1.7347,330,10.61,9.5957,2.8516,322,10.166,5.0237,12.005,462,7.8123,7.9533,4.3825,366,8.064,10.226,-2.0185,314,6.6662,9.7583,1.6455,266,1.9682,2.7628,2.8106,266,1.9409,2.0341,4.0365,494,0.57187,0.4684
-1.7664,378,4.6605,3.5151,11.195,386,13.64,10.055,6.9093,494,1.8581,0.7263,10.782,386,18.978,11.203,4.9153,306,6.0888,7.8298,2.5916,298,7.3451,9.3541,4.3604,438,7.2937,5.6137,3.6933,298,10.93,9.3663
5.3683,266,4.1701,2.0894,12.991,398,12.45,8.4491,7.3655,390,7.3564,5.1495,13.805,326,9.589,10.658,19.257,326,9.0929,10.164,13.94,326,7.7879,10.394,9.797,330,8.49,11.802,9.7971,334,8.0602,12.576
6.0226,442,5.7101,3.1498,12.042,442,11.253,5.351,7.8614,274,6.4458,4.2828,9.7184,378,9.6525,4.9917,4.3208,330,7.463,8.5886,5.6607,326,8.1501,9.4393,5.4878,326,6.0354,5.9623,7.4001,390,17.219,9.3069
0.5521,290,3.8031,1.4767,7.9007,350,22.239,7.1345,4.1863,438,9.055,6.4867,10.511,426,6.3365,3.9633,15.914,258,1.5339,0.894,9.5361,326,12.412,5.0524,12.918,418,10.684,8.0905,10.105,266,4.648,3.8313
-7.4617,458,4.9526,4.2039,13.953,410,16.198,22.498,24.9,418,11.067,20.324,12.608,274,6.059,3.9818,-1.8061,454,11.163,5.8957,4.1589,282,1.4131,1.2677,14.138,402,13.328,12.375,14.151,282,6.9371,13.92
6.6531,442,15.699,9.7225,5.8889,454,11.444,5.7053,6.3158,462,5.4129,2.8871,3.6681,414,6.3124,2.9967,10.607,406,8.1642,9.8695,7.0714,410,10.668,10.286,3.9838,470,5.7535,3.4708,0.5638,478,4.2443,3.0825
5.1026,326,8.5437,5.4735,5.3717,258,0.70386,0.1352,5.7056,262,1.7082,0.0929,9.6233,270,4.9071,2.6336,7.2969,442,14.236,10.985,13.839,406,7.8777,7.7483,13.746,274,6.4009,6.474,15.274,398,13.965,6.8519
-1.2006,282,7.6393,3.463,6.2602,258,0.90105,0.4365,5.2775,350,11.326,4.4829,2.8112,314,7.0502,3.017,3.8076,410,6.58,9.0684,0.4654,282,0.74056,0.1312,9.4574,314,6.7332,8.4629,5.8232,314,6.7129,4.6079
0.5245,418,11.566,3.7401,-4.3935,426,16.164,7.8196,8.6895,374,6.2647,5.759,-1.4765,422,13.786,9.8272,-3.6538,426,8.6959,11.958,-1.5671,422,9.8027,9.6406,-4.559,422,8.5257,12.909,-6.0898,422,10.736,13.715
-2.2152,342,11.195,3.7914,5.2283,438,5.4767,2.6337,1.2122,298,10.034,2.6374,0.0757,366,5.7124,6.2215,5.6566,262,1.5401,0.7738,0.7432,366,6.6945,6.1805,1.7485,262,0.82602,0.7195,-1.1888,490,3.251,2.1237
11.847,454,29.166,8.2198,7.743,270,6.2484,3.6972,5.9369,294,14.126,13.649,5.1382,270,9.2692,5.3125,7.0096,366,9.9688,10.729,4.9166,374,7.8357,8.6137,5.3399,270,8.3498,3.5121,12.352,366,13.12,8.1468
-2.9638,270,2.2222,0.9595,0.8964,430,12.653,4.8527,24.79,486,3.7471,1.2881,2.0716,394,7.8805,8.8774,-1.7664,270,5.3391,4.8992,-2.243,390,19.009,13.29,-0.4351,394,7.2945,8.1545,2.4002,270,4.6748,6.3138
10.706,258,0.92542,0.1506,6.5297,478,5.0973,4.003,4.6348,486,3.6841,1.8353,9.3637,274,5.146,4.9477,12.161,270,5.5636,6.8476,13.869,274,5.6456,8.4207,10.836,282,8.8362,3.8583,9.5816,422,13.805,11.532
11.506,446,5.6951,4.5519,10.571,446,8.5589,11.545,4.2001,406,18.565,9.2826,14.336,402,8.2377,5.0988,22.001,362,22.43,11.402,16.454,374,17.037,8.2872,14.485,402,9.5106,7.9325,15.08,470,4.7839,2.9712
35.499,462,18.067,9.4144,22.273,434,8.4439,8.4726,18.141,418,11.22,8.209,20.076,434,7.7606,6.6951,23.221,362,8.5249,11.478,20.56,362,8.3625,9.9709,15.986,482,1.6449,3.3741,19.082,362,7.6933,12.189
0.7266,430,10.362,7.481,3.3859,418,13.089,5.5976,4.4186,302,13.36,4.7773,5.1346,398,13.524,9.1407,2.8754,298,10.008,10.715,2.2762,294,12.186,10.04,5.7921,294,9.3708,11.088,6.8519,294,11.02,10.708
2.0592,458,9.2215,7.5871,4.4874,326,11.01,4.4996,3.7615,282,9.5042,4.0315,0.9322,326,11.958,5.2539,6.7526,322,10.198,7.1927,6.0396,326,12.252,7.4945,3.7694,478,4.2412,1.8672,7.55,330,11.276,8.2951
