0.99903,0.00097316
0.99945,0.00054881
0.99924,0.00075768
0.90285,0.097145
0.96661,0.033392
0.99734,0.0026558
0.99964,0.00036006
0.99912,0.00087958
0.99979,0.00020797
0.99992,7.5349e-05
0.99899,0.0010075
0.99907,0.00093105
0.99942,0.0005824
0.99932,0.00068173
0.99258,0.0074162
0.91989,0.080105
0.92574,0.07426
0.97001,0.029995
0.9012,0.098798
0.96385,0.036152
0.78904,0.21096
0.68035,0.31965
0.5193,0.4807
0.51684,0.48316
0.9326,0.067395
0.98584,0.014157
0.98986,0.010142
0.99292,0.0070824
0.97201,0.027992
0.98904,0.01096
0.61728,0.38272
0.94385,0.056148
0.97858,0.021418
0.99567,0.0043265
0.99925,0.00074879
0.99538,0.0046195
0.99925,0.000749
0.99977,0.00022623
0.9998,0.00019541
0.99963,0.00036879
0.99999,1.4486e-05
0.99996,3.9678e-05
0.99998,2.254e-05
0.99996,3.9712e-05
0.99994,5.9881e-05
0.99998,1.6146e-05
0.99995,4.5671e-05
0.99974,0.0002559
0.99886,0.0011394
0.9824,0.017599
0.99479,0.0052067
0.86212,0.13788
0.98993,0.010068
0.96864,0.031357
0.98303,0.016973
0.99472,0.0052783
0.97529,0.024709
0.99182,0.0081837
0.99898,0.0010208
0.99846,0.0015431
0.99914,0.00085528
0.99905,0.00094545
0.99998,2.2897e-05
0.99999,1.4845e-05
0.99999,1.0122e-05
1,3.496e-06
0.99998,2.272e-05
0.99988,0.0001172
0.99953,0.00046505
0.99952,0.00048356
0.99989,0.00011027
0.99999,6.6253e-06
0.99995,4.9469e-05
0.99944,0.00056431
0.9773,0.022703
0.99787,0.0021304
0.98128,0.018716
0.99149,0.0085057
0.98673,0.013272
0.99562,0.0043834
0.96233,0.037673
0.96233,0.037673
0.96233,0.037673
0.96233,0.037673
0.96233,0.037673
0.96233,0.037673
0.96233,0.037673
0.96233,0.037673
0.96233,0.037673
0.96233,0.037673
0.80548,0.19452
0.99473,0.0052669
0.99979,0.00021317
0.99965,0.00035307
0.99975,0.00025479
0.99679,0.003206
0.99735,0.002652
0.99332,0.0066758
0.99584,0.0041584
0.99491,0.0050919
0.99801,0.0019918
0.99896,0.0010423
0.99677,0.0032256
0.99346,0.006538
0.94353,0.056474
0.8765,0.1235
0.9806,0.019399
0.99644,0.0035606
0.99901,0.00099179
0.99584,0.0041601
0.97662,0.023382
0.96821,0.031787
0.91023,0.089773
0.3903,0.6097
0.83281,0.16719
0.97915,0.020848
0.92032,0.079679
0.98702,0.012976
0.99136,0.0086365
0.95862,0.04138
0.9848,0.015204
0.99863,0.0013654
0.99958,0.0004173
0.99939,0.00060681
0.99951,0.0004881
0.99811,0.0018916
0.99467,0.0053349
0.99965,0.00035099
0.99948,0.00052395
0.99956,0.00044018
0.99789,0.0021075
0.99814,0.0018609
0.99895,0.0010515
0.99825,0.0017533
0.99974,0.00026083
0.99993,6.8068e-05
0.99075,0.009245
0.9842,0.015803
0.996,0.0040016
0.99804,0.0019607
0.97453,0.025466
0.99805,0.0019453
0.99986,0.00013891
0.99969,0.00030512
0.99919,0.00081134
0.98405,0.015948
0.97406,0.025944
0.99983,0.00016959
0.99996,4.4027e-05
0.99973,0.00026811
0.99724,0.0027568
0.99756,0.0024404
0.97637,0.023634
0.66813,0.33187
0.38525,0.61475
0.78457,0.21543
0.97656,0.023444
0.99743,0.0025683
0.99583,0.0041698
0.99651,0.0034883
0.99713,0.0028721
0.99769,0.0023108
0.9985,0.0014996
0.99984,0.0001591
0.99947,0.00053358
0.99998,2.1171e-05
0.99985,0.00015074
0.99987,0.00012801
0.99436,0.0056363
0.99774,0.0022627
0.96233,0.037673
0.96233,0.037673
0.96233,0.037673
0.96233,0.037673
0.96233,0.037673
0.96233,0.037673
0.96233,0.037673
0.96233,0.037673
0.96233,0.037673
0.96233,0.037673
0.38512,0.61488
0.0025884,0.99741
0.0066272,0.99337
0.021405,0.97859
0.0087273,0.99127
0.011151,0.98885
0.019225,0.98077
0.0015664,0.99843
0.0007145,0.99929
0.0048672,0.99513
0.001173,0.99883
0.0030611,0.99694
0.0073582,0.99264
0.0017663,0.99823
0.00036135,0.99964
0.00069815,0.9993
0.00016434,0.99984
0.00096611,0.99903
0.013258,0.98674
0.0023606,0.99764
0.004686,0.99531
0.034135,0.96587
0.029632,0.97037
0.049673,0.95033
0.075009,0.92499
0.14847,0.85153
0.11522,0.88478
0.46945,0.53055
0.034117,0.96588
0.030794,0.96921
0.078433,0.92157
0.0062358,0.99376
0.0052227,0.99478
0.0033274,0.99667
0.013573,0.98643
0.0057317,0.99427
0.0016135,0.99839
0.0067288,0.99327
0.0025048,0.9975
0.0060181,0.99398
0.00051629,0.99948
0.00061189,0.99939
0.0038285,0.99617
0.00039253,0.99961
0.0023092,0.99769
0.0011405,0.99886
0.0017251,0.99827
0.0068217,0.99318
0.0037397,0.99626
0.0084537,0.99155
0.006674,0.99333
0.0084003,0.9916
0.052165,0.94783
0.0082921,0.99171
0.055807,0.94419
0.024639,0.97536
0.0077052,0.99229
0.0059524,0.99405
0.01177,0.98823
0.55253,0.44747
0.25932,0.74068
0.15476,0.84524
0.12778,0.87222
0.034133,0.96587
0.2128,0.7872
0.31377,0.68623
0.51113,0.48887
0.68972,0.31028
0.98177,0.018227
0.94059,0.059405
0.055449,0.94455
0.030052,0.96995
0.014818,0.98518
0.018855,0.98115
0.0085434,0.99146
0.039867,0.96013
0.014239,0.98576
0.0046062,0.99539
0.010371,0.98963
0.0064316,0.99357
0.96233,0.037673
0.96233,0.037673
0.96233,0.037673
0.96233,0.037673
0.96233,0.037673
0.96233,0.037673
0.96233,0.037673
0.96233,0.037673
0.96233,0.037673
0.96233,0.037673
0.99298,0.0070155
0.99438,0.0056184
0.99584,0.004158
0.99826,0.0017438
0.99421,0.0057857
0.99366,0.0063444
0.99956,0.00043739
0.99997,3.2213e-05
0.99984,0.00016125
0.99995,5.3583e-05
0.99998,1.5065e-05
0.99997,3.4318e-05
0.99997,3.2906e-05
0.99998,1.8821e-05
1,2.9729e-06
0.99999,1.1127e-05
0.99995,4.9803e-05
0.99994,6.0003e-05
0.99991,8.5329e-05
0.99983,0.0001723
0.99993,7.499e-05
0.99877,0.0012328
0.9882,0.011804
0.99116,0.0088363
0.9362,0.063798
0.51418,0.48582
0.97075,0.029248
0.96486,0.035141
0.93976,0.060241
0.95407,0.045934
0.97722,0.022778
0.68407,0.31593
0.91858,0.081423
0.95019,0.049811
0.87662,0.12338
0.96234,0.037664
0.99939,0.00060829
0.991,0.0089984
0.99618,0.0038229
0.99678,0.0032177
0.98376,0.01624
0.99548,0.0045179
0.9963,0.0036966
0.99589,0.0041073
0.99968,0.00032265
0.99999,1.263e-05
1,2.0891e-06
0.99995,4.853e-05
0.99999,1.3465e-05
0.99982,0.00017582
0.99966,0.00033806
0.99981,0.00018952
0.99984,0.0001626
0.99978,0.0002175
0.99992,8.3404e-05
0.99993,6.9307e-05
0.9892,0.010799
0.98015,0.019846
0.97466,0.025338
0.83051,0.16949
0.88866,0.11134
0.94837,0.051631
0.88573,0.11427
0.68237,0.31763
0.70802,0.29198
0.79879,0.20121
0.53362,0.46638
0.97507,0.024925
0.92349,0.076507
0.78244,0.21756
0.92691,0.07309
0.98293,0.01707
0.98978,0.010224
0.9948,0.0052046
0.9975,0.0024955
0.99741,0.0025854
0.96173,0.038268
0.85415,0.14585
0.87568,0.12432
0.98691,0.013089
0.96233,0.037673
0.96233,0.037673
0.96233,0.037673
0.96233,0.037673
0.96233,0.037673
0.96233,0.037673
0.96233,0.037673
0.96233,0.037673
0.96233,0.037673
0.96233,0.037673
