0.93211,0.067893
0.22697,0.77303
0.76874,0.23126
0.80625,0.19375
0.59611,0.40389
0.93971,0.060288
0.62849,0.37151
0.63578,0.36422
0.72276,0.27724
0.55205,0.44795
0.59853,0.40147
0.88135,0.11865
0.54797,0.45203
0.76298,0.23702
0.66721,0.33279
0.76532,0.23468
0.64371,0.35629
0.53904,0.46096
0.54488,0.45512
0.44471,0.55529
0.69789,0.30211
0.74644,0.25356
0.84944,0.15056
0.71982,0.28018
0.71188,0.28812
0.57691,0.42309
0.61203,0.38797
0.81615,0.18385
0.5569,0.4431
0.75599,0.24401
0.77288,0.22712
0.48843,0.51157
0.61574,0.38426
0.69625,0.30375
0.79409,0.20591
0.76242,0.23758
0.51929,0.48071
0.81096,0.18904
0.68219,0.31781
0.71514,0.28486
0.85898,0.14102
0.78638,0.21362
0.79093,0.20907
0.39485,0.60515
0.67484,0.32516
0.5968,0.4032
0.60805,0.39195
0.61075,0.38925
0.83682,0.16318
0.74476,0.25524
0.60139,0.39861
0.70799,0.29201
0.81658,0.18342
0.8866,0.1134
0.53064,0.46936
0.73282,0.26718
0.55769,0.44231
0.8106,0.1894
0.59269,0.40731
0.70055,0.29945
0.88293,0.11707
0.56086,0.43914
0.72291,0.27709
0.73339,0.26661
0.55582,0.44418
0.72754,0.27246
0.86611,0.13389
0.74231,0.25769
0.59438,0.40562
0.73339,0.26661
0.61712,0.38288
0.70064,0.29936
0.75333,0.24667
0.7794,0.2206
0.68741,0.31259
0.87857,0.12143
0.56865,0.43135
0.55861,0.44139
0.61764,0.38236
0.91352,0.086478
0.73544,0.26456
0.824,0.176
0.47438,0.52562
0.83563,0.16437
0.42196,0.57804
0.72314,0.27686
0.74683,0.25317
0.67153,0.32847
0.69838,0.30162
0.37914,0.62086
0.7638,0.2362
0.45031,0.54969
0.72552,0.27448
0.65092,0.34908
0.88565,0.11435
0.65176,0.34824
0.64708,0.35292
0.91676,0.083243
0.77906,0.22094
0.7814,0.2186
0.74012,0.25988
0.76029,0.23971
0.82382,0.17618
0.76263,0.23737
0.6294,0.3706
0.54142,0.45858
0.6529,0.3471
0.82002,0.17998
0.79856,0.20144
0.86605,0.13395
0.82932,0.17068
0.59196,0.40804
0.69658,0.30342
0.84396,0.15604
0.72295,0.27705
0.67425,0.32575
0.59161,0.40839
0.59429,0.40571
0.76468,0.23532
0.52182,0.47818
0.78433,0.21567
0.71071,0.28929
0.77787,0.22213
0.37934,0.62066
0.86334,0.13666
0.73534,0.26466
0.86055,0.13945
0.90555,0.09445
0.83776,0.16224
0.65278,0.34722
0.50166,0.49834
0.46766,0.53234
0.61345,0.38655
0.86995,0.13005
0.80387,0.19613
0.70814,0.29186
0.7079,0.2921
0.69406,0.30594
0.87588,0.12412
0.68309,0.31691
0.80843,0.19157
0.61189,0.38811
0.89311,0.10689
0.85426,0.14574
0.76466,0.23534
0.90616,0.093839
0.86647,0.13353
0.80051,0.19949
0.87496,0.12504
0.56663,0.43337
0.85296,0.14704
0.66563,0.33437
0.85242,0.14758
0.89339,0.10661
0.86455,0.13545
0.81198,0.18802
0.75671,0.24329
0.84893,0.15107
0.84492,0.15508
0.82407,0.17593
0.68216,0.31784
0.7446,0.2554
0.78004,0.21996
0.80312,0.19688
0.81769,0.18231
0.96635,0.033651
0.53905,0.46095
0.87499,0.12501
0.69632,0.30368
0.75578,0.24422
0.72699,0.27301
0.82049,0.17951
0.79898,0.20102
0.54909,0.45091
0.88361,0.11639
0.64152,0.35848
0.82462,0.17538
0.63667,0.36333
0.79571,0.20429
0.74687,0.25313
0.84355,0.15645
0.80365,0.19635
0.66807,0.33193
0.62332,0.37668
0.85049,0.14951
0.79149,0.20851
0.63717,0.36283
0.84715,0.15285
0.89235,0.10765
0.67606,0.32394
0.77938,0.22062
0.78466,0.21534
0.85454,0.14546
0.73292,0.26708
0.80109,0.19891
0.58933,0.41067
0.74442,0.25558
0.82403,0.17597
0.66866,0.33134
0.87307,0.12693
0.70427,0.29573
0.78631,0.21369
0.8686,0.1314
0.44476,0.55524
0.86911,0.13089
0.80392,0.19608
0.89333,0.10667
0.91185,0.08815
0.74339,0.25661
0.88346,0.11654
0.85466,0.14534
0.77074,0.22926
0.77026,0.22974
0.89309,0.10691
0.8933,0.1067
0.5547,0.4453
0.60939,0.39061
0.37009,0.62991
0.88913,0.11087
0.71653,0.28347
0.72663,0.27337
0.73301,0.26699
0.72222,0.27778
0.9269,0.073099
0.94551,0.054494
0.7933,0.2067
0.81015,0.18985
0.71262,0.28738
0.85266,0.14734
0.82628,0.17372
0.51279,0.48721
0.71154,0.28846
0.62904,0.37096
0.74961,0.25039
0.82672,0.17328
0.85077,0.14923
0.90068,0.09932
0.89562,0.10438
0.80051,0.19949
0.73665,0.26335
0.84401,0.15599
0.63046,0.36954
0.66965,0.33035
0.82731,0.17269
0.90053,0.099467
0.84669,0.15331
0.88674,0.11326
0.91745,0.082553
0.8369,0.1631
0.8652,0.1348
0.78691,0.21309
0.87743,0.12257
0.73776,0.26224
0.73422,0.26578
0.8235,0.1765
0.90639,0.093612
0.75121,0.24879
0.39675,0.60325
0.75424,0.24576
0.84857,0.15143
0.8593,0.1407
0.88094,0.11906
0.80132,0.19868
0.79642,0.20358
0.74215,0.25785
0.57427,0.42573
0.89973,0.10027
0.80964,0.19036
0.48768,0.51232
0.69892,0.30108
0.90597,0.09403
0.83756,0.16244
0.91623,0.083768
0.48489,0.51511
0.8465,0.1535
0.87257,0.12743
0.93401,0.065988
0.83192,0.16808
0.82117,0.17883
0.82838,0.17162
0.81918,0.18082
0.79705,0.20295
0.69548,0.30452
0.65489,0.34511
0.93435,0.065649
0.69369,0.30631
0.72068,0.27932
0.88114,0.11886
0.80404,0.19596
0.92884,0.071159
0.93492,0.065078
0.81109,0.18891
0.67946,0.32054
0.87286,0.12714
0.8607,0.1393
0.74556,0.25444
0.89986,0.10014
0.66747,0.33253
0.69335,0.30665
0.75461,0.24539
0.73602,0.26398
0.82108,0.17892
0.63066,0.36934
0.82648,0.17352
0.82738,0.17262
0.93621,0.063792
0.8882,0.1118
0.48233,0.51767
0.78337,0.21663
0.90623,0.093773
0.76835,0.23165
0.87363,0.12637
0.78861,0.21139
0.83893,0.16107
0.73742,0.26258
0.7901,0.2099
0.83366,0.16634
0.8558,0.1442
0.78891,0.21109
0.78495,0.21505
0.71044,0.28956
0.85876,0.14124
0.82596,0.17404
0.65715,0.34285
0.80411,0.19589
0.73307,0.26693
0.80151,0.19849
0.61615,0.38385
0.90634,0.093662
0.63267,0.36733
0.91642,0.083584
0.91961,0.080395
0.92977,0.070233
0.74109,0.25891
0.76766,0.23234
0.83558,0.16442
0.87525,0.12475
0.7703,0.2297
0.94027,0.059733
0.69906,0.30094
0.85628,0.14372
0.62997,0.37003
0.73004,0.26996
0.81577,0.18423
0.63293,0.36707
0.98652,0.013477
0.73062,0.26938
0.89258,0.10742
0.7526,0.2474
0.92954,0.070457
0.72886,0.27114
0.57507,0.42493
0.8359,0.1641
0.82145,0.17855
0.85207,0.14793
0.82047,0.17953
0.83264,0.16736
0.82638,0.17362
0.68776,0.31224
0.81247,0.18753
