18.413,326,13.737,294,-16.499,310,6.6391,290,14.473,282,9.3127,302,-10.609,338,6.2362,306
5.735,450,13.575,286,12.033,290,6.201,282,5.0072,442,6.335,422,2.4898,258,7.1138,494
-24.18,262,11.607,394,25.858,402,1.9049,282,2.05,286,3.3776,386,6.3771,486,-16.72,382
54.636,454,0.8848,302,11.015,326,5.9217,266,18.729,374,4.6384,442,4.2111,270,5.7519,270
36.471,450,-1.2165,386,-3.8306,290,3.1754,446,9.9303,306,-2.2005,462,-1.81,426,0.0129,458
55.837,462,-3.5184,482,20.128,378,13.088,278,20.388,490,6.8764,470,11.679,486,20.265,466
5.9991,282,17.477,422,16.744,478,6.7134,454,5.5958,466,8.9418,362,13.955,358,14.146,454
4.9856,310,4.3817,306,28.947,462,5.6871,446,5.1155,442,8.545,258,17.273,294,8.5276,358
3.4871,274,6.3541,430,20.039,370,5.2974,262,9.5092,426,13.321,266,12.979,262,-0.8006,350
-6.4521,298,12.627,282,14.543,282,6.141,278,4.5157,382,11.693,298,0.2717,270,15.72,390
21.122,286,10.028,486,11.218,466,12.178,282,5.1396,414,17.447,438,2.1024,274,0.599,306
11.711,450,6.0941,466,5.6977,326,-1.283,446,11.583,322,0.4511,494,13.313,446,11.231,430
36.804,486,15.915,278,22.311,306,15.768,258,9.5873,442,9.1624,430,7.9022,270,4.9112,430
22.046,422,12.138,410,26.063,482,8.346,430,5.5788,454,12.956,358,-1.3457,354,3.9433,262
8.7874,450,9.7988,450,-12.791,258,0.6632,450,2.5261,490,17.498,490,8.088,434,19.42,286
28.612,370,19.827,362,10.503,334,5.7204,378,14.458,282,21.18,386,6.2281,302,-0.0875,314
13.271,282,23.775,414,18.976,494,24.313,370,29.161,366,16.692,466,15.73,366,14.985,374
19.864,274,-4.471,358,23.651,446,7.2076,278,23.315,442,5.6372,294,8.1685,278,9.2921,410
17.591,330,10.158,298,-0.5173,322,-1.9846,282,-2.6744,274,4.9303,374,9.4112,446,12.61,270
6.6192,370,7.462,374,10.019,290,-1.6598,282,19.601,406,12.133,410,10.231,294,3.9106,494
9.0938,290,16.848,270,-2.6914,278,15.515,282,-0.987,326,16.635,474,12.426,474,8.4375,318
2.3313,434,13.882,278,30.912,290,13.577,258,7.5844,338,0.7194,262,10.348,270,6.7013,270
-16.039,466,10.321,270,17.753,438,0.8479,442,1.076,330,-4.1698,430,11.224,350,8.0448,438
17.852,406,11.965,302,25.59,398,3.9533,298,7.1767,366,6.8448,282,13.063,362,13.886,466
14.529,362,4.9492,462,17.248,274,3.5411,354,3.232,386,15.486,434,12.622,394,9.2274,318
2.9026,326,6.7439,346,24.395,346,8.8377,262,15.001,390,23.158,394,10.961,258,9.4883,302
19.535,302,13.845,438,6.4899,322,7.6198,278,3.2688,470,6.4122,262,1.7396,282,32.479,478
26.045,298,2.6068,290,10.005,302,10.487,494,19.58,438,-4.5881,442,4.904,330,20.019,330
3.831,258,-6.2503,478,17.075,454,3.9211,350,-8.1039,406,-4.0516,430,2.3938,350,1.7615,418
4.8167,386,3.8149,382,20.29,306,7.0128,286,25.96,490,7.0654,314,16.127,342,18.653,366
15.519,354,-2.5388,446,23.569,326,-2.7483,278,13.001,394,7.8441,462,6.5525,414,5.2208,406
15.051,318,25.743,310,10.057,314,4.473,310,19.773,434,19.459,454,7.5129,450,17.45,454
12.456,378,9.0418,274,5.3101,386,11.9,282,-3.0023,302,6.2157,262,8.4395,278,3.5717,262
22.878,278,3.936,418,27.325,302,7.5331,426,7.3687,450,4.2447,454,15.977,450,12.628,446
9.9693,278,9.8708,494,12.029,330,3.8823,278,7.2588,414,5.4919,426,9.8312,402,9.5265,426
10.154,474,7.3724,434,27.33,438,7.67,338,6.8012,470,4.9819,458,6.1734,450,9.0713,334
4.4761,286,10.608,426,12.59,386,7.4202,406,-17.224,462,12.646,298,13.088,298,12.417,298
20.643,462,12.868,290,15.857,290,14.789,294,10.169,490,11.794,294,15.523,418,10.722,310
-5.8498,262,-3.759,278,7.4402,446,3.9134,286,1.6262,282,2.4729,318,15.179,338,-0.44,310
25.931,382,12.053,382,11.325,474,12.642,286,13.101,402,7.8098,286,6.784,302,16.688,310
3.0366,378,8.6054,294,4.8697,326,13.831,310,6.6831,422,4.6215,314,13.941,342,12.879,350
16.14,470,10.319,270,15.434,270,3.8537,294,-8.2725,442,3.6681,450,13.53,318,11.817,438
0.3434,298,0.0588,262,23.324,262,4.4834,454,-5.4804,458,19.137,466,22.587,474,20.126,478
6.2821,286,12.344,282,2.1846,286,7.4593,294,21.984,302,13.254,298,32.278,298,23.259,306
-10.122,406,12.47,414,17.86,306,4.9627,322,-6.7049,418,6.748,358,1.3177,354,6.2413,482
38.677,306,18.007,294,17.618,270,15.016,278,20.287,334,16.702,262,6.0767,338,13.22,454
13.44,282,-8.4891,274,19.597,270,15.857,258,2.2,310,4.9285,310,21.984,338,3.5047,338
9.3369,294,4.4093,494,10.394,398,9.1877,286,-3.7033,278,11.994,286,11.979,410,-1.6323,310
-9.3713,258,1.3773,402,25.894,378,1.6536,274,-3.9158,410,10.537,310,2.8338,262,14.428,286
29.315,438,17.555,438,33.029,394,0.1681,318,7.9732,302,14.97,274,5.2643,302,17.594,298
8.3616,306,25.454,306,33.637,294,-8.3029,270,7.7833,350,5.5564,466,16.074,370,14.109,262
-7.3565,494,9.9716,266,11.028,442,10.704,258,-6.2033,262,11.263,270,9.7674,470,3.5709,282
31.096,458,14.784,382,16.9,278,-0.3279,270,9.6347,278,19.251,294,-0.9639,286,7.6123,294
14.263,314,15.242,478,3.4524,266,10.456,478,23.912,426,15.431,434,3.3539,462,10.993,338
0.832,382,20.688,398,9.6381,302,7.5077,382,-6.7786,302,4.4784,366,23.581,366,10.29,366
5.7897,318,8.9063,318,23.946,426,12.669,430,1.1449,494,16.728,438,12.076,442,23.081,446
12.201,290,16.483,286,19.116,290,7.6908,290,16.37,422,12.864,322,-4.5801,318,15.162,330
13.744,374,17.142,290,21.917,466,11.453,382,-0.3219,490,11.598,478,7.9742,482,14.469,306
-25.137,278,5.5507,298,20.198,470,4.0383,274,29.862,422,-0.0848,462,1.3116,374,10.973,470
19.087,398,14.121,350,6.0474,354,7.0421,286,25.214,386,19.285,286,12.383,310,4.1478,386
0.7181,278,0.6337,274,10.906,486,10.055,274,-7.1544,270,5.1365,270,14.955,274,-2.3477,274
6.5985,490,12.841,370,21.446,438,-1.9334,314,-0.3105,494,2.1506,310,-9.2063,326,5.0868,310
-13.114,362,8.4886,394,16.018,358,3.9066,346,-3.1673,342,3.131,374,0.1583,258,2.5361,426
17.546,266,-14.099,434,23.571,430,0.5438,286,-4.4461,306,2.0099,390,2.3702,338,-3.8321,318
16.678,458,11.677,470,28.201,370,3.1499,466,5.2974,482,7.8926,494,11.699,410,3.0656,330
-0.7942,462,-1.7607,270,32.704,362,7.0181,490,6.9676,326,9.1107,474,3.5135,350,5.3681,318
3.6706,298,-10.064,338,5.8702,350,1.7471,294,2.0565,266,6.0175,374,-7.4399,374,3.2821,266
7.2019,294,24.732,494,31.261,370,14.805,490,8.5426,306,14.555,390,11.824,390,6.1563,398
-12.516,322,19.261,370,26.124,326,7.5707,326,3.6205,330,13.65,330,23.831,466,7.3062,338
10.473,482,12.866,410,8.8103,302,19.836,422,7.2804,446,24.918,434,16.961,346,18.199,270
15.262,418,3.4944,438,1.0169,322,8.1861,318,12.895,382,-12.708,290,-4.6554,366,-0.0233,406
29.182,282,8.328,282,13.403,482,13.758,322,20.69,418,2.4773,330,4.6764,322,8.6896,422
2.7456,462,0.314,270,44.737,470,4.1762,274,-11.317,374,5.9409,474,9.0053,374,23.43,374
1.0956,382,-3.041,262,-10.815,270,7.5033,274,9.5281,310,11.381,302,19.634,302,19.158,414
-0.3827,290,9.5012,346,41.282,390,13.431,326,19.548,478,8.585,494,17.83,262,7.1609,298
-3.4608,266,13.862,266,14.345,262,3.5975,262,39.965,422,3.8999,414,3.4088,294,10.671,402
14.099,438,14.902,330,1.3519,290,9.7972,346,6.3159,266,23.319,366,5.8687,386,10.674,382
16.111,346,14.492,346,11.144,442,14.433,346,14.29,490,8.1631,318,3.6333,334,5.2139,398
-10.16,362,7.3632,286,4.2724,294,8.036,418,-3.1576,394,-4.7699,414,14.924,458,2.4667,346
6.8554,482,7.5007,366,20.655,434,3.2604,450,-1.9534,410,0.0172,394,-5.9346,486,-2.4754,302
9.2573,278,3.9234,478,18.688,314,0.6535,490,8.4159,270,8.4255,458,2.2464,374,14.731,466
7.6392,406,14.452,366,8.023,406,-2.3097,306,6.9572,414,8.7244,310,-1.4069,302,2.4247,426
16.204,490,19.934,434,-11.467,474,9.105,406,16.093,402,15.221,394,14.527,402,5.8255,402
1.3067,274,7.916,270,-1.7093,282,6.3508,486,8.3921,306,-3.4063,398,1.4484,302,11.608,306
11.552,446,11.358,302,38.563,350,5.9331,258,10.92,442,0.6192,298,5.6041,302,-0.8129,290
10.262,486,4.9172,474,17.818,414,2.5192,470,12.284,470,11.023,450,3.8289,318,6.4578,422
7.8849,310,1.4009,314,2.1505,450,6.1412,342,6.5706,338,16.724,350,9.0774,350,12.403,350
2.5983,426,8.5604,282,8.6194,450,2.7622,278,4.1143,346,-2.1096,278,9.6248,402,0.1785,274
-4.8402,306,25.252,270,0.6426,342,14.322,314,20.386,290,18.606,298,21.328,306,16.574,302
16.198,290,8.9712,278,17.842,306,10.747,278,4.1202,338,11.241,390,12.488,266,8.7237,338
9.8531,322,5.8927,258,-27.942,466,-1.7981,454,10.44,270,8.0552,418,-5.0685,274,-0.529,374
5.5224,346,3.4085,478,4.2214,446,1.6271,258,12.369,474,7.874,458,4.6811,474,14.931,490
-14.291,422,22.628,262,26.428,346,11.878,302,0.7205,306,7.6331,262,13.589,306,0.2239,270
55.325,458,-0.0599,266,21.084,418,6.452,478,19.828,286,7.4775,454,2.3504,482,0.5071,450
49.337,406,8.7407,406,6.0898,354,5.4404,278,21.614,290,2.5447,258,-0.1845,422,2.8257,318
29.426,478,24.245,470,19.341,482,12.195,482,21.263,266,9.4061,286,12.272,450,16.507,486
11.528,310,16.311,466,-1.5688,470,5.3161,302,-1.4471,290,6.3735,470,16.893,466,12.046,486
9.7211,274,9.2476,270,27.315,358,9.7185,342,9.6742,330,11.948,282,21.884,294,13.353,286
-5.7216,486,-3.9533,490,17.883,470,2.866,474,12.225,370,12.641,478,10.244,474,3.3613,466
4.1453,390,7.0303,330,17.249,286,8.0893,302,18.597,298,16.939,474,6.2441,282,15.405,274
4.4287,346,13.23,366,14.877,282,5.3473,282,7.4526,330,23.443,322,4.5169,282,4.9552,314
-0.4217,450,-3.8549,270,0.394,430,-1.8478,386,12.55,426,-6.6829,426,7.4497,486,5.972,326
2.1319,346,-1.2119,266,9.6364,282,2.9174,266,-1.6005,318,0.396,326,5.9956,266,-3.934,278
21.957,318,9.0136,486,27.131,290,3.3238,274,4.447,274,8.9207,466,1.2795,278,0.0146,270
10.65,474,5.0487,362,18.124,494,-2.4969,318,13.305,402,13.819,426,0.0173,322,15.11,326
30.535,394,9.4898,398,-0.0735,398,-1.2736,402,0.9781,458,14.675,458,7.8602,414,-0.4894,290
-3.9358,406,5.5063,494,-3.3822,430,10.158,330,12.313,298,18.923,410,11.512,458,11.268,426
13.482,318,-6.7835,358,31.53,326,6.3638,306,24.978,466,4.3332,470,3.2085,286,10.759,290
9.156,302,5.548,402,-3.2674,474,-4.6936,330,6.3398,438,8.0558,438,14.34,438,19.217,442
4.4638,298,13.992,338,6.3482,274,11.099,334,0.464,326,20.61,338,9.8358,346,3.2351,418
0.4963,394,20.681,402,18.483,410,12.769,430,10.969,346,25.788,450,15.252,434,13.074,442
1.058,330,3.8264,426,23.815,358,11.748,394,9.1308,334,1.5899,334,19.278,466,10.445,454
3.0206,374,-0.8349,362,12.197,354,-2.8551,362,-5.8421,278,-0.9294,278,2.6165,470,10.974,470
5.6119,430,7.6692,426,10.871,494,-4.5499,330,9.1899,398,6.5518,422,6.7643,386,9.7649,378
12.2,258,7.9604,494,3.205,466,7.1732,466,6.7196,282,25.615,454,15.47,290,11.062,294
26.248,490,11.425,270,-0.2104,326,4.8696,258,24.805,450,11.397,470,2.381,334,10.33,442
6.8819,458,0.4183,478,-11.693,314,4.1146,262,-4.7537,322,14.42,258,-10.468,446,10.809,434
1.2439,402,13.821,394,16.226,374,6.1066,414,-4.5913,330,2.3704,326,10.765,422,3.8484,338
-0.6222,274,5.8113,282,11.955,482,8.2287,334,5.7324,306,2.6221,410,8.6156,446,16.051,334
11.318,422,7.3655,438,18.494,438,6.023,294,15.678,418,10.341,434,13.667,446,10.428,402
8.2002,390,-0.4377,374,2.1732,258,-1.6877,262,9.2689,306,10.852,494,9.3149,414,11.242,458
25.235,270,11.459,338,5.6359,434,1.5438,398,13.106,322,8.169,350,-0.3702,310,-0.1004,314
11.773,274,4.3495,454,17.926,398,9.6017,322,-2.6533,342,4.6995,330,-1.1337,378,-3.058,394
16.511,370,6.6498,262,7.4325,358,14.424,462,4.1467,334,7.1292,338,14.352,466,9.2095,410
12.728,394,5.5028,410,-5.2212,354,4.8475,418,16.242,330,-0.3121,406,7.3722,430,3.4205,410
6.8243,306,2.1839,438,16.207,486,6.6569,446,-0.0053,490,6.9122,330,6.5392,446,10.235,442
-12.274,458,6.11,270,7.5253,438,-2.0866,310,36.959,466,20.792,478,-3.4412,266,5.3037,270
15.282,358,13.067,318,29.306,334,14.275,318,40.097,486,10.538,478,14.498,418,9.956,342
14.007,434,4.3982,286,10.052,442,14.45,270,-0.9114,270,9.2217,346,20.445,354,10.761,358
21.134,338,6.6861,354,18.941,286,13.132,358,16.737,358,6.6899,354,6.2381,362,14.371,442
18.682,294,12.349,298,6.7439,262,16.546,270,-1.638,314,2.6715,274,2.8823,446,12.822,346
22.402,302,14.501,362,14.702,290,1.7871,366,42.355,490,5.5201,494,7.187,406,8.2643,402
28.928,278,16.277,266,10.973,366,4.2438,298,14.085,374,6.3165,382,18.808,410,-1.2967,422
2.9347,302,9.9799,446,4.932,378,4.0869,278,14.714,354,18.288,278,19.148,382,16.202,282
-0.4808,258,11.724,282,2.4585,394,1.7079,486,26.896,474,15.029,478,0.6567,478,20.455,478
40.259,418,13.544,414,14.291,434,15.167,438,10.378,358,8.5776,342,-6.1859,338,10.804,458
-0.6994,406,-2.8298,466,12.041,482,13.068,366,13.264,278,3.7707,374,19.605,482,2.7485,274
22.231,274,7.5019,278,25.153,378,12.264,350,13.321,362,17.072,342,17.184,478,15.168,426
23.467,346,4.5828,314,17.444,390,22.045,418,21.106,290,18.419,306,-2.5748,410,17.815,382
30.994,422,14.414,462,24.889,446,-1.3621,422,13.972,290,20.759,334,9.42,334,18.092,402
10.549,406,8.3042,378,7.3658,258,10.041,382,11.545,298,18.168,386,20.198,266,16.139,390
13.91,478,4.7326,486,6.6563,454,20.818,486,5.5234,442,1.7042,458,11.935,446,7.5432,454
30.598,450,7.1124,382,19.532,386,6.3736,386,4.8406,282,13.499,494,-5.2793,298,8.3417,298
15.769,354,0.3316,370,12.484,394,4.0801,386,9.1046,334,-0.5904,318,11.068,302,11.714,418
19.331,378,8.8041,274,15.623,278,4.0884,286,18.77,434,4.9785,430,25.879,470,2.0146,434
1.5562,330,9.3408,346,4.2177,442,3.0486,342,13.622,290,5.4681,286,12.719,274,6.5511,478
7.2696,482,10.337,418,-2.1932,470,7.7206,286,5.046,286,5.0043,290,-0.9836,294,7.3752,290
2.003,334,18.17,314,21.392,330,-2.4671,270,3.011,354,-6.4204,446,-4.3151,322,5.8953,362
-19.237,282,9.2079,278,24.659,334,6.3255,270,29.732,398,0.286,382,1.6151,262,7.8052,262
7.6387,290,3.8544,370,-7.9794,334,4.469,286,17.731,410,17.201,322,20.256,362,13.061,326
4.4079,354,-0.4312,366,10.593,294,-2.7461,318,3.6051,318,9.1123,438,2.7631,406,10.845,334
13.438,302,9.7141,274,26.895,262,-0.467,270,7.0793,326,4.3335,434,-0.3668,426,8.4057,450
7.6239,306,12.259,286,-8.0909,386,7.0033,286,15.58,450,12.745,302,7.618,258,13.404,262
10.153,438,14.087,462,22.143,446,0.7144,294,2.0383,298,13.758,314,9.7363,302,8.678,310
17.757,358,18.201,470,24.916,398,12.531,322,20.262,322,14.472,322,13.238,414,0.1782,278
11.487,426,1.9922,398,30.87,450,13.384,486,13.333,354,13.246,478,3.7588,482,8.3696,490
3.6047,330,6.4278,266,13.987,358,2.2474,314,11.31,322,3.3962,426,-8.6368,322,7.3773,426
31.414,294,13.967,266,25.604,290,12.476,270,10.104,482,10.524,274,4.0464,298,9.3305,294
0.8173,318,7.5852,486,27.236,306,-1.9509,302,0.0892,318,10.355,322,15.439,398,11.107,310
7.7279,462,2.8183,490,2.5839,258,5.8107,482,13.843,266,27.053,482,14.962,478,9.752,406
9.4738,458,6.946,282,5.2667,434,14.593,282,25.601,310,9.269,274,1.233,274,-2.6031,394
15.036,482,14.287,270,26.738,278,13.02,278,13.563,286,7.5025,298,10.308,294,8.1443,298
10.353,314,8.6642,338,58.768,298,15.728,322,9.9429,334,18.2,334,11.875,330,24.474,434
15.472,370,21.282,342,18.546,486,8.6799,350,29.587,366,7.5077,354,16.417,362,12.62,374
7.0462,406,0.063,282,6.3848,310,1.1308,326,-21.689,346,11.701,322,12.774,330,13.133,478
0.6471,470,6.1878,470,-11.821,330,-2.0116,470,39.246,482,5.5842,310,-5.1685,294,8.2392,298
12.231,322,17.485,446,5.8948,406,9.5669,462,12.868,294,24.784,482,1.381,270,12.215,290
7.1481,302,5.9713,266,9.216,390,-2.5252,262,5.8647,374,-7.6995,394,0.9764,322,-0.9462,334
-3.8055,482,3.8324,258,8.7997,286,5.159,346,9.4724,274,-5.6669,366,9.53,306,1.6908,386
1.4204,454,2.2641,342,30.948,270,-0.7163,266,2.1816,394,-2.5515,410,2.7805,350,-2.3605,426
20.381,462,14.823,270,-6.7527,358,8.0816,362,10.086,374,12.093,462,-0.529,470,5.2149,470
-9.7871,454,1.5779,286,6.5677,302,5.571,286,10.701,282,19.824,486,8.783,278,16.348,298
11.336,474,19.673,322,31.5,326,12.736,334,10.947,430,13.795,258,23.932,358,4.109,362
6.5052,286,7.8039,290,-14.07,354,8.3724,258,9.0828,358,-4.6115,286,6.8656,430,13.243,430
9.5234,258,-3.3047,290,12.938,466,10.03,330,9.2457,270,14.218,330,0.9818,438,13.109,338
17.774,262,7.9678,362,7.489,346,6.4735,358,8.099,390,14.464,306,8.9173,406,12.295,402
13.371,466,4.2136,414,9.7162,446,0.2361,322,9.3275,374,12.1,478,0.636,486,0.0196,414
23.966,326,14.833,430,39.028,302,10.252,310,4.6117,378,7.9092,378,11.781,382,10.144,378
20.561,258,-1.856,414,11.241,266,7.8027,430,11.872,362,9.0086,446,15.14,442,12.281,262
7.2563,302,7.3044,346,3.9262,326,2.75,450,-5.2339,434,9.1664,286,-0.7786,286,2.0095,282
