0.71516,0.28484
0.18097,0.81903
0.6824,0.3176
0.47268,0.52732
0.78043,0.21957
0.55264,0.44736
0.24834,0.75166
0.30716,0.69284
0.27782,0.72218
0.27573,0.72427
0.21816,0.78184
0.72734,0.27266
0.15225,0.84775
0.3194,0.6806
0.2641,0.7359
0.65171,0.34829
0.50141,0.49859
0.53549,0.46451
0.61163,0.38837
0.55733,0.44267
0.35605,0.64395
0.227,0.773
0.49919,0.50081
0.54566,0.45434
0.38464,0.61536
0.38165,0.61835
0.14422,0.85578
0.30676,0.69324
0.24668,0.75332
0.39073,0.60927
0.6488,0.3512
0.53488,0.46512
0.31599,0.68401
0.3129,0.6871
0.32777,0.67223
0.33725,0.66275
0.060314,0.93969
0.22501,0.77499
0.61446,0.38554
0.36722,0.63278
0.22827,0.77173
0.10829,0.89171
0.32268,0.67732
0.56808,0.43192
0.20874,0.79126
0.59926,0.40074
0.3826,0.6174
0.56908,0.43092
0.19549,0.80451
0.60077,0.39923
0.31683,0.68317
0.69828,0.30172
0.67448,0.32552
0.5705,0.4295
0.23401,0.76599
0.25589,0.74411
0.34696,0.65304
0.20428,0.79572
0.69169,0.30831
0.65972,0.34028
0.39317,0.60683
0.2144,0.7856
0.28132,0.71868
0.56685,0.43315
0.23634,0.76366
0.62394,0.37606
0.75676,0.24324
0.45054,0.54946
0.47027,0.52973
0.18491,0.81509
0.46942,0.53058
0.47978,0.52022
0.30979,0.69021
0.61979,0.38021
0.12947,0.87053
0.5678,0.4322
0.72586,0.27414
0.25195,0.74805
0.25477,0.74523
0.50171,0.49829
0.75078,0.24922
0.44784,0.55216
0.60872,0.39128
0.41354,0.58646
0.22974,0.77026
0.41977,0.58023
0.66383,0.33617
0.55228,0.44772
0.53523,0.46477
0.2557,0.7443
0.8089,0.1911
0.57396,0.42604
0.26942,0.73058
0.9371,0.062895
0.84951,0.15049
0.88472,0.11528
0.59525,0.40475
0.39835,0.60165
0.8525,0.1475
0.58732,0.41268
0.46535,0.53465
0.69815,0.30185
0.32431,0.67569
0.38375,0.61625
0.65595,0.34405
0.35578,0.64422
0.83742,0.16258
0.36139,0.63861
0.56023,0.43977
0.40773,0.59227
0.63664,0.36336
0.62346,0.37654
0.79165,0.20835
0.62977,0.37023
0.60612,0.39388
0.54431,0.45569
0.74815,0.25185
0.40605,0.59395
0.65744,0.34256
0.60975,0.39025
0.75703,0.24297
0.64745,0.35255
0.41436,0.58564
0.61862,0.38138
0.7484,0.2516
0.36829,0.63171
0.73588,0.26412
0.51685,0.48315
0.54568,0.45432
0.54151,0.45849
0.36825,0.63175
0.61777,0.38223
0.52805,0.47195
0.62595,0.37405
0.75867,0.24133
0.54808,0.45192
0.81817,0.18183
0.7074,0.2926
0.85023,0.14977
0.82895,0.17105
0.50213,0.49787
0.32877,0.67123
0.5859,0.4141
0.56405,0.43595
0.52249,0.47751
0.71151,0.28849
0.58979,0.41021
0.26841,0.73159
0.41312,0.58688
0.5548,0.4452
0.66614,0.33386
0.6153,0.3847
0.26758,0.73242
0.54601,0.45399
0.66101,0.33899
0.8093,0.1907
0.63952,0.36048
0.13278,0.86722
0.50191,0.49809
0.89977,0.10023
0.78462,0.21538
0.49032,0.50968
0.44002,0.55998
0.68676,0.31324
0.28804,0.71196
0.71169,0.28831
0.55766,0.44234
0.37432,0.62568
0.59187,0.40813
0.34749,0.65251
0.69258,0.30742
0.63519,0.36481
0.27726,0.72274
0.54486,0.45514
0.86654,0.13346
0.53994,0.46006
0.79955,0.20045
0.26121,0.73879
0.53004,0.46996
0.18134,0.81866
