9.2448,350,5.598,338,0.2829,438,2.5608,290,9.3438,454,1.8708,290,5.7272,406,9.4552,458
9.2352,434,5.3849,290,4.3648,286,3.4938,294,10.484,266,17.113,302,14.969,310,30.575,310
3.5252,434,7.2473,326,10.327,410,14.911,326,11.974,426,21.878,322,21.477,322,13.715,322
6.9122,454,15.564,462,5.0079,366,10.968,462,14.145,470,11.431,470,9.6515,398,18.647,466
3.5996,358,12.92,438,3.6929,438,3.2693,438,4.8112,490,0.4085,486,2.0727,318,-0.9703,390
8.6803,350,12.962,354,9.0662,362,11.708,350,23.808,262,6.3155,262,4.0996,350,9.9427,262
14.06,318,11.369,386,2.0726,382,0.4221,378,-1.2819,270,6.7301,270,2.0969,278,12.646,270
4.8539,358,1.3938,354,1.8331,382,1.2027,346,-5.6917,410,-7.2942,402,-1.4648,394,2.3561,398
7.9218,366,0.9249,454,0.5016,454,5.6726,454,7.4841,326,9.0835,314,7.9415,310,14.493,310
24.221,422,15.316,426,5.8621,430,4.4547,426,11.652,494,8.7809,294,6.1123,386,27.377,390
3.9485,274,5.1111,278,3.1825,262,2.9507,270,21.467,486,14.808,486,11.363,366,31.404,326
18.314,302,7.2622,286,9.577,278,8.7646,426,16.004,330,28.024,426,21.233,426,30.872,426
2.8382,262,5.6063,446,7.2694,266,13.59,258,11.182,334,20.36,446,23.145,454,16.925,454
-7.0659,474,-4.6239,438,0.4862,386,3.9908,322,6.1839,322,11.494,322,12.745,298,20.686,298
-3.059,298,-0.7206,298,-6.0931,298,0.8556,438,3.4378,430,1.3552,430,7.6023,446,5.9545,430
10.908,294,14.451,418,7.8552,422,10.645,406,11.842,458,6.3791,458,14.05,462,15.467,458
18.904,482,22.997,482,11.877,478,14.608,478,-7.461,438,-0.1432,478,-4.1533,478,-3.0665,306
7.0587,278,12.027,270,6.002,282,8.1101,270,7.6744,270,3.5744,270,2.5356,262,16.011,458
26.104,462,2.944,314,-10.274,258,14.665,302,35.299,302,28.094,302,22.313,358,38.428,302
5.7238,262,12.087,298,18.329,418,15.273,394,5.9851,286,13.111,486,13.026,402,28.062,486
15.392,370,9.3349,322,15.392,318,15.123,318,15.357,290,14.815,482,7.4623,406,26.984,486
1.151,258,4.5641,398,9.5389,458,8.8244,282,13.075,290,17.604,282,20.122,426,14.076,290
21.335,370,20.333,370,8.9157,362,14.562,370,6.1423,402,8.2965,410,26,418,14.84,410
-2.451,334,11.42,338,3.8094,454,7.5603,426,2.8457,402,3.0206,486,11.931,402,15.51,402
-1.0624,290,7.6342,438,4.7436,474,11.906,274,10.145,274,9.6048,274,12.668,274,8.204,266
3.8386,306,-3.6147,298,1.289,366,-13.942,482,4.8918,486,3.4685,486,3.7474,486,19.712,494
10.998,302,6.7602,306,10.552,394,11.987,314,21.563,434,28.155,434,15.199,330,39.901,330
20.732,494,9.8103,486,9.5754,438,18.074,470,8.2526,430,18.048,350,7.1173,430,19.468,430
9.699,314,20.387,266,9.4461,490,16.421,402,17.937,402,22.618,402,30.27,402,27.425,402
8.4469,470,16.407,314,6.5796,298,12.006,318,6.4451,262,1.3268,314,7.3444,314,-8.5985,262
4.3504,278,16.085,430,11.497,302,18.954,290,21.196,466,20.215,466,22.966,358,29.455,466
4.1668,438,2.8588,434,8.8729,466,5.2203,438,3.3517,434,4.0136,438,3.1702,290,13.599,490
5.0759,434,2.6342,386,3.4037,322,2.1215,278,8.6436,382,3.2152,378,0.9196,486,-1.8435,270
4.8933,418,11.509,426,2.4751,282,2.4668,326,4.3249,306,4.4268,258,9.4876,262,20.208,258
3.6723,370,13.163,378,4.3868,386,13.178,390,20.587,298,16.437,394,8.9619,394,26.684,298
7.9417,414,10.156,282,9.0125,274,11.283,294,13.72,318,16.513,310,15.537,302,26.04,310
11.542,374,9.2853,310,8.8243,310,17.437,446,23.669,450,42.093,450,34.996,446,47.721,450
6.4909,306,13.309,306,9.1272,478,11.789,314,0.0727,322,18.78,378,18.596,494,13.517,386
8.8518,362,13.847,362,11.196,270,7.2033,278,3.5325,302,-1.5546,302,-4.0485,278,-1.2307,310
1.9078,302,4.9902,434,1.8767,434,6.0436,370,8.0456,394,2.2732,262,8.6487,366,15.073,402
1.1336,290,2.7616,294,9.2028,314,21.042,314,21.29,334,15.544,322,29.076,314,26.854,314
0.8747,358,11.367,382,10.834,274,12.112,382,1.4285,338,6.6,350,12.269,426,28.786,426
7.0435,306,11.429,290,7.6541,326,5.8398,342,17.477,366,8.688,354,5.2776,342,17.484,442
14.888,430,18.575,422,11.458,418,18.982,302,18.48,286,20.259,298,14.977,298,24.972,286
11.201,494,9.1869,378,15.374,366,19.511,366,19.159,446,28.148,262,26.384,446,44.428,450
8.6639,314,9.3596,306,8.7167,310,19.067,306,16.927,446,18.252,442,13.825,442,13.938,442
9.4085,366,19.123,366,9.7185,366,24.555,362,8.2404,334,26.437,354,32.765,354,28.698,334
6.3492,394,7.5238,478,5.3401,274,8.2303,470,12.463,470,13.816,314,12.179,314,5.2997,314
2.2887,294,5.8253,262,4.6081,390,13.732,258,3.427,278,8.1959,258,8.1199,374,5.1019,390
6.5102,390,11.475,442,8.2899,438,15.344,346,11.713,410,13.814,350,18.231,342,25.422,418
12.304,410,21.525,402,9.3255,314,11.159,266,11.341,262,9.5501,266,7.8217,334,14.512,338
5.078,362,14.378,258,10.39,462,23.145,398,15.203,426,8.9692,494,16.05,394,21.95,494
12.662,286,9.3004,286,10.767,342,17.124,422,11.482,434,24.802,426,27.401,426,37.39,426
14.153,370,6.5087,362,6.4769,486,13.579,358,37.314,294,36.224,282,30.224,282,45.742,282
6.0977,446,5.5246,306,12.256,434,5.7558,366,2.5989,350,2.3266,366,6.8693,366,12.84,370
8.9401,290,12.811,290,0.8012,314,12.776,442,3.9028,458,6.4513,458,9.2587,458,14.666,462
4.3247,346,12.451,422,13.201,430,7.2018,354,4.767,414,7.3212,414,13.424,482,2.5837,414
7.2289,282,13.694,278,9.3269,330,5.4442,266,6.0985,286,5.4842,466,14.561,258,13.557,466
1.3726,342,8.9396,446,7.9357,326,23.509,314,21.056,306,28.272,314,16.577,430,22.481,270
8.4823,474,16.442,474,8.7597,310,21.295,362,7.0997,362,15.937,362,16.183,366,19.171,366
2.6589,306,1.1384,342,8.8366,326,14.02,342,9.7947,406,9.9218,410,16.125,418,25.401,418
5.9178,490,5.7901,354,13.636,354,15.636,342,7.8747,342,6.6176,342,14.543,342,21.57,294
4.5551,494,7.4034,274,17.276,446,11.429,394,11.986,490,11.518,386,10.742,394,9.2844,386
12.488,374,13.194,362,10.974,294,11.724,494,6.6063,334,10.214,338,9.608,342,19.254,338
8.8315,278,10.842,290,8.0198,310,13.03,286,12.708,274,6.2448,278,5.5892,362,14.611,354
-3.136,334,6.0891,454,14.569,362,10.402,350,6.1238,286,13.737,350,29.165,350,25.817,350
1.6427,350,8.9038,354,12.004,294,2.7556,294,8.4098,426,6.3923,494,-1.3881,294,-0.7502,494
13.761,362,8.8864,354,6.3204,350,18.47,366,18.512,370,19.273,370,22.681,370,20.246,378
14.194,302,7.9275,490,6.3721,410,8.2231,490,6.6417,466,12.169,490,17.04,474,6.3597,474
-0.3343,382,-1.5804,390,-0.7814,438,2.7074,258,5.3768,258,5.291,258,5.747,438,11.581,374
7.6718,318,11.865,314,6.9364,454,9.8956,310,11.012,262,8.9741,262,-0.5367,274,2.5002,266
5.0381,334,9.5033,330,3.0392,342,10.487,330,4.2224,370,2.4329,370,16.795,422,19.501,426
5.7264,326,8.2748,434,5.4991,358,10.598,338,18.589,410,10.956,330,9.6823,258,20.063,330
4.9834,362,9.0137,494,9.8418,386,16.601,494,4.6219,346,8.5141,494,14.635,482,17.346,338
14.81,478,7.4624,478,7.6309,382,8.2444,486,5.3063,462,7.5955,298,9.6988,298,14.499,302
2.0818,390,1.985,390,3.8964,494,8.0664,370,8.9332,350,9.6234,370,-0.7228,370,7.214,310
4.8223,422,5.5225,414,5.2689,330,3.8053,410,16.223,486,14.111,490,7.0347,494,18.606,490
4.2015,314,5.0708,386,5.8852,270,4.0668,366,8.8472,314,6.142,358,11.821,374,3.432,358
10.564,286,11.551,290,5.2365,302,16.122,286,4.3938,410,14.357,410,8.2301,398,12.675,402
6.5894,486,9.9412,342,8.4353,338,4.3572,338,-2.4952,442,3.1175,438,7.5493,330,3.7904,450
-0.1606,274,2.0428,282,4.5103,394,1.808,274,4.099,258,14.014,494,10.124,266,16.538,490
4.7289,266,9.6945,270,7.9514,258,4.2212,418,9.2535,374,13.636,418,14.465,418,17.498,318
7.5031,366,11.311,282,2.9581,326,11.524,294,4.6787,386,9.4503,390,9.8962,306,26.656,394
3.9349,274,8.4269,402,6.7215,266,12.537,374,22.347,442,16.407,442,14.85,302,21.959,310
7.8692,374,4.1169,446,2.8644,442,0.3239,266,8.2979,306,-4.1983,262,1.9239,262,1.8965,262
1.6098,270,4.5208,370,4.8657,370,8.5597,462,4.3998,446,7.9456,458,16.104,470,15.144,374
2.7357,458,11.246,450,0.0278,406,4.6773,410,7.1098,302,13.298,306,20.381,406,17.292,306
9.4262,338,6.4622,322,19.044,290,4.2426,346,10.843,342,7.1653,346,0.4014,294,9.1194,354
13.876,310,10.089,426,11.217,430,5.6461,286,10.712,286,10.612,286,5.1506,274,19.61,274
15.896,438,10.238,434,1.7146,390,5.9396,434,11.327,434,4.8746,326,3.2833,342,13.815,342
-4.5279,298,-0.1132,290,4.2393,314,5.7317,298,-3.3207,338,1.8718,302,6.5487,302,18.811,338
12.861,454,7.5404,282,2.9746,318,5.7279,290,15.897,478,20.624,490,13.397,494,29.531,494
8.3909,346,5.98,338,5.6986,386,5.0832,330,2.4248,370,10.783,406,15.096,282,13.23,282
4.8706,386,16.585,378,9.5313,490,18.943,378,5.4228,442,11.676,358,9.2847,358,16.115,350
3.7331,410,11.112,398,6.6923,462,8.5352,382,32.367,426,3.8517,330,7.6641,458,10.078,278
11.775,410,5.9198,406,-1.2948,346,-4.7429,466,12.07,478,0.6103,478,-2.4111,466,12.541,470
10.618,294,13.449,298,3.6271,378,4.9506,354,-6.7032,270,-1.1119,358,2.2642,358,-0.0641,438
1.6959,282,8.9246,262,7.5454,262,5.9928,258,1.6475,402,5.1353,402,6.6336,306,1.4803,402
6.0748,346,3.4992,494,0.0251,282,8.495,290,5.1244,470,10.647,290,11.637,290,20.705,290
14.397,446,11.353,410,15.603,486,13.773,314,14.296,306,11.837,306,3.0048,294,6.7766,294
14.4,470,8.0041,430,7.0934,430,15.103,430,18.186,474,16.013,430,17.33,426,19.978,310
17.121,434,18.932,438,12.286,434,12.344,430,15.377,390,25.12,482,10.496,430,24.831,482
-2.6722,374,-0.8655,318,5.5695,270,6.3778,474,20.828,370,26.178,370,17.961,474,15.3,366
8.3895,406,10.333,394,7.3642,270,13.896,490,8.3368,318,9.873,490,10.627,374,14.064,314
0.0332,358,-0.0238,434,4.6398,434,10.294,434,8.1474,430,8.9237,430,17.65,434,18.116,434
6.9241,454,17.799,490,11.155,298,22.428,490,25.671,450,25.442,454,21.954,458,27.967,454
5.6877,394,7.7992,290,13.01,482,16.394,482,17.112,398,11.156,482,19.218,482,31.381,314
7.2013,378,8.8293,454,7.7433,494,5.2606,482,8.2533,418,2.8994,482,-0.05,410,7.8852,410
14.342,458,12.046,314,3.461,342,13.273,322,23.268,482,15.966,326,20.004,334,26.587,326
17.986,342,19.416,450,9.3738,366,3.8668,358,13.938,490,12.393,494,0.7553,474,4.1927,494
8.2516,454,11.047,266,6.5953,370,8.1561,270,3.3092,310,11.787,306,5.5915,274,8.3119,302
-2.9706,322,-3.82,358,5.4692,278,0.1233,362,15.361,306,9.1982,298,7.8956,286,4.4869,306
23.271,366,15.329,354,6.5673,490,5.8814,354,1.2473,398,4.1519,422,14.297,490,13.927,314
2.4384,326,7.4733,334,5.2972,266,6.8622,330,2.3961,322,2.4233,322,9.2426,322,5.1036,322
4.6064,434,11.91,310,4.1138,454,19.481,462,14.028,466,20.387,462,26.595,462,35.786,462
11.458,314,15.784,294,11.601,286,20.767,258,21.744,262,25.28,262,29.27,270,33.517,266
16.21,358,9.4109,334,1.33,406,3.6885,330,12.229,362,8.7569,442,2.7705,442,20.044,394
19.021,370,19.773,330,19.355,334,28.301,338,15.128,342,34.909,338,26.945,338,34.043,338
14.932,482,16.8,490,8.8746,258,16.815,258,5.7824,258,17.879,258,17.986,258,13.271,258
10.828,486,12.924,482,9.8565,438,16.201,318,19.191,274,21.91,318,24.604,314,27.031,318
15.556,438,14.201,430,11.062,286,12.306,410,6.0742,474,4.1813,410,3.676,410,5.3806,410
10.929,406,6.9364,378,4.9272,382,11.655,374,13.523,366,10.554,366,8.7668,326,15.549,322
6.4959,378,0.9403,382,-0.7452,262,9.4936,486,5.5094,442,6.3336,442,14.101,482,14.41,434
5.2597,322,7.6338,314,4.0235,310,4.2407,314,8.7904,434,4.1244,434,9.5952,270,9.5242,270
7.6876,262,9.1333,290,10.53,286,3.3521,294,9.5737,450,7.9338,450,11.683,442,24.387,450
8.952,362,-2.6749,278,17.017,270,-9.1679,266,-5.5366,406,-13.699,406,-7.7538,266,-4.2638,398
19.753,462,23.247,454,10.732,314,13.306,450,17.007,422,15.341,422,15.545,402,19.357,402
4.6048,374,6.3053,362,7.4543,450,7.2355,358,2.3447,266,11.74,354,18.043,346,7.7171,354
8.297,478,0.965,346,10.248,262,-1.028,462,-3.7782,262,5.594,258,3.9712,350,3.6069,258
10.263,422,5.3525,486,5.0013,270,-0.2012,270,8.8399,358,2.6259,286,4.8752,286,10.141,286
14.832,358,21.251,354,16.153,362,13.788,462,6.7416,322,4.6894,322,4.1145,446,2.8923,442
15.133,374,23.415,482,20.192,294,3.7727,370,2.3823,326,-0.8951,258,-3.6605,258,5.8738,258
13.132,382,9.7612,310,11.876,446,4.6895,430,21.067,346,16.378,434,22.272,438,36.473,434
20.944,410,22.55,418,16.93,262,11.477,414,12.417,314,7.263,314,7.7251,494,9.1368,486
8.8673,382,19.099,382,13.366,326,30.511,382,16.985,386,32.197,386,21.361,482,33.299,386
11.912,366,13.475,366,4.2508,478,11.076,362,8.7097,450,8.1206,374,-1.8205,474,3.1939,450
11.67,302,16.236,298,14.169,470,11.632,298,11.389,394,24.346,398,13.517,358,11.282,486
14.249,366,21.372,362,6.6089,362,11.208,358,11.872,486,13.447,486,10.832,342,3.4814,338
-2.0636,394,12.65,394,5.1945,394,9.3244,330,1.5614,362,9.1376,362,14.201,486,1.2903,314
5.9631,370,12.882,366,3.7902,494,13.46,338,17.878,378,19.008,474,18.166,338,24.11,434
11.729,318,13.965,294,11.101,282,7.359,290,5.1098,318,0.8177,318,-1.2184,350,3.3175,354
1.962,462,10.432,330,5.2842,326,12.461,342,6.6389,346,9.9816,342,14.435,326,22.284,338
15.924,306,5.4601,310,6.6502,470,3.1492,310,9.6772,274,4.8976,346,-1.8321,418,12.232,382
7.5675,366,9.7284,354,5.9018,378,8.2991,434,2.6413,462,9.6145,462,3.5611,434,16.619,458
10.315,262,15.026,366,1.2867,402,11.314,262,15.111,402,9.5925,402,9.9223,410,10.922,402
12.19,438,8.9958,326,9.6788,470,12.441,334,11.862,430,8.956,430,-3.7199,418,-4.3599,354
3.2164,418,8.9727,422,13.156,270,6.0767,446,22.783,326,20.445,334,25.045,490,27.806,442
9.2461,478,16.773,478,8.8766,354,32.399,478,25.003,478,35.673,486,36.938,478,28.386,486
15.762,330,11.991,330,9.7802,298,12.263,290,21.171,366,21.167,366,16.403,290,16.783,286
4.2822,378,12.847,330,12.982,322,26.044,322,13.044,298,21.348,298,23.552,314,24.797,302
12.953,354,6.6565,346,11.407,474,14.063,346,13.908,346,16.548,322,13.231,314,19.531,314
16.105,366,4.5682,358,4.4267,410,10.025,354,8.553,470,2.9902,350,3.1368,346,2.5445,262
11.616,474,15.516,402,11.508,266,12.909,374,12.848,482,19.371,490,8.9944,270,11.275,490
6.2221,434,17.036,274,5.6004,274,10.551,390,2.4923,390,13.106,390,3.6252,390,1.2766,338
7.1503,290,7.1072,290,11.99,374,10.881,298,12.611,398,10.658,394,17.881,462,44.431,462
9.9001,370,12.31,390,15.649,342,16.007,378,29.274,466,23.533,258,28.684,270,38.566,274
1.7262,322,0.9357,402,9.6025,446,5.351,358,7.5845,490,22.779,478,14.541,358,30.569,478
4.298,454,11.65,494,4.7159,470,15.307,486,20.253,450,24.908,486,25.661,482,24.393,394
13.947,482,5.8554,310,3.9858,390,12.749,318,18.244,334,15.842,334,15.637,338,19.504,338
4.5755,330,3.7383,394,6.5091,318,4.2969,422,0.4875,290,6.6531,406,9.4648,422,2.6956,406
4.7213,386,12.301,386,8.0455,382,7.9039,286,6.9006,278,8.8638,278,-1.4606,458,7.7927,278
5.4558,470,10.062,466,7.1016,278,6.3335,318,9.447,314,10.827,386,20.042,386,16.071,386
13.195,374,2.7162,330,0.34,494,2.4611,434,0.9701,470,-7.1758,434,-1.7516,482,3.1347,478
11.667,474,11.43,470,4.4482,378,8.7035,310,12.548,402,8.055,290,11.115,394,16.343,402
15.089,474,15.245,470,6.9528,266,4.8563,274,7.8462,282,5.6715,282,4.2806,282,8.3615,282
15.797,294,13.483,474,9.3278,482,11.486,410,17.372,410,13.767,410,17.076,334,19.549,326
-0.1533,414,1.0024,410,1.1495,426,-0.3652,414,-0.3183,478,0.5404,318,-4.0641,494,1.6386,318
10.296,350,8.2258,350,3.6453,474,2.3673,390,19.591,378,4.6195,382,6.2219,390,9.7728,390
10.432,442,8.4026,446,2.1738,330,1.5986,442,-3.6828,350,8.4931,446,-0.1257,318,0.5693,350
5.4402,278,-2.9153,342,0.7644,338,2.2066,318,6.4182,318,11.335,318,17.217,318,22.256,318
6.7362,282,11.518,282,8.5114,494,16.617,278,12.826,270,20.434,446,22.348,438,15.924,438
1.6749,318,12.725,490,10.182,482,13.95,310,18.514,314,20.275,310,16.284,294,33.294,274
9.93,386,17.48,282,-0.6625,262,5.0351,366,1.5733,314,-0.1503,322,-2.5126,322,9.0836,322
6.6694,422,15.187,430,7.5039,442,11.184,442,9.2503,406,5.4133,266,13.898,450,9.0909,454
0.365,262,4.0256,494,4.4196,314,6.2761,494,0.2649,270,4.5995,402,14.414,358,10.189,406
9.188,446,16.879,370,13.213,354,13.645,370,5.3035,402,7.7872,394,11.718,422,4.349,406
5.6309,282,11.248,398,9.1566,394,4.6114,406,-6.3676,406,5.7494,406,16.012,442,6.7305,462
4.5656,426,7.1755,490,21.703,362,14.44,482,6.7811,430,4.704,438,6.8437,458,11.787,470
2.2848,402,1.1971,402,0.7107,406,4.4603,486,9.7024,462,8.4819,462,5.4344,322,21.632,462
10.2,462,18.29,494,9.8796,454,15.347,494,20.16,422,14.432,306,16.175,306,28.901,366
13.231,482,6.8963,486,-0.0888,286,6.2159,270,6.9179,334,5.6675,334,-2.2913,286,11.137,330
14.794,322,13.739,294,10.229,474,7.5031,378,11.299,378,17.021,378,21.081,478,26.803,478
12.257,390,5.404,490,1.2344,378,3.206,494,8.8755,462,14.733,462,3.8132,462,11.401,462
-0.9453,406,9.2579,410,-1.2292,450,5.0132,406,-3.4143,278,3.9211,406,6.7731,398,16.793,402
2.779,426,2.9295,450,9.9506,494,9.4971,350,10.645,338,11.383,346,13.641,354,11.793,322
8.9287,378,13.682,462,11.633,358,6.6643,458,-3.7904,486,-6.4156,390,1.0138,390,-2.0369,390
6.3302,266,10.029,414,11.574,414,3.868,334,-1.0121,326,-1.3571,334,3.817,394,7.171,390
0.4091,394,2.4488,470,7.2741,370,-0.0542,346,-8.1783,330,-2.9896,346,7.7645,350,16.493,346
5.9199,282,7.8948,430,13.803,302,13.888,258,5.4749,270,9.819,270,11.787,322,14.271,270
1.6177,262,3.6961,278,10.551,486,2.9864,418,8.4105,458,9.6478,418,13.777,418,29.316,418
11.967,494,16.415,474,10.393,482,13.344,470,18.502,282,16.772,338,15.171,298,24.284,294
7.9878,374,9.1706,366,15.774,358,21.002,338,18.351,314,26.697,326,34.499,326,37.198,326
0.1121,266,2.4547,438,10.836,370,9.0912,282,1.2717,258,2.0873,270,17.462,282,7.2367,270
5.014,494,15.322,270,18.892,346,12.636,274,-2.876,366,4.9274,362,12.752,354,8.9289,366
-10,266,-12.077,278,-11.061,374,-6.3162,278,-4.2551,278,-5.1506,278,2.8303,294,3.0496,294
5.9725,438,11.105,290,4.5106,418,6.6391,418,4.382,426,-1.9577,382,1.2763,418,-2.7044,426
-1.6319,290,0.0036,282,7.2784,314,-4.3653,422,-6.5069,434,-6.7844,302,-0.3742,422,-4.9243,262
4.5837,294,4.9016,490,5.9867,342,8.9876,490,8.6838,306,11.412,306,3.4092,330,14.414,322
-1.5569,302,35.545,302,39.938,306,20.653,306,-22.786,318,-10.573,310,10.024,458,-14.123,454
10.265,358,8.0726,430,12.881,426,5.0515,410,6.2529,410,14.729,402,9.1512,410,29.945,478
6.4572,474,-1.0959,450,5.4896,490,-1.883,302,7.5673,294,8.1601,298,5.3037,310,8.8615,298
3.7508,346,14.82,458,11.674,458,13.71,462,22.502,474,22.563,474,21.227,470,18.355,478
4.4654,490,1.1804,410,5.2378,430,20.864,494,18.206,482,23.477,486,28.103,318,20.348,314
5.7649,270,11.392,270,11.719,374,10.826,274,9.3411,274,2.9367,274,16.232,410,20.79,334
2.38,294,5.9713,286,3.6811,290,5.9069,286,15.216,482,2.1501,310,-0.1502,298,10.002,314
1.4187,334,10.737,314,7.4994,490,13.422,494,15.073,354,14.482,358,7.637,298,23.867,354
8.3658,438,11.874,434,5.0044,398,6.0905,406,8.372,486,23.939,486,11.429,490,23.347,486
9.0844,370,13.251,366,8.2849,274,12.894,358,11.138,442,24.082,446,3.1476,410,13.93,446
13.152,406,18.359,278,19.527,390,24.314,366,15.513,362,24.715,362,29.678,366,20.562,322
6.4673,274,12.223,274,10.228,426,11.262,490,-2.144,490,9.4415,490,22.45,490,10.853,454
10.719,310,16.016,310,12.949,390,13.008,390,17.897,430,5.6841,434,15.24,474,21.472,442
5.9639,286,17.207,290,11.514,346,17.155,302,17.946,314,15.134,314,19.606,406,36.208,314
4.2191,290,8.8209,278,8.7904,266,21.299,278,13.291,282,19.659,282,17.243,266,19.432,450
5.0751,454,14.367,310,8.3327,322,21.552,310,22.084,302,30.313,302,27.642,302,22.951,494
18.466,422,8.6915,358,9.7147,338,9.7509,366,17.28,438,2.2397,438,0.7971,370,14.438,362
23.338,466,11.44,354,16.972,358,17.549,354,15.496,350,12.159,354,18.386,354,15.104,350
14.602,326,20.593,258,22.247,330,30.639,326,23.903,494,44.563,310,39.68,322,46.212,310
4.3297,486,-0.0283,346,4.6952,494,3.3426,442,3.1514,434,19.318,442,8.6307,406,10.227,402
14.844,390,19.851,394,18.285,490,16.72,490,7.396,434,1.9606,378,8.8673,386,14.423,434
6.5698,270,13.771,274,14.987,346,21.372,334,24.678,306,25.335,306,23.058,334,25.75,454
14.142,354,9.3253,346,4.9897,494,6.1578,314,4.3151,358,1.3214,310,5.1521,310,4.9374,306
0.2766,406,0.6239,262,5.8461,262,4.6455,474,17.944,470,12.743,466,15.52,262,19.296,462
7.5782,338,19.269,430,5.5999,394,2.7172,318,10.345,338,9.7774,322,3.1283,310,13.486,322
13.399,322,25.325,326,18.466,330,24.429,450,13.637,298,13.632,450,27.802,434,24.141,262
8.3185,474,19.853,366,15.673,366,21.606,362,6.9581,342,12.455,362,10.158,318,26.523,310
11.38,442,22.611,294,12.244,406,29.71,294,21.228,490,31.389,294,26.962,410,18.526,482
9.0382,282,14.567,490,17.472,494,16.724,358,14.375,310,22.122,354,24.866,330,21.118,330
5.1804,414,9.0723,406,15.163,266,26.345,410,21.402,410,26.195,406,32.549,346,19.197,342
20.476,434,20.71,430,4.0865,410,16.683,406,11.372,406,18.55,406,22.821,282,17.184,286
0.057,338,2.5947,494,8.5297,282,0.3619,326,8.8404,330,8.6554,326,12.666,318,21.839,314
3.3875,458,20.262,350,14.153,358,26.405,342,24.402,338,27.788,338,23.006,342,33.032,338
13.733,482,10.952,478,9.2317,478,12.383,478,12.06,398,7.9313,334,8.8741,334,14.156,334
-5.4408,470,8.5233,318,6.1732,310,13.933,314,7.7663,394,15.38,310,24.516,310,26.693,302
12.782,430,14.362,414,7.0314,274,11.006,410,0.1133,470,6.0574,470,4.8885,470,11.27,470
5.4857,398,-0.0346,398,12.421,322,2.5135,438,3.4956,370,9.1632,434,13.663,434,19.032,434
15.028,286,17.128,258,8.0796,322,11.272,358,15.321,358,14.998,334,19.018,326,21.013,326
8.3929,282,5.5615,282,3.2996,354,-4.1067,410,3.8583,466,4.3794,470,8.595,482,11.26,474
6.2084,318,12.3,278,17.769,286,13.308,278,16.229,326,16.668,474,24.948,354,27.512,354
12.239,426,6.7917,422,8.8769,286,16.693,426,5.0329,426,23.152,426,15.288,298,-2.3345,494
10.171,370,11.964,342,8.308,458,22.177,450,7.1375,318,9.4632,326,16.602,442,9.3006,282
13.656,330,14.711,318,7.1171,474,13.554,314,7.6823,326,12.815,278,8.0189,294,13.655,286
9.2741,306,12.05,310,4.1137,338,12.706,302,9.9113,302,7.3681,302,7.9689,290,3.5305,294
-8.443,482,8.3521,446,9.6506,454,14.205,446,8.5495,454,10.189,454,17.573,446,14.334,446
-0.6735,298,10.057,278,0.5552,482,17.645,490,3.7337,290,10.897,290,21.333,482,16.496,294
7.4324,278,17.142,278,26.561,334,15.77,330,8.7612,318,4.2542,326,13.494,334,13.806,466
16.409,418,7.0689,366,8.2726,266,-2.4848,366,3.0197,470,1.5629,458,0.2288,274,-2.9651,278
11.767,354,15.282,494,11.237,430,10.215,430,7.1365,430,14.388,434,22.772,430,15.499,430
12.013,482,11.259,490,11.326,490,7.0502,310,6.7652,318,13.583,314,14.382,302,9.1003,310
11.822,462,-0.5651,414,4.6882,414,-9.6344,482,-4.9485,266,-3.2722,478,-5.7601,482,-16.069,394
9.0928,354,5.3684,354,10.135,458,7.7193,354,0.8771,362,8.9473,362,12.804,358,10.575,358
1.5773,362,11.479,458,-4.3516,262,-2.4219,306,3.3213,278,2.2203,354,0.1244,306,6.1784,346
7.3386,294,17.933,478,11.409,450,23.744,290,11.625,290,13.057,290,18.659,290,15.574,370
-10.475,470,7.9129,458,9.157,446,9.812,346,8.941,346,10.821,346,9.3957,262,18.914,346
11.585,274,16.522,334,5.2235,330,12.457,330,10.649,346,12.221,330,10.194,330,22.042,330
10.191,398,12.919,402,15.455,426,12.033,414,13.512,378,16.53,378,18.003,422,14.091,318
1.7885,354,17.844,262,12.833,386,13.424,402,17.037,410,16.634,410,14.533,406,15.088,410
-1.6203,266,2.0923,294,2.8877,326,5.2739,298,2.3453,378,2.2608,302,5.4995,286,12.939,290
11.297,258,1.1191,458,3.8129,318,-1.2682,470,4.1797,466,-7.5185,470,-4.5777,318,-20.813,318
8.8505,430,4.6531,366,14.565,382,9.4355,378,5.6225,434,7.835,438,6.2552,382,4.4753,342
10.93,266,12.148,346,6.8031,346,11.498,258,-3.0655,258,4.9934,270,10.21,258,12.762,258
14.534,290,5.9162,310,0.657,334,11.047,350,11.441,362,17.163,350,20.565,350,22.877,350
9.257,342,23.648,458,13.512,466,14.806,470,11.832,258,17.966,258,10.917,258,11.86,286
6.0445,330,4.2468,386,3.7113,470,2.1572,382,6.4869,386,-4.8183,386,-3.9741,374,11.434,310
3.886,350,14.902,290,8.9453,290,12.876,278,8.1345,434,9.4949,278,13.579,278,11.392,418
10.031,402,6.8976,438,4.49,430,2.4634,402,10.571,402,3.3002,402,-1.3454,262,4.7969,298
9.9444,270,13.907,270,-0.9835,266,17.863,266,13.606,474,16.522,266,16.479,258,19.035,430
14.352,454,20.65,314,11.388,422,8.3633,382,7.9067,258,5.9893,258,6.4681,470,-7.3383,258
5.3495,298,12.957,258,12.291,266,12.455,290,10.625,322,11.015,294,11.37,290,14.609,294
4.6905,290,10.217,266,8.9781,346,4.322,330,9.7257,438,4.8114,438,5.4217,438,20.913,438
21.325,458,17.079,314,13.326,342,14.387,330,11.53,306,4.6147,330,16.282,338,14.408,258
1.6839,262,5.4692,386,13.562,366,10.845,378,11.72,462,16.871,350,26.348,362,35.654,438
14.056,486,3.283,342,4.3756,430,2.2975,342,7.4202,290,10.571,342,12.292,346,21.291,342
16.134,474,16.311,434,13.762,430,28.367,434,22.98,458,35.46,458,33.437,430,34.315,426
14.802,442,20.611,418,20.665,414,17.713,462,11.99,262,12.678,262,15.455,258,13.309,262
2.9819,390,7.391,446,12.121,454,15.387,454,21.242,398,9.7158,394,20.844,454,13.749,410
7.2201,286,11.383,314,13.066,338,13.912,398,12.574,446,18.339,446,25.166,422,27.714,434
0.7404,358,4.2295,422,8.1426,374,4.3072,418,-1.0566,446,2.9133,278,8.8971,270,11.218,278
2.6054,318,0.7292,434,2.7587,366,6.0877,442,2.7262,450,9.1145,446,8.3412,446,15.34,454
10.654,458,3.5263,354,11.368,494,5.361,490,6.3476,474,4.8298,474,4.6756,490,13.726,486
9.2448,474,10.639,410,14.611,446,7.2519,362,15.32,478,4.4496,478,10.852,358,16.049,478
14.826,486,13.702,410,13.467,418,7.7466,410,5.4732,378,5.5079,390,-4.839,478,-14.98,390
16.041,346,19.904,322,9.1306,414,16.819,302,16.144,354,25.336,358,22.255,366,14.169,358
11.668,350,12.452,466,8.4668,450,5.8247,466,1.8247,490,0.2149,458,7.5213,458,3.832,258
11.812,406,11.194,334,14.482,338,8.6192,338,8.2573,402,7.3535,338,7.8055,338,2.9729,358
12.429,286,20.142,278,21.981,486,11.438,430,10.107,454,11.437,454,8.7789,454,14.207,454
20.904,374,15.688,458,13.178,458,15.153,446,24.703,318,16.816,318,24.255,426,16.622,262
11.978,402,15.679,390,15.632,298,5.9577,342,9.1432,318,2.4363,314,6.3451,306,7.2202,282
12.518,378,8.9258,382,10.581,402,14.746,446,17.114,382,14.827,386,6.004,314,17.944,314
15.751,470,-1.7459,310,4.0368,306,10.721,314,15.35,314,13.438,322,23.157,314,28.204,338
12.733,358,4.2748,490,17.214,486,11.478,490,21.008,258,21.941,462,10.825,490,36.282,462
0.9576,474,7.9437,462,13.834,386,4.0438,474,3.4978,314,12.17,322,6.945,322,16.665,322
15.113,266,15.065,262,15.728,258,13.782,454,13.744,314,19.451,462,15.82,458,10.225,286
10.884,270,12.184,258,6.5994,350,-10.808,358,-0.4032,410,10.247,406,21.768,402,24.104,406
7.4831,430,15.752,310,9.8569,310,11.319,310,1.9289,266,-5.1183,322,7.4059,306,-5.9893,338
0.3449,422,-1.6439,282,7.3086,382,2.715,282,1.5195,266,2.1937,270,4.8965,270,8.6573,266
7.8628,426,3.9363,430,8.0854,494,1.7406,302,8.0919,306,-2.1962,466,-0.8221,478,19.577,466
13.208,434,22.266,414,14.058,406,30.124,410,25.88,486,39.436,494,25.741,342,39.318,342
8.0217,450,14.34,458,13.408,478,9.3315,450,3.379,438,12.791,442,9.9831,410,15.688,294
18.861,278,4.6606,382,10.67,350,6.3953,378,17.858,382,11.816,382,8.8231,486,5.9476,306
13.897,374,18.277,386,9.7675,406,6.4836,402,1.8703,298,-3.1298,406,-0.3,410,-1.2918,346
5.4187,314,8.201,274,14.165,354,16.604,266,10.752,342,17.136,346,22.817,346,24.095,258
8.1026,258,3.9984,442,7.5758,486,2.8177,350,7.7273,342,10.332,342,12.812,394,20.848,350
10.669,402,8.8236,274,3.5581,426,13.241,378,14.337,482,18.151,482,13.916,346,25.73,486
6.1739,398,11.922,318,25.398,318,6.6682,314,1.2974,266,12.79,290,8.8028,302,7.8099,290
12.871,338,16.892,338,7.3638,334,5.8124,346,16.145,450,9.0383,446,10.342,414,29.646,410
7.8752,410,20.794,414,16.91,334,22.016,422,23.15,294,30.328,370,27.659,438,48.005,438
10.089,414,11.691,462,10.375,434,8.0447,434,10.467,422,17.585,442,23.785,446,27.036,450
22.962,286,23.545,278,22.514,354,18.157,350,16.795,378,29.145,342,39.306,342,28.373,338
6.7013,410,18.625,418,11.141,438,23.306,418,31.281,450,28.236,446,28.481,438,35.455,294
5.2398,458,7.2853,466,18.644,278,8.0075,454,4.5697,418,-6.1763,418,-5.7648,330,-3.8311,418
6.7543,494,15.724,362,11.7,366,20.701,354,20.329,306,21.553,346,22.991,346,21.634,346
6.1212,310,8.0052,378,20.693,362,32.179,266,29.378,406,36.329,266,31.195,362,52.877,266
26.648,442,17.468,438,8.0584,494,4.9183,486,20.199,466,16.639,478,15.095,494,31.454,494
10.569,390,3.7267,454,4.2205,334,9.3381,310,18.335,294,12.566,298,13.368,310,9.7272,478
21.924,378,25.422,370,22.066,482,24.071,486,13.498,394,15.429,394,14.323,478,17.942,406
8.9457,354,13.743,326,17.417,462,29.353,326,23.378,322,33.611,326,29.391,330,29.588,326
13.852,338,28.794,342,15.363,454,17.907,330,13.244,314,25.301,314,28.275,314,20.594,314
5.9593,266,22.344,454,18.977,338,21.871,450,6.0085,346,12.446,446,15.379,446,-1.4509,346
9.402,290,8.8579,454,16.3,282,25.221,450,18.455,450,28.427,450,31.065,450,28.19,418
7.5033,330,13.748,470,8.4384,466,10.402,442,13.546,434,11.484,434,14.831,434,26.227,430
7.7766,282,14.272,286,11.042,394,12.128,490,6.8319,462,7.1064,462,3.5989,462,11.241,462
10.181,278,11.671,274,13.88,258,3.9062,390,7.1554,410,11.426,410,14.743,418,36.812,418
11.812,446,7.7007,310,21.37,302,10.877,366,16.689,374,15.619,370,11.575,374,6.9932,374
13.341,418,7.0878,290,9.0106,286,2.1811,390,7.3534,410,2.3227,406,-9.3787,282,0.8689,374
7.8508,262,7.4671,394,12.032,454,8.2204,278,8.2523,370,9.5577,362,13.053,362,12.403,362
8.4042,426,19.472,310,15.039,330,23.775,314,2.7172,486,10.857,314,8.3336,318,3.4409,490
3.3395,406,17.451,410,7.5336,262,7.7664,490,16.572,438,21.315,378,23.674,482,28.318,374
1.5084,354,14.147,474,10.971,482,8.4513,470,0.5302,470,9.8813,470,24.507,478,9.8935,482
14.18,314,22.826,426,11.504,442,22.769,422,7.3926,266,8.154,422,8.9988,278,11.718,262
13.217,486,11.128,458,-0.5789,454,14.942,450,16.689,326,18.312,334,19.187,326,21.735,326
17.061,318,27.623,314,12.608,318,32.795,274,22.652,302,37.06,294,29.946,274,38.697,282
9.975,362,7.1329,358,8.3837,286,8.937,358,12.771,358,21.497,358,3.5239,458,21.821,438
9.9903,430,7.5183,298,10.581,370,9.35,362,6.0173,342,5.5585,362,10.201,362,6.2754,350
10.859,318,10.12,486,8.4337,374,17.588,478,17.137,342,10.468,270,16.801,358,30.246,410
25.459,298,16.537,298,2.0612,450,2.2794,298,20.004,310,6.6492,314,-1.8337,326,13.052,322
4.7119,338,21.375,342,15.588,294,18.563,338,18.666,394,23.881,394,28.358,406,45.435,394
2.5683,466,2.0665,286,10.659,310,-1.9811,266,11.582,470,12.826,382,4.3387,402,7.4119,386
16.348,350,22.217,414,11.218,350,17.805,358,13.471,334,14.992,450,16.259,450,5.931,450
8.8789,398,10.139,386,16.439,386,12.812,366,16.745,282,22.176,366,25.768,358,25.85,358
8.2412,298,-2.1101,366,6.838,370,8.144,418,15.407,466,14.56,418,10.923,418,23.428,418
-8.0338,362,10.791,434,7.8124,410,8.9287,406,0.5667,454,-1.5434,406,8.5175,406,12.512,334
11.216,470,16.852,462,2.3616,314,12.731,470,8.6224,478,14.066,474,5.2877,470,5.4599,474
7.8639,354,13.583,354,5.273,358,12.125,350,7.6558,342,11.275,334,3.0628,330,9.8312,322
5.9741,478,15.028,298,10.753,298,7.7769,290,8.1965,418,7.9176,266,11.757,358,23.216,418
10.834,458,6.8301,446,11.388,422,17.507,430,15.331,430,27.617,430,29.076,430,33.743,430
1.9482,274,8.319,482,5.4979,458,7.7979,486,3.736,302,7.3616,298,1.8664,454,7.1749,294
0.8591,318,12.124,426,11.314,270,11.002,298,11.997,302,12.539,298,18.321,282,16.509,298
0.1969,358,-0.1645,402,7.2627,402,0.1531,262,20.019,326,4.1742,326,5.9782,270,3.3301,326
5.2561,314,2.6465,314,10.239,430,2.4358,350,5.6343,398,10.835,350,10.92,350,9.156,350
18.676,406,2.0379,454,8.1366,458,6.7177,286,10.748,414,10.397,286,18.034,286,14.255,286
10.447,422,15,422,10.651,454,9.2846,306,8.4546,274,16.409,274,18.141,454,10.101,266
3.9491,458,18.315,438,14.527,490,8.508,434,5.7613,410,14.018,418,10.434,422,12.435,418
2.863,418,12.108,386,9.4691,358,14.922,394,20.487,474,7.1629,478,14.705,378,29.921,382
14.825,470,16.083,466,8.1094,262,5.8745,390,4.7199,418,-4.7226,286,6.3585,402,1.7637,410
13.089,362,12.291,370,9.988,290,10.815,370,4.8853,370,4.6014,278,-0.2654,282,-4.8214,282
1.575,334,11.313,334,9.2177,334,12.632,334,6.1767,270,2.8501,338,12.416,474,15.37,474
1.7219,302,3.1396,290,4.0672,286,5.4263,306,4.2935,362,11.697,306,8.1411,310,4.7713,310
8.7992,322,6.5932,422,17.09,462,10.232,458,15.642,378,12.997,374,8.8797,278,23.81,274
8.252,398,5.2652,298,13.481,430,15.402,370,22.645,370,24.807,370,18.023,370,35.675,370
9.5886,266,12.935,266,3.4986,406,14.266,494,21.627,494,25.506,494,21.213,494,38.413,342
