0.76091,0.23909
0.67942,0.32058
0.89515,0.10485
0.85364,0.14636
0.53,0.47
0.60544,0.39456
0.74751,0.25249
0.93127,0.068729
0.79149,0.20851
0.63308,0.36692
0.80332,0.19668
0.64955,0.35045
0.88024,0.11976
0.93315,0.066852
0.62526,0.37474
0.82806,0.17194
0.54213,0.45787
0.73128,0.26872
0.56994,0.43006
0.81628,0.18372
0.77505,0.22495
0.7501,0.2499
0.88868,0.11132
0.7915,0.2085
0.8298,0.1702
0.71371,0.28629
0.88288,0.11712
0.87305,0.12695
0.70215,0.29785
0.83227,0.16773
0.692,0.308
0.71309,0.28691
0.79542,0.20458
0.33948,0.66052
0.22319,0.77681
0.79006,0.20994
0.81622,0.18378
0.95205,0.047953
0.56944,0.43056
0.9103,0.089701
0.93673,0.06327
0.87616,0.12384
0.7564,0.2436
0.79768,0.20232
0.80423,0.19577
0.91198,0.088025
0.79968,0.20032
0.84368,0.15632
0.72527,0.27473
0.90236,0.097641
0.57235,0.42765
0.80723,0.19277
0.79748,0.20252
0.68733,0.31267
0.76436,0.23564
0.852,0.148
0.81146,0.18854
0.73252,0.26748
0.82712,0.17288
0.60215,0.39785
0.78716,0.21284
0.75906,0.24094
0.69526,0.30474
0.79212,0.20788
0.8085,0.1915
0.79927,0.20073
0.92802,0.071985
0.91073,0.08927
0.81931,0.18069
0.82169,0.17831
0.56778,0.43222
0.78982,0.21018
0.62867,0.37133
0.79895,0.20105
0.87356,0.12644
0.76705,0.23295
0.50649,0.49351
0.8158,0.1842
0.66726,0.33274
0.86837,0.13163
0.8698,0.1302
0.93705,0.062953
0.81861,0.18139
0.82628,0.17372
0.91509,0.084908
0.80075,0.19925
0.75303,0.24697
0.87676,0.12324
0.84472,0.15528
0.68803,0.31197
0.74857,0.25143
0.76488,0.23512
0.50143,0.49857
0.94093,0.059074
0.65242,0.34758
0.64831,0.35169
0.88717,0.11283
0.79534,0.20466
0.4997,0.5003
0.72162,0.27838
0.58143,0.41857
0.55141,0.44859
0.77161,0.22839
0.22496,0.77504
0.77319,0.22681
0.41762,0.58238
0.63428,0.36572
0.55661,0.44339
0.51883,0.48117
0.60892,0.39108
0.66212,0.33788
0.52792,0.47208
0.69751,0.30249
0.3414,0.6586
0.52339,0.47661
0.19814,0.80186
0.85553,0.14447
0.83694,0.16306
0.80089,0.19911
0.518,0.482
0.60936,0.39064
0.68611,0.31389
0.82878,0.17122
0.59029,0.40971
0.94526,0.054742
0.89355,0.10645
0.2884,0.7116
0.63859,0.36141
0.77114,0.22886
0.34262,0.65738
0.8705,0.1295
0.90804,0.09196
0.70705,0.29295
0.40051,0.59949
0.85108,0.14892
0.66288,0.33712
0.8905,0.1095
0.80294,0.19706
0.40241,0.59759
0.31896,0.68104
0.40436,0.59564
0.93485,0.065152
0.87839,0.12161
0.75694,0.24306
0.6121,0.3879
0.61697,0.38303
0.55851,0.44149
0.60884,0.39116
0.4258,0.5742
0.76594,0.23406
0.87506,0.12494
0.64949,0.35051
0.57935,0.42065
0.76024,0.23976
0.50771,0.49229
0.42228,0.57772
0.76557,0.23443
0.87583,0.12417
0.61511,0.38489
0.7242,0.2758
0.74718,0.25282
0.51578,0.48422
0.71408,0.28592
0.4097,0.5903
0.56713,0.43287
0.68213,0.31787
0.62494,0.37506
0.56099,0.43901
0.7602,0.2398
0.39904,0.60096
0.84877,0.15123
0.88649,0.11351
0.58564,0.41436
0.84385,0.15615
0.67396,0.32604
0.44317,0.55683
0.6785,0.3215
0.84401,0.15599
0.84949,0.15051
0.88973,0.11027
0.90594,0.094063
0.77957,0.22043
0.85041,0.14959
0.72422,0.27578
0.65522,0.34478
0.95129,0.048715
0.81786,0.18214
0.86914,0.13086
0.77443,0.22557
0.73203,0.26797
0.90799,0.092009
0.59609,0.40391
0.92691,0.073087
0.93494,0.065056
0.9006,0.099399
0.56411,0.43589
0.79697,0.20303
0.97841,0.021594
0.72193,0.27807
0.73798,0.26202
0.82837,0.17163
0.9094,0.090598
0.8284,0.1716
0.85164,0.14836
0.79716,0.20284
0.72337,0.27663
0.72775,0.27225
0.71308,0.28692
0.8844,0.1156
0.71945,0.28055
0.74196,0.25804
0.92045,0.079545
0.88065,0.11935
0.42109,0.57891
0.75952,0.24048
0.75256,0.24744
0.71665,0.28335
0.77459,0.22541
0.66749,0.33251
0.78103,0.21897
0.88242,0.11758
0.66415,0.33585
0.84875,0.15125
0.86839,0.13161
0.73671,0.26329
0.75809,0.24191
0.88705,0.11295
0.86335,0.13665
0.88731,0.11269
0.85349,0.14651
0.88039,0.11961
0.93924,0.060763
0.84574,0.15426
0.74467,0.25533
0.92323,0.076767
0.77262,0.22738
0.53132,0.46868
0.64148,0.35852
0.77104,0.22896
0.72989,0.27011
0.84942,0.15058
0.58915,0.41085
0.93859,0.061414
0.80847,0.19153
0.86816,0.13184
0.5473,0.4527
0.88947,0.11053
0.91799,0.082013
0.92814,0.071863
0.87929,0.12071
0.76884,0.23116
0.75803,0.24197
0.77204,0.22796
0.81362,0.18638
0.83468,0.16532
0.83174,0.16826
0.83181,0.16819
0.8162,0.1838
0.78647,0.21353
0.79086,0.20914
0.72332,0.27668
0.95631,0.04369
0.90267,0.097331
0.79162,0.20838
0.80346,0.19654
0.74388,0.25612
0.70595,0.29405
0.94209,0.05791
0.87099,0.12901
0.846,0.154
0.79405,0.20595
0.8703,0.1297
0.77247,0.22753
0.74355,0.25645
0.93889,0.061106
0.89886,0.10114
0.91274,0.087257
0.85171,0.14829
0.70495,0.29505
0.96273,0.037268
0.83305,0.16695
0.8418,0.1582
0.65675,0.34325
0.73878,0.26122
0.67617,0.32383
0.8703,0.1297
0.88217,0.11783
0.91192,0.088081
0.91996,0.080039
0.8269,0.1731
0.72888,0.27112
0.91657,0.083431
0.84296,0.15704
0.80232,0.19768
0.93938,0.060619
0.98341,0.016591
0.80732,0.19268
0.88252,0.11748
0.65113,0.34887
0.5301,0.4699
0.36761,0.63239
0.76937,0.23063
0.58889,0.41111
0.95978,0.040219
0.85495,0.14505
0.80915,0.19085
0.79582,0.20418
0.70117,0.29883
0.80703,0.19297
0.79334,0.20666
0.83198,0.16802
0.59882,0.40118
0.74594,0.25406
0.6828,0.3172
0.68363,0.31637
0.60159,0.39841
0.84181,0.15819
0.78068,0.21932
0.90204,0.097964
0.91546,0.084544
0.74347,0.25653
0.60716,0.39284
0.89536,0.10464
0.81857,0.18143
0.6312,0.3688
0.88205,0.11795
0.65581,0.34419
0.9219,0.078097
0.79172,0.20828
0.92198,0.078017
0.94571,0.054294
0.95757,0.042426
0.42525,0.57475
0.83618,0.16382
0.47184,0.52816
0.54551,0.45449
0.71146,0.28854
0.61507,0.38493
0.86196,0.13804
0.71457,0.28543
0.34203,0.65797
0.68555,0.31445
0.87225,0.12775
0.82869,0.17131
0.80924,0.19076
0.77879,0.22121
0.51132,0.48868
0.8832,0.1168
0.6644,0.3356
0.8422,0.1578
0.71848,0.28152
0.90602,0.093981
0.85648,0.14352
0.95157,0.048426
0.85668,0.14332
0.75168,0.24832
0.64931,0.35069
0.78602,0.21398
0.82892,0.17108
0.80102,0.19898
