0.9212,0.078797
0.98856,0.011441
0.99127,0.0087334
0.99677,0.0032284
0.99829,0.0017138
0.9997,0.00029539
0.9993,0.00069714
0.99848,0.001524
0.99432,0.0056806
0.99147,0.0085305
0.98613,0.013866
0.9865,0.013502
0.90715,0.092848
0.94909,0.050909
0.89767,0.10233
0.90164,0.098356
0.85306,0.14694
0.91572,0.08428
0.95693,0.043066
0.92629,0.073706
0.96015,0.039846
0.97781,0.022194
0.94794,0.052057
0.99084,0.0091596
0.9876,0.012401
0.98459,0.015408
0.99054,0.0094642
0.99162,0.0083795
0.99787,0.0021271
0.99281,0.0071918
0.99445,0.0055488
0.99232,0.0076818
0.99717,0.0028341
0.99951,0.00049433
0.99897,0.0010265
0.99516,0.0048417
0.99461,0.0053933
0.9746,0.025397
0.99287,0.0071309
0.97938,0.020616
0.98543,0.014571
0.99447,0.005534
0.99469,0.0053104
0.98182,0.018181
0.94896,0.051039
0.84374,0.15626
0.6307,0.3693
0.71211,0.28789
0.90486,0.095138
0.80792,0.19208
0.54094,0.45906
0.67521,0.32479
0.66002,0.33998
0.64189,0.35811
0.65837,0.34163
0.66157,0.33843
0.88012,0.11988
0.9642,0.035797
0.95638,0.043619
0.88398,0.11602
0.92738,0.072624
0.94038,0.059621
0.91838,0.081623
0.85974,0.14026
0.83825,0.16175
0.93696,0.063036
0.91443,0.085567
0.86933,0.13067
0.85048,0.14952
0.84312,0.15688
0.787,0.213
0.73811,0.26189
0.96235,0.037649
0.96837,0.03163
0.95545,0.044553
0.92942,0.070583
0.89088,0.10912
0.98568,0.014325
0.9803,0.019701
0.99004,0.0099603
0.85206,0.14794
0.85206,0.14794
0.85206,0.14794
0.85206,0.14794
0.85206,0.14794
0.85206,0.14794
0.85206,0.14794
0.85206,0.14794
0.85206,0.14794
0.85206,0.14794
0.89263,0.10737
0.91359,0.086406
0.94146,0.058543
0.90541,0.094595
0.75697,0.24303
0.94037,0.059629
0.95497,0.045034
0.96596,0.034038
0.99255,0.0074511
0.99342,0.0065826
0.99312,0.0068784
0.97953,0.020466
0.98738,0.012619
0.9914,0.0085979
0.98054,0.019459
0.97498,0.025024
0.95284,0.047158
0.9374,0.062599
0.75165,0.24835
0.71446,0.28554
0.69972,0.30028
0.36984,0.63016
0.39032,0.60968
0.27671,0.72329
0.19142,0.80858
0.30106,0.69894
0.34701,0.65299
0.58968,0.41032
0.32576,0.67424
0.31657,0.68343
0.3076,0.6924
0.23793,0.76207
0.37925,0.62075
0.23051,0.76949
0.17146,0.82854
0.57252,0.42748
0.69119,0.30881
0.83823,0.16177
0.79772,0.20228
0.93635,0.063649
0.97148,0.028517
0.96093,0.03907
0.95857,0.041426
0.98031,0.019695
0.99473,0.0052656
0.99199,0.0080125
0.98033,0.019666
0.98701,0.012992
0.96369,0.036306
0.88109,0.11891
0.71586,0.28414
0.907,0.093003
0.9138,0.0862
0.94696,0.053044
0.8984,0.1016
0.81008,0.18992
0.93564,0.064364
0.78146,0.21854
0.82662,0.17338
0.88138,0.11862
0.97929,0.020708
0.98281,0.017193
0.95539,0.04461
0.98842,0.011581
0.98688,0.013122
0.99195,0.0080526
0.9965,0.0034967
0.99389,0.0061096
0.99888,0.001121
0.99849,0.0015101
0.9995,0.00050203
0.9971,0.0028962
0.9991,0.00090402
0.99944,0.00055532
0.99704,0.0029594
0.99683,0.0031727
0.99305,0.0069452
0.99535,0.0046513
0.99529,0.0047125
0.97928,0.020724
0.85206,0.14794
0.85206,0.14794
0.85206,0.14794
0.85206,0.14794
0.85206,0.14794
0.85206,0.14794
0.85206,0.14794
0.85206,0.14794
0.85206,0.14794
0.85206,0.14794
0.91081,0.089194
0.81076,0.18924
0.69446,0.30554
0.63204,0.36796
0.91414,0.085861
0.95064,0.04936
0.97513,0.024866
0.99318,0.0068176
0.98777,0.01223
0.99177,0.0082342
0.99469,0.0053066
0.98301,0.016988
0.974,0.025998
0.98243,0.017571
0.98014,0.019859
0.93667,0.063326
0.89977,0.10023
0.91033,0.089673
0.78682,0.21318
0.4454,0.5546
0.34225,0.65775
0.17443,0.82557
0.19906,0.80094
0.3502,0.6498
0.69293,0.30707
0.85212,0.14788
0.70192,0.29808
0.90037,0.099628
0.84698,0.15302
0.85676,0.14324
0.94351,0.056494
0.94279,0.057214
0.9399,0.060105
0.92975,0.070251
0.86926,0.13074
0.88137,0.11863
0.81222,0.18778
0.80755,0.19245
0.84372,0.15628
0.76498,0.23502
0.87399,0.12601
0.94524,0.054763
0.96483,0.035172
0.97815,0.021846
0.95473,0.045271
0.97084,0.029158
0.91993,0.080068
0.96208,0.037923
0.98349,0.016511
0.98386,0.016141
0.99026,0.0097416
0.97684,0.02316
0.91863,0.081366
0.93867,0.061331
0.84722,0.15278
0.87205,0.12795
0.86873,0.13127
0.84663,0.15337
0.81884,0.18116
0.77715,0.22285
0.70215,0.29785
0.80007,0.19993
0.83587,0.16413
0.96341,0.036591
0.93086,0.069139
0.9623,0.037704
0.97256,0.027438
0.9602,0.039798
0.96539,0.034613
0.60368,0.39632
0.8322,0.1678
0.89532,0.10468
0.9313,0.068702
0.91007,0.089926
0.66686,0.33314
0.64772,0.35228
0.72098,0.27902
0.77741,0.22259
0.90234,0.097661
0.81369,0.18631
0.85206,0.14794
0.85206,0.14794
0.85206,0.14794
0.85206,0.14794
0.85206,0.14794
0.85206,0.14794
0.85206,0.14794
0.85206,0.14794
0.85206,0.14794
0.85206,0.14794
0.68635,0.31365
0.78923,0.21077
0.74048,0.25952
0.86603,0.13397
0.87018,0.12982
0.78413,0.21587
0.87927,0.12073
0.77857,0.22143
0.76046,0.23954
0.80066,0.19934
0.89566,0.10434
0.89638,0.10362
0.78575,0.21425
0.78617,0.21383
0.51241,0.48759
0.43548,0.56452
0.4122,0.5878
0.39096,0.60904
0.30822,0.69178
0.25496,0.74504
0.24976,0.75024
0.20905,0.79095
0.16178,0.83822
0.12497,0.87503
0.14618,0.85382
0.18192,0.81808
0.20312,0.79688
0.38351,0.61649
0.44941,0.55059
0.48778,0.51222
0.64153,0.35847
0.57007,0.42993
0.3942,0.6058
0.32053,0.67947
0.30451,0.69549
0.2329,0.7671
0.47551,0.52449
0.40481,0.59519
0.41621,0.58379
0.1828,0.8172
0.19275,0.80725
0.17204,0.82796
0.1655,0.8345
0.17702,0.82298
0.19162,0.80838
0.24767,0.75233
0.20592,0.79408
0.076935,0.92307
0.13956,0.86044
0.073901,0.9261
0.0488,0.9512
0.023478,0.97652
0.01466,0.98534
0.067651,0.93235
0.04297,0.95703
0.07422,0.92578
0.058409,0.94159
0.088447,0.91155
0.14192,0.85808
0.12462,0.87538
0.089155,0.91084
0.27189,0.72811
0.42432,0.57568
0.53638,0.46362
0.22359,0.77641
0.16744,0.83256
0.10335,0.89665
0.10413,0.89587
0.24391,0.75609
0.091886,0.90811
0.12252,0.87748
0.26317,0.73683
0.2037,0.7963
0.33541,0.66459
0.43057,0.56943
0.30583,0.69417
0.61955,0.38045
0.56282,0.43718
0.48597,0.51403
0.47211,0.52789
0.85206,0.14794
0.85206,0.14794
0.85206,0.14794
0.85206,0.14794
0.85206,0.14794
0.85206,0.14794
0.85206,0.14794
0.85206,0.14794
0.85206,0.14794
0.85206,0.14794
