0.75245,0.24755
0.82652,0.17348
0.70271,0.29729
0.77001,0.22999
0.52387,0.47613
0.86419,0.13581
0.84772,0.15228
0.936,0.063996
0.86596,0.13404
0.73946,0.26054
0.8383,0.1617
0.85852,0.14148
0.86474,0.13526
0.8853,0.1147
0.80679,0.19321
0.78276,0.21724
0.66375,0.33625
0.81415,0.18585
0.73854,0.26146
0.74939,0.25061
0.64335,0.35665
0.75215,0.24785
0.69009,0.30991
0.89681,0.10319
0.79197,0.20803
0.78947,0.21053
0.82777,0.17223
0.74789,0.25211
0.75414,0.24586
0.74947,0.25053
0.81814,0.18186
0.78448,0.21552
0.70313,0.29687
0.86965,0.13035
0.7923,0.2077
0.74189,0.25811
0.85322,0.14678
0.73429,0.26571
0.92083,0.079171
0.56067,0.43933
0.81769,0.18231
0.78585,0.21415
0.87669,0.12331
0.85261,0.14739
0.8251,0.1749
0.75833,0.24167
0.7387,0.2613
0.68072,0.31928
0.94244,0.057563
0.74904,0.25096
0.74833,0.25167
0.80983,0.19017
0.83965,0.16035
0.81319,0.18681
0.76239,0.23761
0.67371,0.32629
0.59447,0.40553
0.7566,0.2434
0.81413,0.18587
0.84402,0.15598
0.56514,0.43486
0.74935,0.25065
0.87301,0.12699
0.75744,0.24256
0.85894,0.14106
0.79245,0.20755
0.782,0.218
0.71728,0.28272
0.86679,0.13321
0.64465,0.35535
0.82809,0.17191
0.64176,0.35824
0.79686,0.20314
0.72996,0.27004
0.71649,0.28351
0.88421,0.11579
0.70962,0.29038
0.68819,0.31181
0.68387,0.31613
0.79055,0.20945
0.68832,0.31168
0.78488,0.21512
0.88935,0.11065
0.81407,0.18593
0.78495,0.21505
0.69438,0.30562
0.83333,0.16667
0.82587,0.17413
0.80123,0.19877
0.76798,0.23202
0.71456,0.28544
0.57856,0.42144
0.80154,0.19846
0.87464,0.12536
0.63263,0.36737
0.80837,0.19163
0.73299,0.26701
0.29401,0.70599
0.81952,0.18048
0.7958,0.2042
0.75813,0.24187
0.73548,0.26452
0.81566,0.18434
0.65872,0.34128
0.77876,0.22124
0.86732,0.13268
0.82839,0.17161
0.75632,0.24368
0.78605,0.21395
0.76025,0.23975
0.81875,0.18125
0.73404,0.26596
0.73232,0.26768
0.68088,0.31912
0.44044,0.55956
0.73321,0.26679
0.77527,0.22473
0.83706,0.16294
0.55053,0.44947
0.7775,0.2225
0.8441,0.1559
0.6236,0.3764
0.62625,0.37375
0.69008,0.30992
0.78194,0.21806
0.74979,0.25021
0.81254,0.18746
0.86278,0.13722
0.70457,0.29543
0.49422,0.50578
0.73676,0.26324
0.66094,0.33906
0.87706,0.12294
0.66029,0.33971
0.65146,0.34854
0.91823,0.081765
0.73154,0.26846
0.80567,0.19433
0.90847,0.091525
0.87084,0.12916
0.68419,0.31581
0.66104,0.33896
0.70176,0.29824
0.77334,0.22666
0.85905,0.14095
0.73919,0.26081
0.88147,0.11853
0.63434,0.36566
0.74,0.26
0.62036,0.37964
0.63308,0.36692
0.89633,0.10367
0.72722,0.27278
0.72574,0.27426
0.81461,0.18539
0.71266,0.28734
0.7788,0.2212
0.78882,0.21118
0.7993,0.2007
0.87179,0.12821
0.90566,0.094342
0.81284,0.18716
0.73585,0.26415
0.91764,0.082361
0.83712,0.16288
0.81873,0.18127
0.79494,0.20506
0.80296,0.19704
0.86406,0.13594
0.81126,0.18874
0.77801,0.22199
0.60631,0.39369
0.93626,0.063744
0.8188,0.1812
0.58114,0.41886
0.76187,0.23813
0.79021,0.20979
0.8034,0.1966
0.80694,0.19306
0.73444,0.26556
0.83796,0.16204
0.75564,0.24436
0.72225,0.27775
0.61218,0.38782
0.67679,0.32321
0.7018,0.2982
0.75389,0.24611
0.84364,0.15636
0.8117,0.1883
0.82654,0.17346
0.83815,0.16185
0.84,0.16
0.65619,0.34381
0.77337,0.22663
0.86043,0.13957
0.582,0.418
0.76496,0.23504
0.84882,0.15118
0.84772,0.15228
0.85506,0.14494
0.87392,0.12608
0.64103,0.35897
0.73168,0.26832
0.63666,0.36334
0.4374,0.5626
0.74118,0.25882
0.7143,0.2857
0.75389,0.24611
0.76611,0.23389
0.58403,0.41597
0.81686,0.18314
0.7956,0.2044
0.63536,0.36464
0.74008,0.25992
0.83468,0.16532
0.83298,0.16702
0.62188,0.37812
0.78793,0.21207
0.76329,0.23671
0.75755,0.24245
0.77641,0.22359
0.84074,0.15926
0.78848,0.21152
0.74715,0.25285
0.80129,0.19871
0.89835,0.10165
0.7668,0.2332
0.69097,0.30903
0.83271,0.16729
0.56206,0.43794
0.84727,0.15273
0.85629,0.14371
0.88096,0.11904
0.77461,0.22539
0.6455,0.3545
0.7822,0.2178
0.69759,0.30241
0.794,0.206
0.78546,0.21454
0.88285,0.11715
0.80288,0.19712
0.77642,0.22358
0.69383,0.30617
0.7916,0.2084
0.63696,0.36304
0.63806,0.36194
0.83398,0.16602
0.85602,0.14398
0.79504,0.20496
0.65954,0.34046
0.77404,0.22596
0.8093,0.1907
0.78301,0.21699
0.83411,0.16589
0.77637,0.22363
0.62046,0.37954
0.67603,0.32397
0.75507,0.24493
0.83989,0.16011
0.75963,0.24037
0.65117,0.34883
0.88452,0.11548
0.87812,0.12188
0.5734,0.4266
0.62058,0.37942
0.80558,0.19442
0.75737,0.24263
0.63835,0.36165
0.82424,0.17576
0.74617,0.25383
0.87503,0.12497
0.723,0.277
0.6887,0.3113
0.72197,0.27803
0.7288,0.2712
0.72983,0.27017
0.78592,0.21408
0.60245,0.39755
0.68756,0.31244
0.74417,0.25583
0.69306,0.30694
0.80482,0.19518
0.59778,0.40222
0.78554,0.21446
0.82634,0.17366
0.76664,0.23336
0.85042,0.14958
0.65279,0.34721
0.75366,0.24634
0.70878,0.29122
0.76112,0.23888
0.78906,0.21094
0.77721,0.22279
0.78158,0.21842
0.54431,0.45569
0.72806,0.27194
0.61863,0.38137
0.88256,0.11744
0.69966,0.30034
0.61916,0.38084
0.6465,0.3535
0.83627,0.16373
0.69678,0.30322
0.7878,0.2122
0.5932,0.4068
0.73741,0.26259
0.7128,0.2872
0.77622,0.22378
0.89964,0.10036
0.55407,0.44593
0.66605,0.33395
0.72566,0.27434
0.73659,0.26341
0.50787,0.49213
0.60771,0.39229
0.71474,0.28526
0.67835,0.32165
0.78266,0.21734
0.83177,0.16823
0.58652,0.41348
0.52657,0.47343
0.58708,0.41292
0.77441,0.22559
0.74921,0.25079
0.65635,0.34365
0.70243,0.29757
0.64372,0.35628
0.67526,0.32474
0.80091,0.19909
0.60253,0.39747
0.64098,0.35902
0.60543,0.39457
0.63407,0.36593
0.86234,0.13766
0.5825,0.4175
0.77859,0.22141
0.62431,0.37569
0.77131,0.22869
0.79169,0.20831
0.58541,0.41459
0.73029,0.26971
0.84964,0.15036
0.6089,0.3911
0.72308,0.27692
0.74829,0.25171
0.69447,0.30553
0.73237,0.26763
0.67987,0.32013
0.77925,0.22075
0.59189,0.40811
0.84936,0.15064
0.77741,0.22259
0.82698,0.17302
0.76433,0.23567
0.79289,0.20711
0.70745,0.29255
0.77133,0.22867
0.49866,0.50134
0.72637,0.27363
0.8484,0.1516
