0.72826,0.27174
0.74179,0.25821
0.76632,0.23368
0.79416,0.20584
0.56742,0.43258
0.81576,0.18424
0.85941,0.14059
0.92566,0.074343
0.87175,0.12825
0.7163,0.2837
0.77039,0.22961
0.8611,0.1389
0.85853,0.14147
0.89684,0.10316
0.78512,0.21488
0.66679,0.33321
0.63674,0.36326
0.79549,0.20451
0.73807,0.26193
0.70553,0.29447
0.55155,0.44845
0.86504,0.13496
0.61507,0.38493
0.88695,0.11305
0.77944,0.22056
0.73307,0.26693
0.79149,0.20851
0.84914,0.15086
0.78764,0.21236
0.67904,0.32096
0.7854,0.2146
0.63184,0.36816
0.64956,0.35044
0.86641,0.13359
0.79754,0.20246
0.74998,0.25002
0.8753,0.1247
0.73907,0.26093
0.81956,0.18044
0.72532,0.27468
0.77419,0.22581
0.72505,0.27495
0.88805,0.11195
0.7919,0.2081
0.8709,0.1291
0.72434,0.27566
0.72907,0.27093
0.69965,0.30035
0.87086,0.12914
0.6976,0.3024
0.66957,0.33043
0.91402,0.085985
0.76171,0.23829
0.84906,0.15094
0.73439,0.26561
0.60742,0.39258
0.59177,0.40823
0.72619,0.27381
0.775,0.225
0.78759,0.21241
0.76989,0.23011
0.6515,0.3485
0.79734,0.20266
0.65647,0.34353
0.86979,0.13021
0.7545,0.2455
0.82487,0.17513
0.76369,0.23631
0.87039,0.12961
0.62167,0.37833
0.80283,0.19717
0.71409,0.28591
0.80031,0.19969
0.66396,0.33604
0.58322,0.41678
0.87547,0.12453
0.82534,0.17466
0.75003,0.24997
0.71907,0.28093
0.80611,0.19389
0.76803,0.23197
0.74394,0.25606
0.87289,0.12711
0.79358,0.20642
0.85844,0.14156
0.68973,0.31027
0.83575,0.16425
0.8223,0.1777
0.84246,0.15754
0.80774,0.19226
0.60251,0.39749
0.51847,0.48153
0.85815,0.14185
0.88556,0.11444
0.51459,0.48541
0.80249,0.19751
0.7857,0.2143
0.6871,0.3129
0.73122,0.26878
0.74843,0.25157
0.72329,0.27671
0.73198,0.26802
0.81763,0.18237
0.66801,0.33199
0.75734,0.24266
0.88946,0.11054
0.84487,0.15513
0.7471,0.2529
0.76777,0.23223
0.63404,0.36596
0.75352,0.24648
0.74111,0.25889
0.63643,0.36357
0.64511,0.35489
0.69667,0.30333
0.79416,0.20584
0.71106,0.28894
0.75189,0.24811
0.45134,0.54866
0.79093,0.20907
0.84402,0.15598
0.58336,0.41664
0.70971,0.29029
0.67527,0.32473
0.74266,0.25734
0.79958,0.20042
0.77918,0.22082
0.85772,0.14228
0.62915,0.37085
0.6856,0.3144
0.79069,0.20931
0.56068,0.43932
0.82499,0.17501
0.61678,0.38322
0.69104,0.30896
0.91058,0.089417
0.768,0.232
0.83036,0.16964
0.75426,0.24574
0.82668,0.17332
0.87974,0.12026
0.67267,0.32733
0.75251,0.24749
0.85894,0.14106
0.84511,0.15489
0.747,0.253
0.83539,0.16461
0.59841,0.40159
0.64587,0.35413
0.68908,0.31092
0.76987,0.23013
0.82794,0.17206
0.63847,0.36153
0.75074,0.24926
0.91427,0.085728
0.77123,0.22877
0.73487,0.26513
0.80043,0.19957
0.74905,0.25095
0.87765,0.12235
0.8199,0.1801
0.77953,0.22047
0.79182,0.20818
0.92729,0.072705
0.86004,0.13996
0.5986,0.4014
0.79308,0.20692
0.77005,0.22995
0.85991,0.14009
0.82048,0.17952
0.63769,0.36231
0.64791,0.35209
0.90932,0.090681
0.84706,0.15294
0.69851,0.30149
0.80161,0.19839
0.75243,0.24757
0.72473,0.27527
0.80553,0.19447
0.79566,0.20434
0.75852,0.24148
0.73893,0.26107
0.71215,0.28785
0.63331,0.36669
0.65472,0.34528
0.70081,0.29919
0.78225,0.21775
0.89896,0.10104
0.70038,0.29962
0.74606,0.25394
0.82501,0.17499
0.79355,0.20645
0.69283,0.30717
0.71217,0.28783
0.87435,0.12565
0.49203,0.50797
0.62378,0.37622
0.81927,0.18073
0.88361,0.11639
0.85813,0.14187
0.87205,0.12795
0.76046,0.23954
0.73775,0.26225
0.82872,0.17128
0.76262,0.23738
0.69704,0.30296
0.76629,0.23371
0.66269,0.33731
0.75573,0.24427
0.58198,0.41802
0.76649,0.23351
0.7281,0.2719
0.67106,0.32894
0.75937,0.24063
0.8558,0.1442
0.82938,0.17062
0.65555,0.34445
0.80488,0.19512
0.76637,0.23363
0.88746,0.11254
0.8007,0.1993
0.83499,0.16501
0.64312,0.35688
0.769,0.231
0.75939,0.24061
0.91686,0.083141
0.77135,0.22865
0.65463,0.34537
0.89165,0.10835
0.54412,0.45588
0.80971,0.19029
0.84015,0.15985
0.89955,0.10045
0.79819,0.20181
0.61776,0.38224
0.76455,0.23545
0.73084,0.26916
0.78556,0.21444
0.70165,0.29835
0.76338,0.23662
0.81568,0.18432
0.64417,0.35583
0.67905,0.32095
0.72173,0.27827
0.83247,0.16753
0.69586,0.30414
0.80382,0.19618
0.81283,0.18717
0.87586,0.12414
0.8008,0.1992
0.78069,0.21931
0.86118,0.13882
0.88175,0.11825
0.84097,0.15903
0.76648,0.23352
0.68808,0.31192
0.70145,0.29855
0.74553,0.25447
0.87727,0.12273
0.86626,0.13374
0.62432,0.37568
0.85272,0.14728
0.90017,0.099833
0.59514,0.40486
0.66278,0.33722
0.828,0.172
0.73414,0.26586
0.66934,0.33066
0.90169,0.098309
0.75843,0.24157
0.87529,0.12471
0.77093,0.22907
0.66668,0.33332
0.8117,0.1883
0.64717,0.35283
0.71152,0.28848
0.75082,0.24918
0.77745,0.22255
0.70279,0.29721
0.78494,0.21506
0.66127,0.33873
0.81866,0.18134
0.62559,0.37441
0.71425,0.28575
0.83547,0.16453
0.68461,0.31539
0.87958,0.12042
0.60439,0.39561
0.78483,0.21517
0.69721,0.30279
0.80099,0.19901
0.76202,0.23798
0.81475,0.18525
0.89711,0.10289
0.75579,0.24421
0.5845,0.4155
0.74242,0.25758
0.7845,0.2155
0.72237,0.27763
0.70854,0.29146
0.69322,0.30678
0.72053,0.27947
0.74561,0.25439
0.80699,0.19301
0.59803,0.40197
0.77955,0.22045
0.66427,0.33573
0.67434,0.32566
0.74179,0.25821
0.73812,0.26188
0.75805,0.24195
0.71115,0.28885
0.62019,0.37981
0.77156,0.22844
0.61341,0.38659
0.62685,0.37315
0.76546,0.23454
0.68644,0.31356
0.73125,0.26875
0.71881,0.28119
0.64965,0.35035
0.66498,0.33502
0.79482,0.20518
0.70706,0.29294
0.65786,0.34214
0.69809,0.30191
0.67986,0.32014
0.65426,0.34574
0.83566,0.16434
0.73877,0.26123
0.63838,0.36162
0.6323,0.3677
0.59499,0.40501
0.75436,0.24564
0.73047,0.26953
0.66764,0.33236
0.53698,0.46302
0.64217,0.35783
0.7655,0.2345
0.69203,0.30797
0.69157,0.30843
0.77991,0.22009
0.77231,0.22769
0.65255,0.34745
0.70372,0.29628
0.72574,0.27426
0.66263,0.33737
0.715,0.285
0.81234,0.18766
0.76291,0.23709
0.74654,0.25346
0.6772,0.3228
0.85478,0.14522
0.72004,0.27996
0.73785,0.26215
0.63623,0.36377
0.73396,0.26604
0.63997,0.36003
0.64867,0.35133
0.83775,0.16225
