13.86,314,16.249,370,13.884,370,16.296,366,8.5065,414,12.708,366,16.145,370,12.655,370
9.3498,302,16.89,390,12.783,394,17.341,386,15.092,462,15.913,470,17.252,474,28.086,470
12.254,354,16.741,446,10.419,462,2.8854,354,13.974,378,8.3411,382,0.5494,382,11.564,382
-1.7642,298,-5.5277,258,-2.4564,302,1.9214,462,3.4854,450,3.0225,450,2.0132,354,17.882,346
9.4601,486,4.1569,446,8.4916,470,6.0813,450,3.8884,486,3.5376,374,3.2182,370,11.256,466
7.297,494,-0.2986,286,7.1137,294,-2.2901,446,5.5862,426,11.882,434,2.211,446,25.874,442
1.6399,414,7.6177,282,7.944,290,8.4198,362,6.9665,414,17.744,362,23.803,442,8.2133,370
4.217,326,14.23,334,11.93,342,13.669,322,9.1341,470,18.918,470,24.36,494,5.5063,466
15.608,338,24.067,334,10.613,330,10.773,330,5.373,462,15.352,466,9.7029,458,20.429,462
5.1637,466,19.594,470,10.75,322,18.694,450,7.9028,294,6.6879,306,15.446,314,22.615,310
11.56,294,14.144,294,10.997,406,19.714,294,12.542,350,10.396,298,12.389,390,14.349,446
2.9865,298,3.1874,410,4.3804,418,3.8821,430,9.5432,438,7.7931,434,5.1803,434,14.685,266
1.1228,446,-6.3266,366,4.5657,298,-1.246,274,3.3418,446,3.7041,418,-2.357,286,5.3359,478
12.719,386,1.3274,454,5.2252,454,8.2533,442,10.705,482,13.845,482,7.8852,434,21.498,482
9.8351,386,11.149,466,12.057,466,11.37,378,17.166,490,34.905,486,15.745,482,17.14,486
4.0381,322,17.707,342,7.2681,350,13.006,330,12.805,322,17.886,318,10.397,470,9.5439,302
9.8088,322,14.214,314,10.977,378,5.7868,406,5.1513,410,2.3291,402,10.768,390,0.2409,390
4.1735,422,13.506,402,7.0534,258,9.5222,406,5.1419,414,2.1491,286,7.2304,370,7.4105,374
7.123,286,12.96,290,12.697,394,13.031,474,3.3396,294,0.8379,474,12.684,482,21.412,470
1.8623,338,18.334,462,5.3366,294,14.079,290,4.2582,290,7.6257,294,10.038,290,5.8592,410
-3.3643,394,-1.4733,390,-1.2124,394,-4.1313,378,-4.4846,366,-3.3209,366,-2.2792,270,6.9255,270
1.8461,466,11.76,462,3.3559,462,6.8473,458,4.1079,278,1.5344,278,4.02,414,12.644,418
6.8141,378,7.6724,378,9.8002,278,2.267,278,16.578,406,16.92,406,3.7136,322,33.046,322
4.5743,258,-8.4584,322,-0.228,366,10.295,418,18.915,346,31.523,494,18.432,354,34.77,414
4.1067,274,9.113,302,15.703,306,9.8879,402,12.45,406,26.189,406,24.201,402,8.6469,406
5.6549,282,2.6774,294,7.0235,302,5.8177,294,-1.7773,394,2.7377,398,17.689,402,-4.8343,402
3.9959,330,26.019,406,8.292,414,31.764,406,5.0856,318,19.723,310,35.084,306,23.334,306
6.73,438,15.422,266,5.8171,278,10.162,262,-2.2136,318,-10.74,318,2.9152,266,0.8015,258
8.7906,262,24.65,314,11.001,262,26.851,314,14.605,418,22.67,418,12.14,322,28.63,422
9.1346,454,11.112,450,9.1944,458,6.0989,338,10.487,330,11.89,334,10.463,334,14.893,334
14.634,494,6.7037,390,8.778,438,11.921,394,8.2233,494,8.0559,486,6.0929,394,11.529,486
13.22,378,23.301,298,10.339,298,16.68,298,13.031,302,20.709,302,21.488,290,28.307,290
1.121,382,7.9274,394,4.1511,418,13.148,290,14.217,258,19.589,438,21.698,430,35.393,258
4.0826,462,19.615,486,9.2018,490,12.266,322,8.8275,422,7.654,322,13.789,318,11.031,422
37.137,390,12.224,466,-3.5177,478,15.583,462,26.663,398,15.576,318,12.087,322,17.55,470
4.0963,354,10.493,302,5.2967,342,11.394,298,2.2261,382,12.53,382,9.2058,382,13.541,382
-0.6334,390,0.5899,386,1.344,382,11.85,470,4.3747,466,21.724,470,7.8799,474,9.0622,358
16.135,298,7.6951,310,6.1567,442,7.8925,314,11.838,466,12.861,262,7.5865,330,20.041,334
9.5688,482,10.945,470,7.4397,462,16.207,462,18.345,278,23.337,458,15.727,462,26.945,278
7.9464,394,18.193,366,5.3448,418,12.121,366,17.043,390,13.435,366,19.287,458,45.045,458
13.639,342,17.636,306,7.7856,310,14.914,410,11.68,338,13.073,490,20.154,470,21.025,470
14.228,302,16.951,302,4.1363,370,13.894,446,11.234,438,10.264,438,5.2691,438,11.196,438
10.91,390,18.416,350,6.5196,258,13.089,398,20.849,402,14.822,402,22.844,482,22.637,482
7.3364,446,12.075,418,8.9762,422,17.231,282,8.0433,390,9.8496,366,13.542,366,22.659,362
8.1424,358,8.9967,362,4.8435,470,11.6,362,7.657,354,3.3152,294,4.3896,474,9.5594,294
12.709,322,24.794,330,13.945,430,16.323,326,9.686,374,9.7496,326,9.7138,494,6.7441,494
3.8949,338,1.3656,470,-0.0928,474,1.662,282,11.787,282,15.192,282,12.285,282,26.739,282
10.726,474,9.9103,350,12.544,466,4.7328,350,5.3103,438,6.9852,282,14.342,282,16.544,282
7.6408,470,1.1581,410,6.2092,482,6.1737,482,8.7865,410,14.499,402,12.143,310,25.691,314
8.5811,362,20.396,286,9.7466,290,15.88,286,10.584,314,20.253,314,21.212,302,32.517,314
6.2653,282,31.106,482,16.01,486,27.359,478,0.8406,334,0.2645,326,9.042,322,4.0207,326
6.7598,302,17.208,470,11.72,486,20.39,466,15.235,358,14.602,342,16.818,466,20.942,346
5.2595,390,4.027,382,4.4164,370,11.36,354,13.386,398,9.6597,310,13.023,350,12.991,310
7.985,450,22.839,446,15.323,450,8.3246,314,0.9425,310,2.3314,314,3.142,318,0.6705,318
9.3225,306,7.4587,290,6.6395,494,14.637,278,10.488,266,15.884,270,10.326,274,9.0834,410
10.586,474,0.2868,466,2.702,454,14.842,462,15.864,286,23.004,286,12.976,286,29.525,286
5.7947,326,15.519,378,9.7712,370,27.866,374,19.122,418,20.454,374,36.103,370,31.712,370
3.2544,358,-0.1141,378,-1.3415,374,-0.3211,390,5.8387,398,3.6936,398,-1.9639,434,15.643,258
4.808,330,5.7188,286,5.2944,298,3.7583,466,2.8377,462,15.124,462,8.1652,462,14.558,462
15.732,414,15.509,286,19.644,290,21.747,362,16.735,258,30.712,358,18.086,442,23.308,442
10.471,398,8.3655,314,5.3076,330,13.006,302,9.499,294,6.0118,482,14.048,486,1.4135,482
10.223,382,28.627,318,11.094,318,27.706,318,6.0863,314,12.068,314,13.693,314,5.4555,294
0.1031,482,25.44,454,16.595,266,17.622,270,8.5502,378,14.133,270,21.938,274,22.757,374
26.499,434,23.058,486,6.5292,494,11.599,486,17.233,450,6.2452,434,1.7504,494,6.4367,418
19.69,298,17.5,402,-0.7391,450,29.376,410,17.026,298,17.566,406,17.015,406,14.485,410
10.012,458,18.012,466,6.5534,450,7.5624,366,5.2108,426,5.8516,426,3.8871,274,11.148,426
8.9219,418,-1.6035,338,5.6885,338,1.7699,342,1.2248,382,-0.0509,258,8.0113,262,8.7718,354
7.3982,278,13.766,282,7.054,282,18.103,378,18.389,414,20.81,394,25.975,390,33.843,390
5.1487,390,5.5573,462,10.427,258,8.0928,382,1.8647,386,16.44,382,5.9209,466,15.172,378
4.9443,482,13.163,478,6.4282,282,9.9399,294,16.067,338,17.951,470,15.83,302,11.801,338
11.163,350,15.353,298,11.549,462,9.6157,258,14.236,342,10.669,338,20.093,466,10.872,338
7.0587,278,14.544,286,5.6883,286,5.6446,290,3.9976,418,1.8779,342,7.221,302,3.8607,330
1.2733,266,5.4719,290,6.5896,262,8.5178,266,5.7568,418,1.4713,418,15.411,346,13.966,422
6.014,482,4.5284,378,4.2531,262,12.799,374,12.205,362,6.8649,414,12.902,402,8.3593,414
6.4408,278,10.961,462,5.2329,478,4.0729,466,9.2524,318,-0.2145,322,-11.934,310,-3.2149,326
10.869,478,10.95,258,9.3045,350,12.245,326,7.2815,318,9.0941,322,9.5153,318,26.554,318
18.036,302,15.786,298,15.649,390,15.913,298,16.997,342,17.681,358,11.915,358,35.703,358
12.766,486,5.1666,482,10.484,266,5.0184,466,10.659,302,10.956,470,-0.8708,370,15.864,306
10.668,290,9.9949,418,14.268,430,12.402,318,7.804,302,16.937,314,10.23,322,16.03,322
7.2778,310,12.993,414,1.054,410,6.75,350,6.4118,274,11.578,274,8.1492,342,11.217,270
3.4587,282,10.447,278,3.1901,270,6.5929,286,11.295,458,9.0984,458,14.511,418,9.8681,334
10.562,302,13.294,390,2.3282,390,11.102,386,11.757,490,14.504,494,17.113,490,16.25,446
2.1062,438,2.5563,414,4.4536,414,0.0227,258,2.1257,266,0.4126,266,7.2227,258,7.7406,266
14.954,258,15.097,258,8.1713,418,14.03,494,8.1912,258,12.071,338,12.331,390,12.846,322
4.8897,342,7.2593,294,2.458,294,5.9148,290,1.3961,474,3.7915,470,9.8217,470,24.773,470
4.7818,318,5.155,310,11.167,302,11.635,306,4.0249,414,12.202,414,9.7209,298,21.04,490
10.961,438,17.868,486,7.8257,486,13.633,478,12.557,462,13.978,470,17.301,478,12.388,406
2.1203,338,6.8302,486,3.2084,430,7.1638,490,9.2078,334,3.1176,474,7.5032,258,13.042,258
2.2395,286,7.1861,374,6.4637,266,4.4144,306,0.5804,358,-1.3305,462,1.8413,310,-3.0445,482
5.7176,350,7.0017,398,0.3424,398,5.6584,394,8.3016,494,16.561,494,5.0003,394,5.3149,378
-6.5637,478,7.5761,298,8.8048,298,8.0987,298,1.929,334,10.925,338,8.8399,346,15.677,342
10.389,442,10.384,450,6.1653,474,7.5583,362,9.1477,354,6.2416,362,2.4919,290,7.8545,418
1.0749,410,8.0352,322,4.367,330,9.3776,366,8.5734,462,8.3974,330,10.083,474,23.373,354
6.311,358,9.3423,294,7.3662,306,16.811,298,4.9999,290,13.546,362,11.803,298,20.327,358
7.1984,438,-0.9614,326,7.9525,334,0.9513,326,3.0291,294,4.2135,294,10.095,294,30.594,294
11.68,414,1.32,262,-4.082,298,4.8821,266,15.427,346,16.252,350,4.7154,370,28.938,358
0.8981,394,14.351,258,5.2497,258,8.9197,342,14.019,298,29.115,298,14.288,294,21.286,294
22.014,450,15.754,466,-2.395,258,4.9069,290,17.02,426,16.36,282,24.322,310,10.32,350
4.0028,422,15.531,418,0.2401,354,12.726,466,6.2035,450,9.1339,470,20.906,486,22.335,478
9.1803,438,16.048,362,14.492,298,31.735,398,19.886,390,27.886,390,30.207,390,49.864,390
13.836,418,19.596,418,10.424,278,19.298,418,10.183,358,7.6249,258,9.0729,270,14.287,262
0.5714,410,7.2804,402,2.3503,482,10.518,402,13.151,410,13.2,406,11.567,390,16.737,394
5.694,474,-6.2331,318,-2.4858,322,-4.7732,482,4.2494,466,-0.4733,278,4.4918,278,6.6344,422
13.82,330,0.6198,314,3.0564,306,5.9525,314,14.422,430,20.122,386,17.384,394,36.326,390
10.285,330,-4.4373,334,1.5896,278,2.1735,278,6.7394,326,20.464,406,6.1619,406,35.368,406
4.0723,398,14.603,270,7.2651,370,7.6636,270,4.5021,298,7.8099,298,14.018,290,6.6359,266
-5.8842,318,-4.5607,318,2.3525,306,12.579,310,4.107,314,11.39,314,24.065,402,27.871,402
5.3637,306,10.974,294,11.976,282,8.1933,470,7.502,450,6.7074,450,11.444,458,12.238,450
13.949,294,12.914,278,9.9802,274,14.931,406,11.736,310,9.447,406,11.97,334,18.529,494
2.707,482,20.078,430,5.2115,310,16.693,458,4.5432,298,12.132,298,15.921,314,8.418,298
-4.9034,318,-1.9594,326,-2.9372,354,-2.7624,326,-1.4299,402,0.767,402,-4.0056,298,15.271,398
15.998,494,14.582,294,7.0907,406,18.311,494,12.571,458,7.0141,458,1.2208,378,19.632,458
11.588,278,18.188,278,8.4211,346,16.257,346,17.173,462,21.266,350,20.42,338,36.535,334
3.8254,470,4.3294,378,6.8871,294,6.3788,394,7.7389,442,21.562,442,6.4399,330,19.54,442
6.9837,278,-0.0825,474,11.342,394,4.2257,478,9.0827,370,24.147,370,12.466,354,6.4156,342
11.249,402,11.27,402,8.8304,414,13.267,406,0.4201,406,3.7576,302,21.159,470,8.9516,290
3.5744,290,21.054,394,15.356,290,23.682,298,11.989,310,14.014,410,24.793,306,22.014,318
4.2571,426,4.2894,430,2.1281,442,10.974,362,6.2648,406,3.1776,294,8.4262,290,17.896,362
6.5857,458,7.6012,262,3.8708,262,10.842,262,13.314,494,6.1903,262,9.8405,394,11.109,266
15.673,470,7.0246,462,1.3225,262,10.477,318,10.616,310,9.3684,318,3.1192,318,11.403,310
7.2598,482,8.8819,258,12.69,266,11.507,310,13.797,398,7.8879,294,17.341,306,23.211,306
10.062,414,16.485,414,13.552,314,14.091,306,24.105,454,22.297,458,25.418,302,33.237,290
2.8077,266,6.6256,270,9.3984,270,10.18,262,14.915,346,19.264,346,17.463,350,32.656,346
0.0698,374,3.4975,382,3.529,390,12.529,386,6.8087,490,16.679,390,19.813,386,14.06,394
6.1074,414,0.5205,434,6.6943,434,-3.4627,314,5.3428,362,-1.8745,318,-3.8928,302,-7.05,310
1.3399,482,14.248,482,9.3438,282,12.833,278,3.8895,322,4.8207,334,12.74,338,8.7818,438
-0.0579,446,3.9317,318,4.9999,322,9.3807,318,3.8173,382,6.943,386,7.6631,322,13.551,270
10.626,310,0.8078,386,-6.2461,398,3.0604,386,11.574,470,15.945,390,10.393,394,31.258,398
12.299,258,9.1323,258,0.6063,262,15.288,378,16.102,374,27.407,374,15.543,378,17.952,374
12.227,410,6.3784,410,-0.4269,410,4.6889,258,15.981,438,15.286,438,13.575,438,23.552,442
8.5786,438,9.235,338,7.738,274,5.951,374,0.5508,386,0.3022,378,4.654,374,3.5974,294
4.1411,486,18.254,490,9.4576,402,16.988,402,12.313,466,12.069,290,16.92,306,19.649,306
16.817,310,22.409,466,11.45,298,19.317,474,13.374,478,5.4023,478,7.2409,262,19.757,346
8.8538,306,13.185,478,8.2153,378,14.603,438,5.4899,326,3.797,434,15.581,338,17.345,334
7.8612,258,0.2111,482,-0.4985,314,10.91,262,3.5241,266,5.8164,262,1.1025,362,10.377,366
2.2024,494,8.4568,258,6.6254,442,10.394,446,8.6983,302,3.2618,298,8.8148,450,11.583,298
-1.0693,410,3.8542,294,4.7833,354,2.7451,446,7.3816,434,21.442,438,18.585,442,41.317,442
1.6761,302,-8.9792,382,0.3856,306,-2.881,302,11.783,298,9.0867,298,8.6386,450,12.029,270
15.114,434,3.1835,426,6.1125,486,4.0835,414,9.6571,298,16.843,298,6.4628,298,10.868,298
25.526,438,16.317,450,8.9128,462,0.0212,462,4.377,430,7.282,418,12.947,466,-2.4138,290
8.9332,418,21.579,414,8.5498,298,31.021,306,12.858,306,16.287,306,17.229,306,16.633,362
4.7531,346,18.482,274,11.32,258,20.502,262,8.5909,438,10.244,494,18.509,262,15.771,386
6.123,394,11.542,386,7.1312,286,14.724,314,12.681,418,12.69,258,16.213,314,15.924,474
16.73,402,25.703,394,12.95,478,23.798,394,15.128,406,14.025,402,12.746,394,2.7657,330
5.4951,306,17.468,418,16.847,286,22.904,426,6.9861,434,20.285,434,19.171,430,15.515,438
15.483,438,13.624,438,7.0449,322,18.634,326,4.0694,394,12.284,466,16.354,318,19.682,314
-7.9175,286,8.3968,270,12.942,278,14.243,262,4.7232,334,3.7693,334,19.616,334,13.538,334
11.436,410,10.336,402,7.0811,494,4.7303,406,8.3325,438,1.8841,342,4.3056,342,21.813,342
1.6513,342,-5.7611,314,5.184,318,-2.2214,310,6.3086,474,15.626,474,7.386,266,21.822,478
20.39,390,17.957,294,15.039,298,7.7957,290,12.778,414,17.795,406,12.215,286,7.9385,354
1.0229,310,4.3921,382,0.0064,494,11.142,490,14.634,486,5.6245,418,21.034,378,16.736,414
8.2361,466,15.952,470,0.1736,422,14.435,470,8.6381,478,8.2331,478,7.9033,310,3.7834,310
9.5522,302,23.612,298,11.005,298,8.8233,294,9.4855,346,7.6684,350,14.027,494,23.204,350
33.183,462,30.405,474,7.3881,470,17.325,474,16.568,326,3.5255,326,6.4351,326,8.6724,326
24.821,490,24.081,494,4.014,262,19.565,402,16.611,394,13.502,402,7.2676,322,11.725,318
0.7883,390,5.2411,378,5.5625,374,1.53,362,5.0343,310,0.7986,266,5.603,354,19.346,354
8.3015,274,3.3311,458,6.4989,450,1.6094,454,4.6703,366,8.7788,362,9.9683,362,16.966,362
4.9601,378,4.5827,302,5.0375,302,9.3296,298,13.121,422,15.555,474,13.736,282,21.698,282
13.302,454,14.627,402,18.616,398,18.019,402,2.4724,426,16.422,410,15.669,402,19.836,406
9.7458,318,17.913,322,17.077,322,16.854,314,3.4832,474,16.698,310,16.881,482,14.375,478
4.4857,474,17.878,482,2.1402,482,3.6824,482,9.861,390,3.7788,394,19.861,398,15.78,394
12.82,342,18.708,334,12.553,330,16.609,274,13.809,266,18.781,262,15.348,378,14.749,266
5.8007,422,6.1285,490,4.1548,478,1.4839,482,0.5524,366,0.2678,478,6.6865,306,1.533,310
3.9789,350,7.4272,350,13.168,482,0.0048,374,5.2743,294,5.9687,330,7.6808,330,9.5745,330
-1.5695,302,0.3192,438,-1.4404,258,-3.4487,438,-0.8032,302,5.2487,406,9.0532,398,13.218,406
8.3345,290,13.549,354,3.4577,350,13.982,338,3.8007,302,9.0002,322,15.352,346,22.367,370
7.5235,338,5.3256,262,4.8009,314,5.6387,466,15.496,342,15.632,462,17.27,286,34.929,286
12.337,354,20.613,354,11.57,350,20.669,354,11.37,358,20.269,362,13.091,442,19.392,442
10.505,314,8.6197,306,10.931,306,5.5186,314,8.1612,490,7.9325,310,6.3364,434,-0.1053,430
5.4575,310,10.204,306,4.8186,310,6.2256,310,4.1737,318,10.061,422,8.7242,334,14.494,414
9.1721,462,8.8826,334,6.78,486,10.086,322,7.4553,322,13.363,322,24.996,318,16.343,318
12.983,450,14.385,310,5.208,426,10.765,430,1.9607,438,-1.0312,286,8.9671,430,4.8804,434
9.8789,426,7.3203,262,4.9979,266,5.6634,266,9.0359,282,7.0286,294,7.5502,302,22.848,382
18.052,466,24.954,394,11.109,302,20.806,486,6.3164,430,6.7101,494,15.85,490,-0.3516,362
20.113,438,12.237,358,11.08,358,17.144,434,19.127,338,12.396,338,7.9517,342,18.766,342
8.9779,478,8.5672,378,2.2234,378,7.2852,474,9.5262,486,12.754,486,8.9958,330,25.961,330
6.7932,310,14.734,298,6.7782,418,11.315,366,12.634,390,15.456,390,14.576,282,12.932,282
7.6748,374,20.685,366,12.329,266,22.8,366,16.637,486,21.012,490,18.606,358,10.63,318
-0.9156,402,6.416,418,4.3394,314,4.359,418,1.1748,306,3.8243,346,7.84,490,17.086,350
1.9813,446,-4.4838,386,5.5811,334,4.4529,386,0.5304,414,12.303,306,17.425,302,18.829,306
-1.1827,322,7.0579,322,10.109,318,6.9408,310,9.0089,398,11.122,402,10.012,302,14.81,298
2.3795,370,4.3517,378,3.8765,382,12.696,314,9.824,310,10.735,318,20.481,318,28.793,322
9.5809,370,17.789,398,8.0086,402,6.7864,258,11.105,374,8.0386,378,10.354,262,11.589,262
9.8561,446,7.9638,302,4.9278,418,6.153,390,5.9471,318,7.6882,490,1.5256,282,9.9879,422
13.369,330,15.607,326,7.7548,330,9.1195,326,1.6963,394,3.9103,258,-1.2227,418,14.997,462
0.7264,306,8.038,310,11.4,318,13.893,306,11.197,482,14.562,298,12.37,290,16.138,294
1.6267,326,2.088,402,4.6566,406,6.5433,394,11.218,330,22.224,462,23.962,454,14.29,342
4.8702,474,18.746,282,15.796,278,10.639,298,9.9751,422,13.726,422,25.024,458,9.4838,466
3.6221,442,15.086,458,0.699,270,13.278,458,7.8392,434,8.4689,446,8.3567,454,18.245,262
8.9627,258,8.9667,446,1.9581,306,17.944,486,4.4317,338,7.9637,266,12.168,274,19.289,270
10.137,382,21.583,378,8.0618,486,17.217,374,9.4238,334,8.6683,418,14.896,422,17.973,414
2.4795,290,2.3136,370,6.102,278,1.1584,366,7.2861,302,8.3539,486,5.4211,370,16.29,310
2.5754,378,-5.5133,270,5.6303,490,-1.6352,490,7.2785,310,4.221,310,-5.2063,490,10.553,490
8.1512,346,-1.4357,454,-1.3419,314,-2.3733,454,4.5316,478,4.1833,478,1.6454,478,23.22,278
12.458,458,6.2299,446,-1.3509,442,3.664,438,6.2871,438,21.284,438,0.8364,438,6.127,294
10.857,302,15.425,386,9.3941,286,16.451,286,13.155,378,21.741,462,24.11,458,21.136,382
9.0514,486,4.7283,486,2.7718,406,6.3893,486,4.9711,490,7.9694,258,21.744,422,19.863,422
2.4496,474,14.372,478,22.545,478,8.7016,490,4.6509,394,7.4886,394,22.116,406,21.758,406
5.3664,314,17,302,6.5873,306,19.321,306,7.7756,406,7.0923,322,8.5039,298,5.9675,462
-4.0856,394,10.624,358,4.7126,306,13.832,358,5.1715,354,13.322,354,15.962,362,9.2338,358
8.5795,402,15.044,402,9.0101,410,11.611,402,4.2413,398,2.693,326,-2.1623,334,1.7887,338
12.038,334,18.565,366,18.8,310,20.853,370,6.5389,274,5.6123,274,10.475,370,18.442,366
10.94,342,9.7243,366,2.4522,362,13.882,350,15.521,350,1.8397,466,7.1532,458,25.097,458
11.354,486,-2.5409,350,4.1614,338,3.848,350,13.14,362,18.834,422,9.6305,310,12.74,314
5.2909,462,0.2423,354,12.366,358,5.7198,354,8.6515,466,20.003,330,17.166,354,2.458,326
4.0745,486,7.9038,326,19.131,370,8.4728,310,2.8066,478,0.7813,478,16.876,262,4.0021,466
7.3654,378,19.244,374,10.246,306,21.229,446,10.8,434,23.397,342,23.114,442,36.188,438
5.6738,350,11.078,374,4.7193,294,18.046,386,3.7173,386,5.6644,386,6.8175,390,22.911,462
-0.0428,298,-1.5029,266,4.811,270,2.8132,258,17.011,374,12.471,378,0.3195,382,22.613,378
9.846,394,7.4677,398,4.0502,294,5.9325,294,15.903,494,14.219,494,8.3333,494,12.342,494
18.568,414,14.494,474,12.539,482,9.195,474,5.7751,426,12.063,366,11.772,370,16.917,382
10.552,330,15.353,338,10.233,338,10.219,330,11.567,290,11.936,326,13.232,326,11.842,322
7.0205,370,4.0131,418,3.8178,474,6.1462,258,8.5885,430,17.309,426,9.2876,418,24.25,434
0.4763,366,-4.349,470,7.4739,318,4.9374,450,8.5749,450,11.711,450,14.092,450,14.905,446
24.222,402,9.3296,298,-1.1084,302,5.0012,298,18.72,342,8.8186,278,1.9175,286,11.587,270
11.181,362,27.165,362,20.517,358,15.402,358,1.6413,290,12.37,450,13.141,490,6.3732,490
6.7879,338,8.364,342,7.5321,278,17.958,338,11.027,426,18.207,338,13.423,326,16.869,438
5.9215,270,8.5832,382,7.8192,350,6.0795,386,14.506,482,8.8991,394,8.3806,394,23.92,306
22.162,298,13.424,298,9.3702,294,14.947,374,13.392,370,18.078,370,15.148,494,21.875,342
17.125,370,9.8945,374,-3.3218,378,3.2548,298,21.24,426,22.846,430,16.996,450,48.116,438
0.1341,330,0.1666,354,3.9007,426,0.5532,358,-11.672,402,5.5306,286,6.6073,278,1.7587,374
11.94,386,13.671,266,4.197,258,18.024,346,13.823,346,14.936,342,14.646,342,12.341,338
11.445,338,22.381,334,11.801,342,11.777,394,9.9556,402,11.113,394,14.483,486,16.355,482
12.359,442,15.836,422,10.268,402,9.6971,398,4.5971,458,6.6001,350,6.5356,402,6.2579,338
7.4255,478,13.193,306,10.231,410,9.072,402,10.076,462,-3.8139,310,11.588,406,12.898,406
3.4661,434,7.6829,442,5.935,434,1.4368,462,4.6052,410,0.3237,410,1.2955,462,13.016,410
14.743,494,-1.1206,290,-4.6956,346,5.5198,290,6.909,294,11.668,290,3.951,290,5.0628,282
1.7155,282,2.2888,278,8.5248,386,1.7274,286,6.1602,426,4.0805,422,10.493,430,20.231,434
12.574,298,29.608,410,18.358,414,11.419,410,18.676,466,31.687,470,21.442,494,32.494,470
14.445,342,15.108,346,6.0741,310,7.214,342,5.3421,402,14.169,406,19.96,310,19.785,306
11.598,462,20.861,406,8.5727,398,23.85,406,6.0965,422,5.8422,306,17.003,306,6.0785,302
-0.1015,442,15.412,294,11.431,298,17.866,326,13.312,490,12.945,330,21.573,486,24.866,490
12.449,326,16.732,326,15.105,470,8.9505,322,6.5611,410,3.3686,494,5.2857,306,2.7263,490
4.5517,362,10.126,450,7.2975,302,6.3437,450,16.302,374,12.688,374,12.176,306,14.858,450
6.8176,302,9.7303,274,7.7282,286,16.416,262,3.5325,262,13.768,266,4.0523,262,14.24,342
12.718,366,6.4818,370,7.3139,466,3.2363,414,7.7702,290,7.4324,318,9.2916,310,13.495,306
1.0927,370,4.5115,262,1.5755,274,11.503,350,7.6369,358,11.39,350,26.35,346,21.934,346
15.897,334,15.614,342,15.407,354,4.3877,358,12.512,390,3.712,302,6.2685,302,22.935,302
10.625,354,6.2608,398,5.691,342,8.2715,354,10.024,354,17.4,354,3.2066,322,9.1646,314
8.3978,466,9.3332,434,18.863,430,12.813,434,10.618,270,26.7,390,19.032,390,17.154,274
1.4019,378,-3.052,454,6.2735,290,8.501,314,17.006,386,18.299,326,26.041,478,25.711,486
-2.362,282,-1.593,386,4.0021,478,5.3535,334,2.5194,370,8.7634,342,13.395,342,19.867,350
6.4047,486,21.425,490,2.0711,490,8.5204,494,7.0798,302,7.0562,302,6.3354,414,15.846,306
13.8,462,4.4221,274,2.0093,258,2.9534,270,12.791,434,-1.6526,458,5.2048,262,10.061,462
9.6633,290,21.378,270,3.3748,390,23.642,262,10.51,426,10.945,350,15.008,434,19.666,434
10.458,258,12.405,266,5.5365,270,12.051,354,1.5626,294,-4.0988,298,-1.588,362,7.5648,398
7.2098,442,2.039,342,3.2072,338,-3.269,298,0.1958,294,1.18,298,1.2699,302,-2.6498,298
15.296,462,13.217,458,8.3943,462,12.743,374,10.414,370,24.563,370,17.81,370,21.323,370
3.8354,262,-4.4951,258,1.0332,390,5.0892,302,5.5543,326,17.349,286,3.0994,290,23.616,322
8.9175,430,15.415,418,8.3833,334,8.6406,414,8.1242,402,15.735,406,12.067,406,6.6229,402
-0.6012,338,0.3462,398,-3.8132,418,0.5747,482,11.152,290,11.075,294,14.906,478,16.998,294
8.016,290,1.3249,290,4.1853,274,5.5662,270,9.2264,322,6.4804,322,6.2353,418,0.9824,490
6.9125,454,4.7962,446,2.0997,354,6.982,438,9.4248,278,0.2418,278,6.179,494,11.499,482
8.1549,286,6.0582,282,1.6702,318,11.599,354,9.4056,366,8.0797,358,17.369,354,10.215,354
-1.9883,290,2.7646,402,10.317,406,1.0707,266,2.9878,278,2.4258,278,-0.2126,278,4.9391,262
7.9823,306,13.334,302,2.6927,310,15.069,494,9.0599,474,12.517,278,14.871,278,30.759,278
7.746,466,6.7202,442,5.5913,446,16.704,446,17.066,270,21.422,278,21.133,338,36.81,446
16.493,414,9.2931,290,5.031,318,18.079,406,16.419,414,28.251,406,11.36,318,23.898,322
9.2915,358,13.031,434,11.286,422,13.011,346,3.2569,446,15.315,350,11.569,342,10.549,346
0.9712,274,15.11,466,14.702,470,12.877,294,5.7393,494,10.754,298,7.7825,290,4.8762,294
4.7887,350,16.352,258,10.529,338,13.051,342,10.921,350,10.391,346,14.429,334,4.725,314
4.1939,434,19.275,434,7.7745,438,12.708,338,1.3749,318,5.6556,322,12.431,326,7.9119,318
1.2695,390,-4.367,390,-2.4602,330,1.5952,390,8.4633,394,2.6781,306,9.9376,422,28.13,302
9.6084,466,14.027,458,10.14,330,15.364,334,3.9344,426,16.797,426,13.411,426,18.022,422
23.907,270,14.434,270,3.3708,266,13.504,270,8.9865,274,10.774,306,8.3785,318,27.714,314
2.741,390,5.0758,390,17.226,418,5.2646,378,20.813,446,16.484,454,3.2344,310,23.938,454
3.2289,458,10.164,410,12.579,410,11.613,310,10.695,298,18.663,302,23.647,306,22.278,302
9.153,258,15.908,370,2.1956,366,15.991,370,18.591,494,16.596,494,3.4778,370,5.4458,494
16.904,442,12.717,394,0.0637,362,0.6337,442,-2.4737,302,-6.9445,334,-4.8266,322,-11.018,314
0.707,350,-0.2698,410,0.5566,414,2.8514,414,7.9277,482,21.87,478,15.261,410,26.041,478
11.778,478,13.598,486,9.1955,486,9.8958,486,17.688,478,14.671,482,7.5479,438,13.728,430
10.859,326,11.308,290,12.102,398,13.007,298,6.5882,306,8.2065,430,14.31,426,26.603,426
6.8077,262,5.0213,258,8.3499,310,5.0986,374,6.3254,370,5.1293,374,8.0983,314,12.963,314
5.7559,294,-0.9998,318,2.3082,462,-2.4003,466,-0.3047,394,0.5793,394,2.2188,366,17.386,458
6.9653,274,8.537,286,6.9422,294,-0.765,282,4.7766,266,3.423,266,1.5506,390,15.139,390
11.299,430,6.1838,422,2.8456,406,8.1201,414,16.734,462,17.304,390,15.7,398,21.779,390
3.8933,370,10.278,314,9.2447,314,8.8739,306,6.5471,430,12.473,294,14.506,398,4.3977,274
-1.2884,278,11.752,422,11.387,414,12.623,422,0.1873,406,10.348,406,23.06,318,5.604,318
9.7929,466,22.462,486,9.4771,490,15.291,474,6.2585,466,8.0955,470,13.899,306,7.9892,322
13.496,434,15.406,358,9.8136,358,27.022,358,16.893,402,18.234,290,28.299,362,29.038,358
-2.4952,474,0.0608,386,10.668,434,14.713,394,7.7173,310,10.453,398,13.04,318,27.076,314
3.202,334,9.5136,326,4.7063,314,16.525,258,14.893,258,19.348,258,12.117,462,27.012,462
5.6829,326,2.9717,302,2.0656,298,1.6245,322,9.2277,326,-2.4523,326,-8.5482,322,7.1378,322
-0.7789,278,-7.8041,290,0.1271,310,-4.3384,494,-0.5607,422,2.2833,274,-1.1027,374,13.168,438
15.97,450,22.507,446,10.858,278,18.363,354,13.066,346,30.352,466,15.213,350,13.75,470
3.1319,394,15.63,482,6.7733,434,11.129,486,12.082,322,22.511,322,18.27,334,13.882,326
-0.1628,422,9.6936,390,1.6443,406,18.885,394,3.7994,370,7.0038,394,19.19,378,15.263,378
0.985,486,-1.2407,438,6.2581,302,1.9085,442,9.5992,466,8.1833,458,16.639,454,27.066,454
16.635,358,22.607,438,16.909,438,24.371,434,9.5803,470,3.7648,334,5.9536,334,13.9,334
7.8049,278,22.593,278,10.357,410,17.289,350,6.7171,346,9.6518,350,19.644,350,15.419,394
12.895,410,17.281,466,12.964,418,19.251,462,14.056,446,9.6005,450,12.637,458,17.204,454
12.719,466,13.082,462,13.697,390,16.739,462,17.008,466,9.9129,458,1.1911,314,14.097,306
15.82,402,10.223,462,6.4143,462,3.1378,398,24.171,402,15.947,402,-3.4084,290,19.413,286
19.262,342,19.31,406,18.231,430,16.139,402,11.956,382,22.123,386,7.8626,410,23.368,494
7.3167,282,3.7788,262,14.172,318,-3.6844,466,6.8937,346,15.794,458,24.382,458,6.271,454
5.0427,314,10.643,294,15.78,290,8.5373,474,6.2578,270,4.2121,450,17.835,454,8.9522,446
3.3838,490,20.295,362,16.794,258,15.406,458,1.4202,286,8.8008,290,17.756,370,18.191,294
2.4822,318,8.1959,394,1.3369,446,6.6634,338,2.6121,342,-3.4715,338,-2.455,338,5.6054,478
5.8469,278,9.8853,266,11.931,302,13.763,274,16.047,278,16.679,274,4.1151,406,11.326,274
12.476,334,11.858,338,2.5188,334,6.2145,262,21.615,306,17.633,310,1.1609,262,14.464,386
10.465,446,5.7655,450,3.3989,474,6.1678,450,15.959,406,6.7421,406,0.1301,338,6.4803,346
14.84,490,12.127,482,5.6856,366,0.5731,278,6.4452,274,10.999,446,14.727,446,17.038,446
15.158,326,14.958,262,14.26,258,7.9129,430,18.245,322,15.469,326,8.7759,426,11.021,430
5.0211,262,12.308,290,6.6684,282,13.675,402,9.6246,262,16.523,266,15.897,402,3.9721,434
10.997,402,14.247,378,7.3906,310,8.525,374,12.446,454,6.4033,450,2.5692,378,-0.0204,450
-0.8993,342,12.282,418,7.3476,474,14.441,282,13.806,282,6.406,282,23.228,482,17.413,486
4.3895,346,-5.7703,442,3.0925,406,-0.3085,402,-7.48,346,12.685,426,4.9246,394,3.6142,386
18.59,410,10.041,270,5.103,278,2.9312,346,20.186,414,15.43,422,8.7537,458,22.898,430
19.585,414,25.241,326,12.722,334,21.7,310,20.418,306,23.677,306,12.176,298,17.552,382
6.5998,450,10.637,390,0.7312,414,3.2475,310,12.744,314,21.19,314,18.815,314,43.15,470
8.6867,394,10.557,390,3.0727,390,13.605,354,5.9844,354,15.575,350,16.313,358,16.169,358
8.4972,442,13.573,442,5.6819,478,13.014,426,12.283,314,14.337,422,12.741,422,13.156,414
11.894,302,12.998,410,1.3255,350,12.819,402,19.031,302,12.896,394,19.102,394,29.653,394
17.424,346,15.356,486,5.5066,310,11.855,350,1.1917,298,7.4776,302,4.9853,302,8.2189,302
13.634,414,16.41,494,12.163,462,15.087,358,12.535,314,8.9768,318,17.067,322,21.464,330
20.159,346,17.615,354,10.943,302,7.5838,350,10.437,418,5.1203,422,-1.5202,426,5.3783,410
6.227,450,0.9713,282,11.501,394,9.8803,286,10.842,302,15.316,286,16.517,390,15.508,278
-1.4621,398,9.1942,494,5.6277,490,4.7615,330,8.1018,382,13.76,330,24.505,326,34.393,326
14.368,290,-6.644,466,8.4363,302,-3.1552,466,5.3293,330,5.1364,466,-5.2465,470,-4.8382,330
1.0201,306,11.334,386,7.0126,398,15.485,266,6.9146,286,12.38,258,28.617,402,19.867,258
10.374,450,23.192,406,7.0779,258,20.201,490,5.3741,358,0.5911,354,9.7022,494,-6.5595,330
7.4862,486,18.415,382,11.833,378,27.286,374,11.143,494,16.173,358,13.91,366,15.956,346
-0.1733,338,2.3399,338,-0.854,350,12.095,394,17.534,266,21.463,394,20.389,374,24.425,390
9.4749,294,1.6217,346,13.208,322,2.0953,350,20.504,462,11.251,262,10.985,258,19.16,262
21.635,470,24.719,426,20.95,386,24.381,422,12.502,258,10.732,262,18.921,422,9.8353,258
5.4716,394,8.6268,490,3.6549,414,23.716,490,4.1405,490,13.076,362,11.433,494,15.545,362
1.738,486,3.5015,266,6.2941,258,14.391,274,17.568,282,17.727,278,25.672,278,34.452,282
1.606,402,1.345,466,3.8025,458,2.3499,378,5.6399,310,4.187,386,3.0044,382,18.297,382
13.306,330,19.725,394,9.623,394,19.864,394,10.707,410,19.685,406,12.683,394,15.492,470
16.829,470,18.679,462,11.637,414,14.487,454,12.965,430,27.695,430,20.642,446,9.2951,438
12.026,302,8.8956,406,4.4935,466,9.0625,474,11.909,322,4.4857,258,15.262,350,8.5262,342
9.2226,438,14.214,434,13.242,318,7.0349,286,1.5413,290,6.6855,470,6.7592,470,21.025,470
9.2471,294,28.541,450,12.379,446,20.035,350,10.294,478,12.126,426,19.725,350,20.763,426
26.284,442,15.924,438,4.0051,430,8.8566,438,10.936,338,0.5134,266,4.1343,370,3.6605,334
0.1701,386,0.6645,394,6.4344,402,10.19,402,5.2174,306,0.0623,306,6.6353,294,8.2486,362
2.355,294,12.385,438,10.9,442,5.5724,278,7.2434,294,6.9105,286,11.524,354,24.867,358
19.538,410,6.2564,410,3.5374,426,1.2153,410,10.827,370,3.9866,370,-6.8822,278,-3.1629,270
18.784,398,25.571,474,14.582,470,15.808,466,14.705,346,11.961,450,4.6497,454,15.669,442
9.418,314,7.2828,418,9.1009,398,6.5706,390,9.3149,266,16.494,350,1.991,338,11.495,338
7.1967,414,18.891,494,9.4915,390,12.164,470,10.23,354,20.916,358,9.5564,298,15.179,358
3.9685,458,15.674,466,4.27,474,4.8777,466,6.0524,434,6.4406,434,8.4,430,12.515,274
13.165,438,15.514,426,10.796,422,19.01,450,10.162,454,13.81,450,13.352,454,9.349,454
6.823,370,9.2231,306,10.528,266,6.0239,486,3.4658,402,0.9558,402,2.5298,494,0.5577,494
6.3161,466,7.1655,414,10.982,418,7.5225,414,11.318,454,6.4658,454,15.469,422,9.6713,362
-4.9258,382,3.3641,266,-3.6898,382,2.6006,414,8.8514,422,8.0036,414,10.868,418,18.408,414
4.6791,470,8.347,350,2.967,338,12.682,350,15.936,354,11.97,270,11.49,270,34.246,274
15.967,494,19.846,470,21.976,470,16.237,470,14.966,426,15.975,430,11.713,358,30.112,434
13.357,334,4.2513,282,5.2049,282,15.693,290,14.243,302,23.166,298,15.802,294,24.136,302
12.35,466,15.143,298,11.349,406,14.002,294,6.4842,282,15.622,358,8.7545,414,16.654,418
-1.8631,398,9.6806,278,11.758,262,3.4524,490,9.3614,342,9.6633,346,15.781,490,11.906,350
3.12,462,22.478,466,9.1516,462,8.1391,474,4.099,490,12.243,490,19.82,426,12.904,426
-0.9906,298,9.2,258,5.6164,438,5.3802,462,6.6355,366,10.424,366,19.054,478,22.738,374
5.0345,266,7.039,342,3.6411,342,10.083,342,8.428,266,3.3829,270,7.9911,482,24.512,486
14.183,426,15.181,414,5.2787,290,20.421,294,14.43,286,20.658,290,18.123,294,23.544,290
20.614,382,18.823,378,6.7945,386,14.159,358,10.414,442,8.1884,442,6.663,314,13.336,442
11.801,326,19.131,326,9.6332,326,12.57,362,5.288,434,13.135,438,15.238,366,22.546,366
4.8847,274,10.025,334,10.56,458,9.3749,310,10.808,294,10.854,306,15.748,426,7.8065,306
5.0124,274,5.2397,330,3.8233,346,15.954,338,15.149,474,20.34,338,22.217,458,17.9,474
10.052,262,4.924,266,2.2392,482,1.8247,270,-2.4657,266,-6.7375,262,-2.5431,378,-14.583,386
5.7966,278,7.9579,274,20.081,426,16.474,430,2.3865,298,3.1248,298,8.1919,310,12.359,306
