0.85073,0.14927
0.67259,0.32741
0.92676,0.073237
0.95499,0.04501
0.913,0.086997
0.36341,0.63659
0.19146,0.80854
0.36495,0.63505
0.28994,0.71006
0.40019,0.59981
0.23182,0.76818
0.55961,0.44039
0.67527,0.32473
0.3268,0.6732
0.52172,0.47828
0.76676,0.23324
0.82612,0.17388
0.59883,0.40117
0.027722,0.97228
0.11667,0.88333
0.15243,0.84757
0.15166,0.84834
0.0060231,0.99398
0.0052184,0.99478
0.16341,0.83659
0.018665,0.98133
0.0050037,0.995
0.030853,0.96915
0.012932,0.98707
0.044544,0.95546
0.018134,0.98187
0.010276,0.98972
0.021087,0.97891
0.10317,0.89683
0.047958,0.95204
0.0010998,0.9989
0.0030478,0.99695
0.044532,0.95547
0.056819,0.94318
0.1406,0.8594
0.093125,0.90687
0.076218,0.92378
0.19643,0.80357
0.06845,0.93155
0.07751,0.92249
0.4467,0.5533
0.57339,0.42661
0.49937,0.50063
0.24374,0.75626
0.1035,0.8965
0.031492,0.96851
0.028219,0.97178
0.12169,0.87831
0.12321,0.87679
0.026304,0.9737
0.072274,0.92773
0.2596,0.7404
0.34461,0.65539
0.6704,0.3296
0.39834,0.60166
0.16509,0.83491
0.55361,0.44639
0.73196,0.26804
0.68167,0.31833
0.5312,0.4688
0.88687,0.11313
0.78857,0.21143
0.48741,0.51259
0.46531,0.53469
0.2511,0.7489
0.14387,0.85613
0.17435,0.82565
0.19573,0.80427
0.35266,0.64734
0.088335,0.91167
0.075392,0.92461
0.068191,0.93181
0.10736,0.89264
0.018493,0.98151
0.010803,0.9892
0.90074,0.099258
0.90074,0.099258
0.90074,0.099258
0.90074,0.099258
0.90074,0.099258
0.90074,0.099258
0.90074,0.099258
0.90074,0.099258
0.90074,0.099258
0.90074,0.099258
0.99001,0.0099926
0.98489,0.015111
0.99978,0.00022168
0.99992,8.4484e-05
0.99996,3.7004e-05
0.99975,0.00025254
0.99974,0.00026319
0.99986,0.00014492
0.99668,0.0033185
0.999,0.0009985
0.99836,0.0016376
0.98666,0.013344
0.99529,0.0047136
0.86046,0.13954
0.95663,0.043367
0.99016,0.0098438
0.96959,0.030413
0.98702,0.012978
0.98549,0.014506
0.99273,0.0072694
0.99504,0.0049621
0.99819,0.001809
0.99718,0.0028157
0.99782,0.0021777
0.99811,0.0018918
0.98704,0.012959
0.91068,0.089324
0.98718,0.012818
0.98292,0.017079
0.92465,0.075351
0.90992,0.090082
0.87318,0.12682
0.93025,0.069749
0.95988,0.040118
0.93724,0.062764
0.81581,0.18419
0.83726,0.16274
0.9553,0.0447
0.9859,0.014099
0.99879,0.0012072
0.99843,0.0015738
0.97395,0.026046
0.98325,0.01675
0.89516,0.10484
0.89461,0.10539
0.8886,0.1114
0.74751,0.25249
0.79646,0.20354
0.76508,0.23492
0.69176,0.30824
0.15244,0.84756
0.28824,0.71176
0.52169,0.47831
0.5535,0.4465
0.93692,0.063081
0.9733,0.026699
0.9953,0.0047014
0.9967,0.0033048
0.99621,0.0037889
0.9961,0.0038951
0.99499,0.0050086
0.99286,0.0071415
0.99674,0.0032587
0.99893,0.0010694
0.99841,0.0015933
0.99138,0.0086178
0.9897,0.010298
0.91363,0.08637
0.99115,0.0088548
0.96671,0.033291
0.95994,0.040059
0.97327,0.026729
0.9895,0.010496
0.98921,0.010786
0.99581,0.0041873
0.9915,0.0085019
0.98868,0.011319
0.95083,0.049173
0.98322,0.016777
0.99353,0.0064724
0.90074,0.099258
0.90074,0.099258
0.90074,0.099258
0.90074,0.099258
0.90074,0.099258
0.90074,0.099258
0.90074,0.099258
0.90074,0.099258
0.90074,0.099258
0.90074,0.099258
0.069623,0.93038
0.069517,0.93048
0.15427,0.84573
0.4473,0.5527
0.6934,0.3066
0.27991,0.72009
0.94102,0.058982
0.99257,0.0074275
0.98098,0.019023
0.97653,0.023474
0.89457,0.10543
0.98906,0.010941
0.964,0.036001
0.97847,0.021528
0.99452,0.0054793
0.99679,0.0032051
0.99949,0.00050946
0.95408,0.045921
0.58199,0.41801
0.61887,0.38113
0.95208,0.047919
0.95792,0.042076
0.73021,0.26979
0.98632,0.013679
0.99267,0.0073289
0.81932,0.18068
0.78578,0.21422
0.68015,0.31985
0.88078,0.11922
0.94529,0.054714
0.98965,0.010351
0.9411,0.058902
0.93103,0.06897
0.99515,0.0048478
0.99427,0.0057333
0.97833,0.021668
0.99708,0.0029205
0.98713,0.012869
0.97755,0.022451
0.98583,0.014173
0.9947,0.0053048
0.97965,0.020353
0.9149,0.085101
0.98543,0.014573
0.91614,0.083858
0.91584,0.084158
0.93146,0.068537
0.97157,0.028426
0.99332,0.0066793
0.99731,0.0026919
0.99804,0.0019567
0.99154,0.0084579
0.99405,0.0059531
0.99927,0.00073207
0.93156,0.068437
0.96517,0.034826
0.96829,0.031707
0.96792,0.032077
0.74934,0.25066
0.83973,0.16027
0.88431,0.11569
0.72807,0.27193
0.96273,0.037268
0.96374,0.036265
0.87121,0.12879
0.99853,0.0014749
0.99953,0.00046661
0.99874,0.0012649
0.99831,0.0016868
0.99821,0.0017906
0.9932,0.0067951
0.96971,0.030294
0.98602,0.013981
0.93286,0.067138
0.92274,0.077256
0.94582,0.054183
0.78236,0.21764
0.17476,0.82524
0.52115,0.47885
0.4516,0.5484
0.90074,0.099258
0.90074,0.099258
0.90074,0.099258
0.90074,0.099258
0.90074,0.099258
0.90074,0.099258
0.90074,0.099258
0.90074,0.099258
0.90074,0.099258
0.90074,0.099258
0.82883,0.17117
0.47696,0.52304
0.82278,0.17722
0.97657,0.023425
0.95435,0.045652
0.9761,0.023899
0.79308,0.20692
0.91917,0.080834
0.93004,0.069959
0.83281,0.16719
0.7079,0.2921
0.90135,0.098651
0.9814,0.018603
0.98644,0.013561
0.98097,0.01903
0.98996,0.010039
0.99487,0.0051283
0.99522,0.0047794
0.91408,0.085921
0.87396,0.12604
0.96702,0.032983
0.97468,0.025319
0.99548,0.004517
0.99747,0.0025253
0.99782,0.002177
0.89831,0.10169
0.88015,0.11985
0.77149,0.22851
0.91172,0.088283
0.98265,0.017352
0.98431,0.01569
0.94543,0.054571
0.92807,0.071927
0.85964,0.14036
0.79647,0.20353
0.81098,0.18902
0.9566,0.043396
0.92977,0.070231
0.96641,0.033589
0.9237,0.076298
0.94735,0.05265
0.90943,0.09057
0.91044,0.08956
0.99515,0.0048462
0.99596,0.0040406
0.99228,0.0077185
0.99284,0.0071582
0.98552,0.014478
0.9739,0.0261
0.96145,0.038552
0.99755,0.0024494
0.98138,0.018616
0.96552,0.034485
0.99879,0.0012141
0.9857,0.014304
0.89211,0.10789
0.97719,0.022808
0.93114,0.068859
0.96466,0.03534
0.99261,0.007392
0.96271,0.037286
0.78459,0.21541
0.98157,0.018433
0.99699,0.0030135
0.92599,0.074009
0.92952,0.070479
0.9842,0.015802
0.9568,0.043196
0.92549,0.074513
0.98457,0.015431
0.96292,0.037076
0.96221,0.037794
0.94238,0.05762
0.83278,0.16722
0.74553,0.25447
0.83263,0.16737
0.52803,0.47197
0.33561,0.66439
0.13424,0.86576
0.3613,0.6387
0.90074,0.099258
0.90074,0.099258
0.90074,0.099258
0.90074,0.099258
0.90074,0.099258
0.90074,0.099258
0.90074,0.099258
0.90074,0.099258
0.90074,0.099258
0.90074,0.099258
