0.74308,0.25692
0.60124,0.39876
0.67586,0.32414
0.7642,0.2358
0.81539,0.18461
0.87397,0.12603
0.83218,0.16782
0.62045,0.37955
0.63412,0.36588
0.85891,0.14109
0.65985,0.34015
0.65668,0.34332
0.80365,0.19635
0.6933,0.3067
0.59421,0.40579
0.65381,0.34619
0.75236,0.24764
0.88458,0.11542
0.63185,0.36815
0.75401,0.24599
0.76979,0.23021
0.79708,0.20292
0.79091,0.20909
0.67436,0.32564
0.80019,0.19981
0.74264,0.25736
0.67814,0.32186
0.77155,0.22845
0.59428,0.40572
0.76861,0.23139
0.69123,0.30877
0.81067,0.18933
0.53576,0.46424
0.71132,0.28868
0.84338,0.15662
0.65381,0.34619
0.63264,0.36736
0.78068,0.21932
0.63995,0.36005
0.72649,0.27351
0.68759,0.31241
0.64421,0.35579
0.82855,0.17145
0.65644,0.34356
0.64406,0.35594
0.61256,0.38744
0.74497,0.25503
0.85916,0.14084
0.81313,0.18687
0.79091,0.20909
0.57394,0.42606
0.64421,0.35579
0.80121,0.19879
0.70989,0.29011
0.63727,0.36273
0.8503,0.1497
0.72105,0.27895
0.70618,0.29382
0.77608,0.22392
0.79713,0.20287
0.59409,0.40591
0.66016,0.33984
0.86465,0.13535
0.67348,0.32652
0.49801,0.50199
0.69431,0.30569
0.90775,0.092253
0.76722,0.23278
0.81328,0.18672
0.74253,0.25747
0.63218,0.36782
0.76153,0.23847
0.7194,0.2806
0.81676,0.18324
0.68223,0.31777
0.81043,0.18957
0.69416,0.30584
0.84896,0.15104
0.70596,0.29404
0.7331,0.2669
0.64816,0.35184
0.5864,0.4136
0.80909,0.19091
0.73589,0.26411
0.6533,0.3467
0.74178,0.25822
0.65046,0.34954
0.6865,0.3135
0.68477,0.31523
0.59664,0.40336
0.78121,0.21879
0.72446,0.27554
0.78348,0.21652
0.71354,0.28646
0.89006,0.10994
0.77565,0.22435
0.83874,0.16126
0.92234,0.077663
0.72461,0.27539
0.79032,0.20968
0.88526,0.11474
0.63194,0.36806
0.94875,0.051248
0.81896,0.18104
0.76419,0.23581
0.7524,0.2476
0.7849,0.2151
0.79288,0.20712
0.79469,0.20531
0.85461,0.14539
0.68944,0.31056
0.71962,0.28038
0.75103,0.24897
0.81994,0.18006
0.83112,0.16888
0.80623,0.19377
0.65367,0.34633
0.78674,0.21326
0.84767,0.15233
0.85228,0.14772
0.89727,0.10273
0.77354,0.22646
0.76369,0.23631
0.73649,0.26351
0.78785,0.21215
0.80855,0.19145
0.74061,0.25939
0.75218,0.24782
0.75523,0.24477
0.65125,0.34875
0.82784,0.17216
0.83695,0.16305
0.75674,0.24326
0.70867,0.29133
0.72958,0.27042
0.77882,0.22118
0.81051,0.18949
0.8229,0.1771
0.82946,0.17054
0.80974,0.19026
0.71796,0.28204
0.61433,0.38567
0.87235,0.12765
0.56066,0.43934
0.71858,0.28142
0.69833,0.30167
0.72321,0.27679
0.76898,0.23102
0.78102,0.21898
0.81051,0.18949
0.69658,0.30342
0.66165,0.33835
0.71252,0.28748
0.801,0.199
0.82043,0.17957
0.84475,0.15525
0.78986,0.21014
0.70042,0.29958
0.75966,0.24034
0.76573,0.23427
0.79407,0.20593
0.75791,0.24209
0.71402,0.28598
0.75745,0.24255
0.83943,0.16057
0.72941,0.27059
0.82314,0.17686
0.67692,0.32308
0.81811,0.18189
0.68809,0.31191
0.76905,0.23095
0.8226,0.1774
0.85798,0.14202
0.73015,0.26985
0.83988,0.16012
0.77958,0.22042
0.66555,0.33445
0.66101,0.33899
0.80511,0.19489
0.90196,0.098042
0.72058,0.27942
0.76859,0.23141
0.67714,0.32286
0.6547,0.3453
0.7963,0.2037
0.78678,0.21322
0.6619,0.3381
0.79405,0.20595
0.74387,0.25613
0.85951,0.14049
0.53735,0.46265
0.70517,0.29483
0.78518,0.21482
0.77599,0.22401
0.68007,0.31993
0.63513,0.36487
0.92887,0.071134
0.83506,0.16494
0.70968,0.29032
0.74865,0.25135
0.73616,0.26384
0.81163,0.18837
0.58652,0.41348
0.82483,0.17517
0.87094,0.12906
0.78088,0.21912
0.82434,0.17566
0.7241,0.2759
0.72066,0.27934
0.67596,0.32404
0.81502,0.18498
0.77968,0.22032
0.55225,0.44775
0.82329,0.17671
0.86193,0.13807
0.60577,0.39423
0.79681,0.20319
0.74694,0.25306
0.77324,0.22676
0.72471,0.27529
0.80139,0.19861
0.79636,0.20364
0.73645,0.26355
0.78326,0.21674
0.84124,0.15876
0.75014,0.24986
0.82789,0.17211
0.65359,0.34641
0.64853,0.35147
0.8027,0.1973
0.78376,0.21624
0.79752,0.20248
0.53189,0.46811
0.87146,0.12854
0.74243,0.25757
0.81032,0.18968
0.83435,0.16565
0.86164,0.13836
0.76633,0.23367
0.78458,0.21542
0.86536,0.13464
0.665,0.335
0.76458,0.23542
0.81854,0.18146
0.49853,0.50147
0.76306,0.23694
0.84618,0.15382
0.75259,0.24741
0.73161,0.26839
0.79419,0.20581
0.82051,0.17949
0.7792,0.2208
0.8638,0.1362
0.76305,0.23695
0.72061,0.27939
0.8823,0.1177
0.85627,0.14373
0.77722,0.22278
0.71561,0.28439
0.63338,0.36662
0.7379,0.2621
0.69775,0.30225
0.8609,0.1391
0.7257,0.2743
0.77887,0.22113
0.73482,0.26518
0.8139,0.1861
0.49607,0.50393
0.8384,0.1616
0.70328,0.29672
0.69129,0.30871
0.59895,0.40105
0.78995,0.21005
0.76037,0.23963
0.81367,0.18633
0.80664,0.19336
0.80378,0.19622
0.69951,0.30049
0.66109,0.33891
0.82255,0.17745
0.7212,0.2788
0.71587,0.28413
0.77274,0.22726
0.90571,0.094286
0.73568,0.26432
0.81051,0.18949
0.66075,0.33925
0.87312,0.12688
0.71795,0.28205
0.64528,0.35472
0.69067,0.30933
0.74007,0.25993
0.73358,0.26642
0.7092,0.2908
0.85863,0.14137
0.80164,0.19836
0.90319,0.096813
0.62973,0.37027
0.70371,0.29629
0.75806,0.24194
0.73407,0.26593
0.74931,0.25069
0.87704,0.12296
0.82328,0.17672
0.73723,0.26277
0.64027,0.35973
0.72437,0.27563
0.82254,0.17746
0.7717,0.2283
0.82887,0.17113
0.73568,0.26432
0.64018,0.35982
0.74625,0.25375
0.81241,0.18759
0.76917,0.23083
0.73403,0.26597
0.80026,0.19974
0.76214,0.23786
0.79884,0.20116
0.71164,0.28836
0.80683,0.19317
0.70745,0.29255
0.72487,0.27513
0.91118,0.088818
0.84282,0.15718
0.68835,0.31165
0.88542,0.11458
0.69853,0.30147
0.64547,0.35453
0.77669,0.22331
0.83787,0.16213
0.6672,0.3328
0.55929,0.44071
0.86165,0.13835
0.80046,0.19954
0.70909,0.29091
0.78916,0.21084
0.61765,0.38235
0.73632,0.26368
0.80542,0.19458
0.68037,0.31963
0.67973,0.32027
0.83732,0.16268
0.75733,0.24267
0.71368,0.28632
0.85746,0.14254
0.78456,0.21544
0.81614,0.18386
0.67044,0.32956
0.88819,0.11181
0.68851,0.31149
0.72524,0.27476
0.75471,0.24529
0.8162,0.1838
0.68626,0.31374
0.7076,0.2924
0.64223,0.35777
0.73556,0.26444
0.61501,0.38499
0.75838,0.24162
