0.45204,0.54796
0.51702,0.48298
0.61349,0.38651
0.83634,0.16366
0.66658,0.33342
0.80942,0.19058
0.45053,0.54947
0.62542,0.37458
0.77373,0.22627
0.80741,0.19259
0.70999,0.29001
0.83214,0.16786
0.56207,0.43793
0.81441,0.18559
0.61723,0.38277
0.86405,0.13595
0.83769,0.16231
0.75594,0.24406
0.73131,0.26869
0.73445,0.26555
0.82902,0.17098
0.94598,0.054021
0.73932,0.26068
0.80763,0.19237
0.84307,0.15693
0.72292,0.27708
0.80671,0.19329
0.86835,0.13165
0.64358,0.35642
0.8377,0.1623
0.62007,0.37993
0.79365,0.20635
0.74948,0.25052
0.82485,0.17515
0.81872,0.18128
0.70502,0.29498
0.49239,0.50761
0.61124,0.38876
0.78705,0.21295
0.73258,0.26742
0.70777,0.29223
0.59703,0.40297
0.68787,0.31213
0.8516,0.1484
0.70559,0.29441
0.71275,0.28725
0.87301,0.12699
0.92569,0.074311
0.82425,0.17575
0.80611,0.19389
0.66066,0.33934
0.85592,0.14408
0.63616,0.36384
0.62656,0.37344
0.74753,0.25247
0.89583,0.10417
0.88009,0.11991
0.88244,0.11756
0.67791,0.32209
0.88004,0.11996
0.70499,0.29501
0.82872,0.17128
0.60978,0.39022
0.74317,0.25683
0.84947,0.15053
0.717,0.283
0.85399,0.14601
0.65264,0.34736
0.70676,0.29324
0.75537,0.24463
0.62427,0.37573
0.68939,0.31061
0.9129,0.0871
0.80307,0.19693
0.77357,0.22643
0.5869,0.4131
0.72742,0.27258
0.90096,0.099042
0.6549,0.3451
0.90818,0.091819
0.77876,0.22124
0.82733,0.17267
0.62048,0.37952
0.77451,0.22549
0.56014,0.43986
0.8087,0.1913
0.65511,0.34489
0.86386,0.13614
0.79014,0.20986
0.85829,0.14171
0.8083,0.1917
0.70537,0.29463
0.45653,0.54347
0.80947,0.19053
0.65697,0.34303
0.68708,0.31292
0.6782,0.3218
0.93597,0.064031
0.80185,0.19815
0.85593,0.14407
0.6164,0.3836
0.77452,0.22548
0.65213,0.34787
0.87058,0.12942
0.65767,0.34233
0.71662,0.28338
0.44395,0.55605
0.66639,0.33361
0.62943,0.37057
0.57783,0.42217
0.66194,0.33806
0.68157,0.31843
0.49741,0.50259
0.58989,0.41011
0.47679,0.52321
0.60973,0.39027
0.66735,0.33265
0.66755,0.33245
0.89154,0.10846
0.50818,0.49182
0.34228,0.65772
0.43876,0.56124
0.78745,0.21255
0.72648,0.27352
0.86416,0.13584
0.6661,0.3339
0.62768,0.37232
0.93378,0.066219
0.65199,0.34801
0.57441,0.42559
0.58433,0.41567
0.79009,0.20991
0.53119,0.46881
0.50941,0.49059
0.5475,0.4525
0.46743,0.53257
0.51111,0.48889
0.7216,0.2784
0.50503,0.49497
0.44229,0.55771
0.90434,0.095661
0.60487,0.39513
0.42255,0.57745
0.87656,0.12344
0.66161,0.33839
0.8916,0.1084
0.849,0.151
0.38244,0.61756
0.73522,0.26478
0.78191,0.21809
0.93436,0.065637
0.6026,0.3974
0.51954,0.48046
0.71267,0.28733
0.72064,0.27936
0.64206,0.35794
0.9239,0.076105
0.7713,0.2287
0.47193,0.52807
0.49921,0.50079
0.41205,0.58795
0.80474,0.19526
0.73219,0.26781
0.66024,0.33976
0.84289,0.15711
0.45207,0.54793
0.65956,0.34044
0.63854,0.36146
0.80767,0.19233
0.80041,0.19959
0.78396,0.21604
0.84581,0.15419
0.73215,0.26785
0.5638,0.4362
0.64471,0.35529
0.75823,0.24177
0.90317,0.096831
0.53469,0.46531
0.93937,0.060628
0.89048,0.10952
0.72005,0.27995
0.82305,0.17695
0.80367,0.19633
0.78653,0.21347
0.762,0.238
0.84432,0.15568
0.90033,0.099666
0.69947,0.30053
0.9036,0.096402
0.75692,0.24308
0.91542,0.084581
0.64963,0.35037
0.91919,0.080807
0.59805,0.40195
0.92633,0.073675
0.84565,0.15435
0.8339,0.1661
0.83934,0.16066
0.90739,0.092612
0.76037,0.23963
0.73795,0.26205
0.69027,0.30973
0.82446,0.17554
0.79433,0.20567
0.59237,0.40763
0.77814,0.22186
0.8867,0.1133
0.73105,0.26895
0.81333,0.18667
0.78297,0.21703
0.93991,0.060087
0.78708,0.21292
0.70918,0.29082
0.56361,0.43639
0.63436,0.36564
0.90405,0.095953
0.83816,0.16184
0.78473,0.21527
0.89236,0.10764
0.73935,0.26065
0.9541,0.045898
0.75461,0.24539
0.85247,0.14753
0.85898,0.14102
0.8855,0.1145
0.83819,0.16181
0.671,0.329
0.71606,0.28394
0.82357,0.17643
0.78614,0.21386
0.71419,0.28581
0.8542,0.1458
0.87117,0.12883
0.81217,0.18783
0.71691,0.28309
0.52991,0.47009
0.88512,0.11488
0.7467,0.2533
0.84012,0.15988
0.79665,0.20335
0.764,0.236
0.88399,0.11601
0.95511,0.044894
0.62318,0.37682
0.78646,0.21354
0.88266,0.11734
0.73564,0.26436
0.86585,0.13415
0.55004,0.44996
0.8367,0.1633
0.68589,0.31411
0.7674,0.2326
0.92296,0.077041
0.95552,0.044479
0.86218,0.13782
0.688,0.312
0.73807,0.26193
0.63301,0.36699
0.87332,0.12668
0.84738,0.15262
0.73605,0.26395
0.58916,0.41084
0.4312,0.5688
0.65754,0.34246
0.94375,0.056247
0.82267,0.17733
0.83374,0.16626
0.87137,0.12863
0.75193,0.24807
0.64769,0.35231
0.85057,0.14943
0.72799,0.27201
0.84655,0.15345
0.90787,0.092133
0.89413,0.10587
0.74735,0.25265
0.71242,0.28758
0.88647,0.11353
0.7565,0.2435
0.56469,0.43531
0.86819,0.13181
0.76701,0.23299
0.75394,0.24606
0.82552,0.17448
0.73278,0.26722
0.91112,0.088877
0.7416,0.2584
0.90862,0.091377
0.77712,0.22288
0.78943,0.21057
0.81878,0.18122
0.85531,0.14469
0.72424,0.27576
0.84031,0.15969
0.51805,0.48195
0.69729,0.30271
0.67056,0.32944
0.87925,0.12075
0.95224,0.047762
0.86283,0.13717
0.88273,0.11727
0.75744,0.24256
0.81224,0.18776
0.89415,0.10585
0.75865,0.24135
0.85757,0.14243
0.77267,0.22733
0.72441,0.27559
0.86686,0.13314
0.8659,0.1341
0.8425,0.1575
0.80511,0.19489
0.71131,0.28869
0.6671,0.3329
0.63497,0.36503
0.92683,0.073175
0.5998,0.4002
0.8508,0.1492
0.77148,0.22852
0.79352,0.20648
0.8521,0.1479
0.85923,0.14077
0.78778,0.21222
0.93587,0.064128
0.74512,0.25488
0.7512,0.2488
0.71646,0.28354
0.83114,0.16886
0.79322,0.20678
0.9474,0.052602
0.82633,0.17367
0.87047,0.12953
0.91898,0.081019
0.75265,0.24735
0.81732,0.18268
0.91059,0.089407
0.67249,0.32751
0.883,0.117
0.9166,0.083403
0.85092,0.14908
0.72554,0.27446
0.85084,0.14916
0.80451,0.19549
0.66198,0.33802
0.54675,0.45325
0.89022,0.10978
0.88398,0.11602
0.63656,0.36344
0.91214,0.087864
0.82934,0.17066
0.85272,0.14728
0.86798,0.13202
0.88628,0.11372
0.7041,0.2959
0.80078,0.19922
0.43489,0.56511
0.59606,0.40394
0.80751,0.19249
0.62498,0.37502
0.70871,0.29129
