0.49511,0.50489
0.99252,0.0074843
0.98168,0.018323
0.99935,0.00065121
0.99895,0.0010515
0.99741,0.0025894
0.99179,0.008212
0.99783,0.0021699
0.99868,0.001319
0.9998,0.00019893
0.99991,9.395e-05
0.99997,2.5462e-05
0.9999,9.7907e-05
0.99994,6.048e-05
0.99969,0.00030857
0.99901,0.00099362
0.99915,0.00084753
0.99976,0.00024158
0.98428,0.015722
0.97987,0.02013
0.99582,0.0041753
0.99994,5.7424e-05
0.99971,0.00029282
0.99968,0.00031833
0.99618,0.0038219
0.99443,0.0055723
0.68207,0.31793
0.89439,0.10561
0.99487,0.00513
0.99881,0.0011926
0.9997,0.00030038
0.99791,0.0020858
0.92595,0.074048
0.98029,0.01971
0.98264,0.017361
0.92643,0.073572
0.90027,0.099725
0.99986,0.00014048
0.99984,0.00015916
0.99959,0.00040822
0.99982,0.00018259
0.99997,2.8685e-05
0.99998,1.6586e-05
0.99998,2.1432e-05
0.99995,5.4443e-05
0.99995,5.0356e-05
0.99999,9.5949e-06
0.99999,1.1027e-05
0.99879,0.0012087
0.9996,0.00039701
0.99952,0.00047833
0.99659,0.0034086
0.93897,0.061033
0.99003,0.0099715
0.9932,0.0068003
0.99674,0.003262
0.98865,0.011352
0.99879,0.0012099
0.99902,0.00098486
0.9996,0.00040064
0.98721,0.012789
0.97188,0.02812
0.99989,0.00011067
0.99971,0.00028974
0.9995,0.00049814
0.99631,0.003689
0.96977,0.030229
0.99881,0.0011947
0.9989,0.0010973
0.99585,0.0041455
0.99989,0.00011128
1,1.388e-06
0.99999,1.0327e-05
0.99993,6.7868e-05
0.99987,0.00012954
0.9999,9.7343e-05
0.99972,0.00027581
0.99998,1.9075e-05
0.99988,0.0001161
0.99996,4.3967e-05
0.97188,0.028117
0.97188,0.028117
0.97188,0.028117
0.97188,0.028117
0.97188,0.028117
0.97188,0.028117
0.97188,0.028117
0.97188,0.028117
0.97188,0.028117
0.97188,0.028117
0.039259,0.96074
0.022593,0.97741
0.00054605,0.99945
0.00071957,0.99928
0.00041671,0.99958
5.8739e-05,0.99994
7.3718e-05,0.99993
0.001003,0.999
7.5626e-05,0.99992
0.00027542,0.99972
0.005316,0.99468
0.038195,0.9618
0.088578,0.91142
0.24503,0.75497
0.028666,0.97133
0.018581,0.98142
0.075828,0.92417
0.02579,0.97421
0.0043067,0.99569
0.080843,0.91916
0.0039496,0.99605
0.00042996,0.99957
0.0063358,0.99366
0.0035682,0.99643
0.022031,0.97797
0.066865,0.93313
0.05224,0.94776
0.050991,0.94901
0.071985,0.92801
0.01821,0.98179
0.0024268,0.99757
0.0061585,0.99384
0.019196,0.9808
0.0024435,0.99756
0.0029492,0.99705
5.8941e-05,0.99994
6.2178e-05,0.99994
3.1167e-05,0.99997
0.00020893,0.99979
0.00033492,0.99967
0.019124,0.98088
0.0016373,0.99836
0.00077865,0.99922
0.0012766,0.99872
0.0013083,0.99869
0.00016428,0.99984
0.00069302,0.99931
0.0011848,0.99882
0.00054804,0.99945
0.0003153,0.99968
0.0037089,0.99629
0.00018129,0.99982
0.0016848,0.99832
8.2563e-05,0.99992
5.7514e-05,0.99994
5.2403e-05,0.99995
0.028782,0.97122
0.24197,0.75803
0.078143,0.92186
0.35986,0.64014
0.017222,0.98278
0.0075634,0.99244
0.01322,0.98678
0.0058429,0.99416
0.55384,0.44616
0.39565,0.60435
0.34644,0.65356
0.026342,0.97366
0.0174,0.9826
0.022279,0.97772
0.0010714,0.99893
0.015537,0.98446
0.0023496,0.99765
0.0025588,0.99744
0.00073755,0.99926
0.0043275,0.99567
0.03915,0.96085
0.050868,0.94913
0.013,0.987
0.001381,0.99862
0.97188,0.028117
0.97188,0.028117
0.97188,0.028117
0.97188,0.028117
0.97188,0.028117
0.97188,0.028117
0.97188,0.028117
0.97188,0.028117
0.97188,0.028117
0.97188,0.028117
0.91534,0.084655
0.9348,0.0652
0.94646,0.05354
0.99486,0.0051393
0.99968,0.00031946
0.99993,7.107e-05
0.99927,0.00073274
0.99944,0.00056493
1,2.4564e-06
0.99996,4.4704e-05
1,7.6431e-07
1,8.6782e-07
1,5.1661e-07
1,8.5264e-07
0.99994,5.8665e-05
0.99999,1.3794e-05
0.99991,9.0191e-05
0.9999,9.6938e-05
0.99997,2.898e-05
0.99997,2.7412e-05
0.9997,0.0003004
0.99965,0.00035112
0.99571,0.004294
0.98996,0.010043
0.98318,0.016815
0.99307,0.0069323
0.99467,0.0053314
0.9986,0.0014003
0.99901,0.00099022
0.99937,0.0006329
0.99813,0.0018746
0.99966,0.00034326
0.99914,0.00086481
0.99983,0.0001731
0.99997,3.3393e-05
1,3.5649e-06
1,1.2666e-06
0.99999,5.693e-06
0.99999,1.3753e-05
0.99999,5.2927e-06
0.99996,4.2584e-05
1,8.3957e-07
1,5.4185e-07
1,2.7078e-06
0.99994,5.8123e-05
0.98615,0.013853
0.9931,0.0069038
0.99974,0.00025894
0.99586,0.0041379
0.99942,0.00058398
0.99888,0.0011221
0.99743,0.0025727
0.98596,0.014036
0.96541,0.034594
0.99489,0.0051144
0.9991,0.00090405
0.9984,0.0015992
0.9148,0.085204
0.46481,0.53519
0.98752,0.012477
0.97804,0.021957
0.98654,0.013456
0.99533,0.004669
0.66307,0.33693
0.98525,0.014753
0.83518,0.16482
0.22241,0.77759
0.80144,0.19856
0.99927,0.00072581
0.99986,0.00014185
0.99989,0.00010809
0.99957,0.00043339
0.99495,0.0050519
0.99181,0.0081894
0.98992,0.010078
0.19983,0.80017
0.62714,0.37286
0.99066,0.0093443
0.9955,0.0044989
0.80581,0.19419
0.97188,0.028117
0.97188,0.028117
0.97188,0.028117
0.97188,0.028117
0.97188,0.028117
0.97188,0.028117
0.97188,0.028117
0.97188,0.028117
0.97188,0.028117
0.97188,0.028117
0.99946,0.00054416
0.98453,0.015468
0.99763,0.0023744
0.99488,0.0051155
0.98392,0.016079
0.98704,0.012963
0.9812,0.018799
0.99798,0.0020168
0.98894,0.011061
0.9981,0.0018987
0.99923,0.00077338
0.99934,0.00066137
0.99937,0.00062929
0.99983,0.00016903
0.99751,0.0024868
0.99969,0.00031012
0.99953,0.00046645
0.99988,0.0001244
0.99882,0.0011801
0.99987,0.00013102
0.99975,0.00024625
0.99973,0.00027123
0.9999,9.6581e-05
0.99998,1.6028e-05
0.99995,4.9689e-05
0.99996,4.0608e-05
0.99993,7.2866e-05
0.99985,0.00015487
0.99982,0.00018146
0.99992,7.6695e-05
0.99989,0.00011437
0.99996,4.383e-05
0.99968,0.00032347
0.99925,0.00075077
0.99993,6.5888e-05
0.99683,0.0031733
0.99994,5.8068e-05
0.99957,0.00042822
0.99934,0.00066405
0.99994,6.4405e-05
0.9988,0.0011976
0.99782,0.002179
0.99571,0.0042942
0.99989,0.00010856
0.99992,8.1527e-05
0.99959,0.00041363
0.99989,0.0001091
0.9972,0.0028015
0.99656,0.0034444
0.99901,0.00098944
0.99737,0.0026303
0.99957,0.00043233
0.99994,5.8887e-05
0.99911,0.00089255
0.96978,0.03022
0.96177,0.038232
0.99937,0.00062692
0.99844,0.001555
0.99989,0.00011102
0.99999,1.0935e-05
0.99999,5.4884e-06
0.99999,5.6626e-06
1,2.0144e-06
0.99721,0.0027934
0.99933,0.00067197
0.99981,0.00019187
0.99958,0.00041627
0.91508,0.084917
0.98828,0.011724
0.88613,0.11387
0.98969,0.010313
0.94381,0.056185
0.64072,0.35928
0.78035,0.21965
0.98896,0.011038
0.98424,0.015762
0.97338,0.02662
0.97403,0.025966
0.78584,0.21416
0.75107,0.24893
0.97188,0.028117
0.97188,0.028117
0.97188,0.028117
0.97188,0.028117
0.97188,0.028117
0.97188,0.028117
0.97188,0.028117
0.97188,0.028117
0.97188,0.028117
0.97188,0.028117
