0.86057,0.13943
0.83624,0.16376
0.89166,0.10834
0.86325,0.13675
0.54495,0.45505
0.62213,0.37787
0.9615,0.038499
0.76091,0.23909
0.87242,0.12758
0.92042,0.079576
0.8518,0.1482
0.73104,0.26896
0.89736,0.10264
0.87038,0.12962
0.77591,0.22409
0.79349,0.20651
0.90567,0.094332
0.87004,0.12996
0.74295,0.25705
0.89854,0.10146
0.72345,0.27655
0.87359,0.12641
0.71579,0.28421
0.63988,0.36012
0.91816,0.081837
0.86341,0.13659
0.79864,0.20136
0.75753,0.24247
0.81322,0.18678
0.91168,0.088322
0.81656,0.18344
0.69095,0.30905
0.67848,0.32152
0.8846,0.1154
0.77203,0.22797
0.89663,0.10337
0.53911,0.46089
0.56739,0.43261
0.76588,0.23412
0.82422,0.17578
0.715,0.285
0.61508,0.38492
0.63773,0.36227
0.59924,0.40076
0.93971,0.060293
0.67926,0.32074
0.50624,0.49376
0.83835,0.16165
0.94223,0.057765
0.82584,0.17416
0.74607,0.25393
0.72311,0.27689
0.77612,0.22388
0.73649,0.26351
0.72512,0.27488
0.9088,0.091199
0.88773,0.11227
0.56337,0.43663
0.75846,0.24154
0.9464,0.053598
0.94069,0.059308
0.88716,0.11284
0.60255,0.39745
0.52177,0.47823
0.86471,0.13529
0.54054,0.45946
0.88917,0.11083
0.49709,0.50291
0.33164,0.66836
0.68923,0.31077
0.85925,0.14075
0.65935,0.34065
0.62836,0.37164
0.68101,0.31899
0.77903,0.22097
0.86853,0.13147
0.76814,0.23186
0.79201,0.20799
0.9608,0.039197
0.95053,0.04947
0.76902,0.23098
0.76344,0.23656
0.85535,0.14465
0.88775,0.11225
0.88945,0.11055
0.7924,0.2076
0.76716,0.23284
0.73183,0.26817
0.79323,0.20677
0.869,0.131
0.65333,0.34667
0.89745,0.10255
0.78895,0.21105
0.85956,0.14044
0.90851,0.091495
0.72129,0.27871
0.80208,0.19792
0.93588,0.064125
0.78394,0.21606
0.76108,0.23892
0.87165,0.12835
0.85823,0.14177
0.92518,0.074825
0.78871,0.21129
0.80578,0.19422
0.90286,0.097141
0.76297,0.23703
0.93317,0.066832
0.62534,0.37466
0.7001,0.2999
0.78866,0.21134
0.80667,0.19333
0.9293,0.070704
0.66197,0.33803
0.66669,0.33331
0.70631,0.29369
0.5692,0.4308
0.86024,0.13976
0.85065,0.14935
0.77347,0.22653
0.82719,0.17281
0.70805,0.29195
0.85969,0.14031
0.78631,0.21369
0.55956,0.44044
0.82567,0.17433
0.89523,0.10477
0.67395,0.32605
0.90769,0.09231
0.86752,0.13248
0.78395,0.21605
0.64935,0.35065
0.68224,0.31776
0.83174,0.16826
0.85876,0.14124
0.79087,0.20913
0.84036,0.15964
0.94667,0.053333
0.85417,0.14583
0.84884,0.15116
0.24643,0.75357
0.66871,0.33129
0.79722,0.20278
0.88151,0.11849
0.84965,0.15035
0.83157,0.16843
0.69099,0.30901
0.88129,0.11871
0.83414,0.16586
0.94441,0.055593
0.89774,0.10226
0.92759,0.072405
0.90561,0.094386
0.88952,0.11048
0.49103,0.50897
0.95871,0.041289
0.87967,0.12033
0.51969,0.48031
0.90252,0.097485
0.88439,0.11561
0.862,0.138
0.73877,0.26123
0.56984,0.43016
0.93875,0.061247
0.91622,0.083784
0.54593,0.45407
0.71275,0.28725
0.8247,0.1753
0.75132,0.24868
0.76212,0.23788
0.71028,0.28972
0.81815,0.18185
0.80301,0.19699
0.81994,0.18006
0.68046,0.31954
0.78828,0.21172
0.82882,0.17118
0.57866,0.42134
0.50234,0.49766
0.84473,0.15527
0.74972,0.25028
0.42395,0.57605
0.47025,0.52975
0.84781,0.15219
0.44843,0.55157
0.5924,0.4076
0.47248,0.52752
0.50933,0.49067
0.71758,0.28242
0.83353,0.16647
0.60462,0.39538
0.63791,0.36209
0.74673,0.25327
0.77012,0.22988
0.83214,0.16786
0.69461,0.30539
0.58337,0.41663
0.33676,0.66324
0.57492,0.42508
0.72376,0.27624
0.73013,0.26987
0.84202,0.15798
0.67225,0.32775
0.79055,0.20945
0.75268,0.24732
0.21756,0.78244
0.68769,0.31231
0.86708,0.13292
0.85864,0.14136
0.6001,0.3999
0.86147,0.13853
0.72388,0.27612
0.61281,0.38719
0.76572,0.23428
0.58561,0.41439
0.71319,0.28681
0.87077,0.12923
0.82733,0.17267
0.3501,0.6499
0.54237,0.45763
0.84046,0.15954
0.86157,0.13843
0.49752,0.50248
0.89811,0.10189
0.7937,0.2063
0.69958,0.30042
0.58138,0.41862
0.74049,0.25951
0.78763,0.21237
0.80297,0.19703
0.83647,0.16353
0.61466,0.38534
0.76119,0.23881
0.56886,0.43114
0.84276,0.15724
0.6094,0.3906
0.42121,0.57879
0.67066,0.32934
0.5921,0.4079
0.69245,0.30755
0.45772,0.54228
0.88469,0.11531
0.45835,0.54165
0.89381,0.10619
0.40268,0.59732
0.58493,0.41507
0.80603,0.19397
0.68655,0.31345
0.64426,0.35574
0.38648,0.61352
0.76763,0.23237
0.38708,0.61292
0.50799,0.49201
0.81281,0.18719
0.83253,0.16747
0.60703,0.39297
0.62257,0.37743
0.66823,0.33177
0.87968,0.12032
0.68751,0.31249
0.73241,0.26759
0.37001,0.62999
0.35765,0.64235
0.84704,0.15296
0.59459,0.40541
0.42545,0.57455
0.90166,0.098336
0.79854,0.20146
0.50762,0.49238
0.85389,0.14611
0.61435,0.38565
0.71071,0.28929
0.74303,0.25697
0.91395,0.086049
0.87647,0.12353
0.73551,0.26449
0.78323,0.21677
0.90491,0.095093
0.74591,0.25409
0.77988,0.22012
0.97334,0.026663
0.68295,0.31705
0.75576,0.24424
0.32771,0.67229
0.84384,0.15616
0.87578,0.12422
0.91359,0.086412
0.59097,0.40903
0.79139,0.20861
0.91423,0.085765
0.49673,0.50327
0.89452,0.10548
0.72309,0.27691
0.90578,0.094218
0.80216,0.19784
0.95797,0.042026
0.67295,0.32705
0.7997,0.2003
0.67193,0.32807
0.8155,0.1845
0.79843,0.20157
0.48357,0.51643
0.85819,0.14181
0.78027,0.21973
0.63312,0.36688
0.93636,0.063641
0.87088,0.12912
0.90469,0.095315
0.86461,0.13539
0.95464,0.045355
0.90645,0.09355
0.86036,0.13964
0.83019,0.16981
0.97422,0.025784
0.40401,0.59599
0.74483,0.25517
0.61784,0.38216
0.49219,0.50781
0.85394,0.14606
0.78536,0.21464
0.7028,0.2972
0.75928,0.24072
0.49778,0.50222
0.90545,0.094546
0.85076,0.14924
0.71776,0.28224
0.65187,0.34813
0.88561,0.11439
0.54209,0.45791
0.68572,0.31428
0.70748,0.29252
0.65769,0.34231
0.89243,0.10757
0.6449,0.3551
0.65782,0.34218
0.78285,0.21715
0.70798,0.29202
0.89796,0.10204
0.79086,0.20914
0.89662,0.10338
0.79699,0.20301
0.77358,0.22642
0.90406,0.09594
0.80678,0.19322
0.85484,0.14516
0.71888,0.28112
0.71166,0.28834
0.75136,0.24864
0.61,0.39
0.79324,0.20676
0.83225,0.16775
0.86268,0.13732
0.84532,0.15468
0.62122,0.37878
0.86551,0.13449
0.84912,0.15088
0.84357,0.15643
0.89133,0.10867
0.71489,0.28511
0.89758,0.10242
